4337.569	0.0001	-0.0001	-0.0014	-0.0037	637	5617	436	5124	5617	4	1	0	135	140
4348.043	0.0001	-0.0001	-0.0014	-0.0037	645	5574	426	5205	5574	0	2	0	168	170
4358.472	0.0001	-0.0001	-0.0014	-0.0037	635	5674	415	4996	5674	2	1	1	140	144
