3.5887849055653582
-1.3154121795772933
2.7629270594094892
2.7722175484902483
4.240562150670506
-4.3391743860986836
-4.723327138230941
-1.976912719472983
0.5206011867218283
4.480418143253942
-1.8855385312957287
2.6281973938145953
2.0938085638279222
0.25863146034136797
-1.2326276977229957
-2.4420736231057694
-0.7933219638102447
2.1039515735763974
-1.070141706362957
0.46348213947068917
1.5047055039374522
-4.127021238966609
1.975216294527538
0.3856268423832869
0.5683887671690666
