Time	HWP_a1	QWP_a1	HWP_a2	QWP_a2	Single Count 1	Single Count 2	Single Count 3	Single Count 4	Sum	Coincidence Count 1	Coincidence Count 2	Coincidence Count 3	Coincidence Count 4	Coincidence Sum
6650,8630	0,0001	-22,4999	0,0002	22,4999	-0,0008	35437,0000	6046,0000	1164,0000	43756,0000	86403,0000	5,0000	969,0000	8,0000	18,0000	1000,0000
6665,4720	0,0001	-22,4999	0,0002	22,4999	-0,0008	36119,0000	6435,0000	1209,0000	45147,0000	88910,0000	3,0000	972,0000	6,0000	19,0000	1000,0000
6680,3020	0,0001	-22,4999	0,0002	22,4999	-0,0008	37161,0000	6590,0000	1175,0000	46160,0000	91086,0000	1,0000	961,0000	8,0000	30,0000	1000,0000
