Coincidence Count 1	Coincidence Count 2	Coincidence Count 3	Coincidence Count 4
0,0000	196,0000	6,0000	798,0000
0,0000	204,0000	5,0000	791,0000
0,0000	198,0000	6,0000	796,0000
0,0000	196,0000	6,0000	798,0000
0,0000	204,0000	5,0000	791,0000
0,0000	198,0000	6,0000	796,0000
0,0000	204,0000	5,0000	791,0000
0,0000	198,0000	6,0000	796,0000
0,0000	196,0000	6,0000	798,0000
0,0000	204,0000	5,0000	791,0000
0,0000	198,0000	6,0000	796,0000
0,0000	196,0000	6,0000	798,0000
0,0000	204,0000	5,0000	791,0000
0,0000	198,0000	6,0000	796,0000
0,0000	204,0000	5,0000	791,0000
0,0000	198,0000	6,0000	796,0000
0,0000	204,0000	5,0000	791,0000
0,0000	198,0000	6,0000	796,0000
0,0000	196,0000	6,0000	798,0000
0,0000	204,0000	5,0000	791,0000
0,0000	198,0000	6,0000	796,0000
0,0000	204,0000	5,0000	791,0000
0,0000	198,0000	6,0000	796,0000
0,0000	196,0000	6,0000	798,0000
0,0000	204,0000	5,0000	791,0000
0,0000	198,0000	6,0000	796,0000
0,0000	196,0000	6,0000	798,0000
0,0000	204,0000	5,0000	791,0000
0,0000	198,0000	6,0000	796,0000
0,0000	204,0000	5,0000	791,0000
0,0000	198,0000	6,0000	796,0000
0,0000	196,0000	6,0000	798,0000
0,0000	204,0000	5,0000	791,0000
0,0000	198,0000	6,0000	796,0000
0,0000	204,0000	5,0000	791,0000
0,0000	198,0000	6,0000	796,0000
0,0000	196,0000	6,0000	798,0000
0,0000	204,0000	5,0000	791,0000
0,0000	198,0000	6,0000	796,0000
0,0000	196,0000	6,0000	798,0000
0,0000	204,0000	5,0000	791,0000
0,0000	198,0000	6,0000	796,0000
0,0000	204,0000	5,0000	791,0000
0,0000	198,0000	6,0000	796,0000
0,0000	204,0000	5,0000	791,0000
0,0000	198,0000	6,0000	796,0000
0,0000	196,0000	6,0000	798,0000
0,0000	204,0000	5,0000	791,0000
0,0000	198,0000	6,0000	796,0000
0,0000	204,0000	5,0000	791,0000
0,0000	198,0000	6,0000	796,0000
0,0000	196,0000	6,0000	798,0000
0,0000	204,0000	5,0000	791,0000
0,0000	198,0000	6,0000	796,0000
0,0000	196,0000	6,0000	798,0000
0,0000	204,0000	5,0000	791,0000
0,0000	198,0000	6,0000	796,0000
0,0000	204,0000	5,0000	791,0000
0,0000	198,0000	6,0000	796,0000
0,0000	196,0000	6,0000	798,0000
0,0000	204,0000	5,0000	791,0000
0,0000	198,0000	6,0000	796,0000
0,0000	196,0000	6,0000	798,0000
0,0000	204,0000	5,0000	791,0000
0,0000	198,0000	6,0000	796,0000
0,0000	204,0000	5,0000	791,0000
0,0000	198,0000	6,0000	796,0000
0,0000	204,0000	5,0000	791,0000
0,0000	198,0000	6,0000	796,0000
0,0000	196,0000	6,0000	798,0000
0,0000	204,0000	5,0000	791,0000
0,0000	198,0000	6,0000	796,0000
0,0000	204,0000	5,0000	791,0000
0,0000	198,0000	6,0000	796,0000
0,0000	196,0000	6,0000	798,0000
0,0000	204,0000	5,0000	791,0000
0,0000	198,0000	6,0000	796,0000
0,0000	196,0000	6,0000	798,0000
0,0000	204,0000	5,0000	791,0000
0,0000	198,0000	6,0000	796,0000
0,0000	204,0000	5,0000	791,0000
0,0000	198,0000	6,0000	796,0000
0,0000	196,0000	6,0000	798,0000
0,0000	204,0000	5,0000	791,0000
0,0000	198,0000	6,0000	796,0000
0,0000	204,0000	5,0000	791,0000
0,0000	198,0000	6,0000	796,0000
0,0000	196,0000	6,0000	798,0000
0,0000	204,0000	5,0000	791,0000
0,0000	198,0000	6,0000	796,0000
0,0000	196,0000	6,0000	798,0000
0,0000	204,0000	5,0000	791,0000
0,0000	198,0000	6,0000	796,0000
0,0000	204,0000	5,0000	791,0000
0,0000	198,0000	6,0000	796,0000
0,0000	204,0000	5,0000	791,0000
0,0000	198,0000	6,0000	796,0000
0,0000	196,0000	6,0000	798,0000
0,0000	204,0000	5,0000	791,0000
0,0000	198,0000	6,0000	796,0000
0,0000	204,0000	5,0000	791,0000
0,0000	198,0000	6,0000	796,0000
0,0000	196,0000	6,0000	798,0000
0,0000	204,0000	5,0000	791,0000
0,0000	198,0000	6,0000	796,0000
0,0000	196,0000	6,0000	798,0000
0,0000	204,0000	5,0000	791,0000
0,0000	198,0000	6,0000	796,0000
0,0000	196,0000	6,0000	798,0000
0,0000	204,0000	5,0000	791,0000
0,0000	198,0000	6,0000	796,0000
0,0000	204,0000	5,0000	791,0000
0,0000	198,0000	6,0000	796,0000
0,0000	196,0000	6,0000	798,0000
0,0000	204,0000	5,0000	791,0000
0,0000	198,0000	6,0000	796,0000
0,0000	196,0000	6,0000	798,0000
0,0000	204,0000	5,0000	791,0000
0,0000	198,0000	6,0000	796,0000
0,0000	204,0000	5,0000	791,0000
0,0000	198,0000	6,0000	796,0000
0,0000	204,0000	5,0000	791,0000
0,0000	198,0000	6,0000	796,0000
0,0000	196,0000	6,0000	798,0000
0,0000	204,0000	5,0000	791,0000
0,0000	198,0000	6,0000	796,0000
0,0000	204,0000	5,0000	791,0000
0,0000	198,0000	6,0000	796,0000
0,0000	196,0000	6,0000	798,0000
0,0000	204,0000	5,0000	791,0000
0,0000	198,0000	6,0000	796,0000
0,0000	196,0000	6,0000	798,0000
0,0000	204,0000	5,0000	791,0000
0,0000	198,0000	6,0000	796,0000
0,0000	204,0000	5,0000	791,0000
0,0000	198,0000	6,0000	796,0000
0,0000	196,0000	6,0000	798,0000
0,0000	204,0000	5,0000	791,0000
0,0000	198,0000	6,0000	796,0000
0,0000	204,0000	5,0000	791,0000
0,0000	198,0000	6,0000	796,0000
0,0000	196,0000	6,0000	798,0000
0,0000	204,0000	5,0000	791,0000
0,0000	198,0000	6,0000	796,0000
0,0000	196,0000	6,0000	798,0000
0,0000	204,0000	5,0000	791,0000
0,0000	198,0000	6,0000	796,0000
0,0000	204,0000	5,0000	791,0000
0,0000	198,0000	6,0000	796,0000
0,0000	204,0000	5,0000	791,0000
0,0000	198,0000	6,0000	796,0000
0,0000	196,0000	6,0000	798,0000
0,0000	204,0000	5,0000	791,0000
0,0000	198,0000	6,0000	796,0000
0,0000	204,0000	5,0000	791,0000
0,0000	198,0000	6,0000	796,0000
0,0000	196,0000	6,0000	798,0000
0,0000	204,0000	5,0000	791,0000
0,0000	198,0000	6,0000	796,0000
0,0000	196,0000	6,0000	798,0000
0,0000	204,0000	5,0000	791,0000
0,0000	198,0000	6,0000	796,0000
0,0000	204,0000	5,0000	791,0000
0,0000	198,0000	6,0000	796,0000
0,0000	196,0000	6,0000	798,0000
0,0000	204,0000	5,0000	791,0000
0,0000	198,0000	6,0000	796,0000
0,0000	196,0000	6,0000	798,0000
0,0000	204,0000	5,0000	791,0000
0,0000	198,0000	6,0000	796,0000
0,0000	204,0000	5,0000	791,0000
0,0000	198,0000	6,0000	796,0000
0,0000	204,0000	5,0000	791,0000
0,0000	198,0000	6,0000	796,0000
0,0000	196,0000	6,0000	798,0000
0,0000	204,0000	5,0000	791,0000
0,0000	198,0000	6,0000	796,0000
0,0000	204,0000	5,0000	791,0000
0,0000	198,0000	6,0000	796,0000
0,0000	196,0000	6,0000	798,0000
0,0000	204,0000	5,0000	791,0000
0,0000	198,0000	6,0000	796,0000
0,0000	196,0000	6,0000	798,0000
0,0000	204,0000	5,0000	791,0000
0,0000	198,0000	6,0000	796,0000
0,0000	204,0000	5,0000	791,0000
0,0000	198,0000	6,0000	796,0000
0,0000	196,0000	6,0000	798,0000
0,0000	204,0000	5,0000	791,0000
0,0000	198,0000	6,0000	796,0000
0,0000	204,0000	5,0000	791,0000
0,0000	198,0000	6,0000	796,0000
0,0000	196,0000	6,0000	798,0000
0,0000	204,0000	5,0000	791,0000
0,0000	198,0000	6,0000	796,0000
0,0000	196,0000	6,0000	798,0000
0,0000	204,0000	5,0000	791,0000
0,0000	198,0000	6,0000	796,0000
0,0000	204,0000	5,0000	791,0000
0,0000	198,0000	6,0000	796,0000
0,0000	204,0000	5,0000	791,0000
0,0000	198,0000	6,0000	796,0000
0,0000	196,0000	6,0000	798,0000
0,0000	204,0000	5,0000	791,0000
0,0000	198,0000	6,0000	796,0000
0,0000	204,0000	5,0000	791,0000
0,0000	198,0000	6,0000	796,0000
0,0000	204,0000	5,0000	791,0000
0,0000	198,0000	6,0000	796,0000
0,0000	204,0000	5,0000	791,0000
0,0000	198,0000	6,0000	796,0000
0,0000	196,0000	6,0000	798,0000
0,0000	204,0000	5,0000	791,0000
0,0000	198,0000	6,0000	796,0000
0,0000	196,0000	6,0000	798,0000
0,0000	204,0000	5,0000	791,0000
0,0000	198,0000	6,0000	796,0000
0,0000	204,0000	5,0000	791,0000
0,0000	198,0000	6,0000	796,0000
0,0000	196,0000	6,0000	798,0000
0,0000	204,0000	5,0000	791,0000
0,0000	198,0000	6,0000	796,0000
0,0000	204,0000	5,0000	791,0000
0,0000	198,0000	6,0000	796,0000
0,0000	196,0000	6,0000	798,0000
0,0000	204,0000	5,0000	791,0000
0,0000	198,0000	6,0000	796,0000
0,0000	198,0000	6,0000	796,0000
0,0000	204,0000	5,0000	791,0000
0,0000	198,0000	6,0000	796,0000
0,0000	196,0000	6,0000	798,0000
0,0000	204,0000	5,0000	791,0000
0,0000	198,0000	6,0000	796,0000
0,0000	204,0000	5,0000	791,0000
0,0000	198,0000	6,0000	796,0000
0,0000	204,0000	5,0000	791,0000
0,0000	198,0000	6,0000	796,0000
0,0000	204,0000	5,0000	791,0000
0,0000	198,0000	6,0000	796,0000
0,0000	196,0000	6,0000	798,0000
0,0000	204,0000	5,0000	791,0000
0,0000	198,0000	6,0000	796,0000
0,0000	204,0000	5,0000	791,0000
0,0000	198,0000	6,0000	796,0000
0,0000	196,0000	6,0000	798,0000
0,0000	204,0000	5,0000	791,0000
0,0000	198,0000	6,0000	796,0000
0,0000	198,0000	6,0000	796,0000
0,0000	204,0000	5,0000	791,0000
0,0000	198,0000	6,0000	796,0000
0,0000	196,0000	6,0000	798,0000
0,0000	204,0000	5,0000	791,0000
0,0000	198,0000	6,0000	796,0000
0,0000	204,0000	5,0000	791,0000
0,0000	198,0000	6,0000	796,0000
0,0000	204,0000	5,0000	791,0000
0,0000	198,0000	6,0000	796,0000
0,0000	204,0000	5,0000	791,0000
0,0000	198,0000	6,0000	796,0000
0,0000	196,0000	6,0000	798,0000
0,0000	204,0000	5,0000	791,0000
0,0000	198,0000	6,0000	796,0000
0,0000	198,0000	6,0000	796,0000
0,0000	204,0000	5,0000	791,0000
0,0000	198,0000	6,0000	796,0000
0,0000	196,0000	6,0000	798,0000
0,0000	204,0000	5,0000	791,0000
0,0000	198,0000	6,0000	796,0000
0,0000	204,0000	5,0000	791,0000
0,0000	198,0000	6,0000	796,0000
0,0000	196,0000	6,0000	798,0000
0,0000	204,0000	5,0000	791,0000
0,0000	198,0000	6,0000	796,0000
0,0000	204,0000	5,0000	791,0000
0,0000	198,0000	6,0000	796,0000
0,0000	204,0000	5,0000	791,0000
0,0000	204,0000	5,0000	791,0000
0,0000	198,0000	6,0000	796,0000
0,0000	198,0000	6,0000	796,0000
0,0000	204,0000	5,0000	791,0000
0,0000	198,0000	6,0000	796,0000
0,0000	196,0000	6,0000	798,0000
0,0000	204,0000	5,0000	791,0000
0,0000	198,0000	6,0000	796,0000
0,0000	204,0000	5,0000	791,0000
0,0000	198,0000	6,0000	796,0000
0,0000	204,0000	5,0000	791,0000
0,0000	198,0000	6,0000	796,0000
0,0000	196,0000	6,0000	798,0000
0,0000	204,0000	5,0000	791,0000
0,0000	198,0000	6,0000	796,0000
0,0000	198,0000	6,0000	796,0000
0,0000	198,0000	6,0000	796,0000
0,0000	204,0000	5,0000	791,0000
0,0000	198,0000	6,0000	796,0000
0,0000	196,0000	6,0000	798,0000
0,0000	204,0000	5,0000	791,0000
0,0000	198,0000	6,0000	796,0000
0,0000	204,0000	5,0000	791,0000
0,0000	204,0000	5,0000	791,0000
