13806.7030	0.0001	22.4999	0.0000	2552.0000	555.0000	513.0000	2431.0000	3107.0000	7.0000	10.0000	0.0000	2.0000	17.0000
13807.1320	0.0001	22.4999	0.0000	2552.0000	555.0000	513.0000	2431.0000	3107.0000	7.0000	10.0000	0.0000	2.0000	17.0000
13808.5490	0.0001	22.4999	0.0001	2620.0000	465.0000	469.0000	2325.0000	3085.0000	4.0000	3.0000	0.0000	0.0000	7.0000
13810.0890	0.0001	22.4999	0.0002	2647.0000	553.0000	522.0000	2334.0000	3200.0000	3.0000	4.0000	1.0000	2.0000	7.0000
13811.6210	0.0001	22.4999	0.0003	2198.0000	652.0000	596.0000	2394.0000	2850.0000	0.0000	1.0000	1.0000	0.0000	1.0000
13813.1210	0.0001	22.4999	0.0004	1750.0000	870.0000	783.0000	2421.0000	2620.0000	9.0000	11.0000	0.0000	2.0000	20.0000
13814.6760	0.0001	22.4999	0.0005	1587.0000	826.0000	820.0000	2380.0000	2413.0000	10.0000	12.0000	3.0000	0.0000	22.0000
13816.1930	0.0001	22.4999	0.0006	1774.0000	849.0000	798.0000	2333.0000	2623.0000	5.0000	5.0000	5.0000	0.0000	10.0000
13817.7530	0.0001	22.4999	0.0007	1685.0000	776.0000	780.0000	2327.0000	2461.0000	8.0000	2.0000	3.0000	0.0000	10.0000
13819.2840	0.0001	22.4999	0.0008	2421.0000	603.0000	607.0000	2461.0000	3024.0000	3.0000	5.0000	2.0000	0.0000	8.0000
13820.7600	0.0001	22.4999	0.0009	2749.0000	512.0000	491.0000	2366.0000	3261.0000	5.0000	11.0000	7.0000	1.0000	16.0000
13822.3080	0.0001	22.4999	0.0010	2833.0000	516.0000	462.0000	2407.0000	3349.0000	13.0000	5.0000	2.0000	1.0000	18.0000
13823.7930	0.0001	22.4999	0.0011	2758.0000	480.0000	469.0000	2379.0000	3238.0000	7.0000	11.0000	0.0000	1.0000	18.0000
13825.3410	0.0001	22.4999	0.0012	2721.0000	490.0000	469.0000	2453.0000	3211.0000	7.0000	10.0000	0.0000	0.0000	17.0000
13826.8480	0.0001	22.4999	0.0013	2202.0000	648.0000	605.0000	2427.0000	2850.0000	2.0000	3.0000	1.0000	1.0000	5.0000
13828.4090	0.0001	22.4999	0.0014	1954.0000	739.0000	681.0000	2375.0000	2693.0000	4.0000	3.0000	0.0000	1.0000	7.0000
13829.9680	0.0001	22.4999	0.0015	1886.0000	748.0000	724.0000	2317.0000	2634.0000	2.0000	6.0000	1.0000	0.0000	8.0000
13831.4670	0.0001	22.4999	0.0016	1676.0000	808.0000	827.0000	2458.0000	2484.0000	4.0000	19.0000	2.0000	0.0000	23.0000
13833.0550	0.0001	22.4999	0.0017	1600.0000	856.0000	816.0000	2437.0000	2456.0000	7.0000	18.0000	1.0000	0.0000	25.0000
13834.5570	0.0001	22.4999	0.0018	1752.0000	803.0000	747.0000	2384.0000	2555.0000	8.0000	10.0000	6.0000	0.0000	18.0000
13836.1540	0.0001	22.4999	0.0019	1836.0000	814.0000	781.0000	2370.0000	2650.0000	10.0000	7.0000	2.0000	0.0000	17.0000
13837.7160	0.0001	22.4999	0.0020	2319.0000	656.0000	580.0000	2426.0000	2975.0000	3.0000	0.0000	6.0000	0.0000	3.0000
13839.2850	0.0001	22.4999	0.0021	2192.0000	655.0000	663.0000	2302.0000	2847.0000	4.0000	3.0000	5.0000	0.0000	7.0000
13840.8360	0.0001	22.4999	0.0022	2732.0000	481.0000	478.0000	2436.0000	3213.0000	6.0000	7.0000	1.0000	0.0000	13.0000
13842.4180	0.0001	22.4999	0.0023	2615.0000	520.0000	550.0000	2397.0000	3135.0000	8.0000	9.0000	5.0000	0.0000	17.0000
13844.0450	0.0001	22.4999	0.0024	2794.0000	512.0000	493.0000	2340.0000	3306.0000	5.0000	16.0000	1.0000	1.0000	21.0000
13845.6330	0.0001	22.4999	0.0025	2829.0000	516.0000	467.0000	2392.0000	3345.0000	6.0000	9.0000	1.0000	0.0000	15.0000
13847.2640	0.0001	22.4999	0.0026	2643.0000	558.0000	535.0000	2426.0000	3201.0000	6.0000	11.0000	0.0000	0.0000	17.0000
13848.8410	0.0001	22.4999	0.0027	2040.0000	760.0000	647.0000	2449.0000	2800.0000	4.0000	3.0000	0.0000	1.0000	7.0000
13850.4460	0.0001	22.4999	0.0028	1906.0000	833.0000	699.0000	2371.0000	2739.0000	4.0000	8.0000	0.0000	1.0000	12.0000
13852.0290	0.0001	22.4999	0.0029	1702.0000	793.0000	744.0000	2405.0000	2495.0000	3.0000	13.0000	1.0000	0.0000	16.0000
13853.6200	0.0001	22.4999	0.0030	1698.0000	786.0000	799.0000	2363.0000	2484.0000	6.0000	10.0000	0.0000	0.0000	16.0000
13855.3040	0.0001	22.4999	0.0031	1689.0000	809.0000	772.0000	2400.0000	2498.0000	4.0000	16.0000	0.0000	1.0000	20.0000
13856.9230	0.0001	22.4999	0.0032	1790.0000	814.0000	757.0000	2358.0000	2604.0000	4.0000	9.0000	6.0000	0.0000	13.0000
13858.5380	0.0001	22.4999	0.0033	2241.0000	674.0000	706.0000	2394.0000	2915.0000	3.0000	3.0000	10.0000	0.0000	6.0000
13860.1250	0.0001	22.4999	0.0034	2124.0000	688.0000	692.0000	2496.0000	2812.0000	1.0000	8.0000	5.0000	1.0000	9.0000
13861.7230	0.0001	22.4999	0.0035	2300.0000	575.0000	592.0000	2426.0000	2875.0000	3.0000	5.0000	6.0000	2.0000	8.0000
13863.3870	0.0001	22.4999	0.0036	2270.0000	696.0000	672.0000	2368.0000	2966.0000	5.0000	3.0000	3.0000	1.0000	8.0000
13864.9580	0.0001	22.4999	0.0037	2719.0000	527.0000	487.0000	2448.0000	3246.0000	5.0000	12.0000	3.0000	0.0000	17.0000
13866.5450	0.0001	22.4999	0.0038	2623.0000	521.0000	533.0000	2346.0000	3144.0000	6.0000	8.0000	3.0000	1.0000	14.0000
13868.1440	0.0001	22.4999	0.0039	2810.0000	467.0000	480.0000	2419.0000	3277.0000	12.0000	17.0000	0.0000	0.0000	29.0000
13869.7870	0.0001	22.4999	0.0040	2609.0000	527.0000	509.0000	2434.0000	3136.0000	9.0000	10.0000	0.0000	2.0000	19.0000
13871.4320	0.0001	22.4999	0.0041	2397.0000	615.0000	531.0000	2347.0000	3012.0000	6.0000	12.0000	1.0000	1.0000	18.0000
13873.1670	0.0001	22.4999	0.0042	2336.0000	591.0000	574.0000	2369.0000	2927.0000	3.0000	4.0000	0.0000	2.0000	7.0000
13874.8370	0.0001	22.4999	0.0043	2075.0000	653.0000	614.0000	2422.0000	2728.0000	1.0000	3.0000	0.0000	2.0000	4.0000
13876.4640	0.0001	22.4999	0.0044	1880.0000	800.0000	766.0000	2310.0000	2680.0000	3.0000	8.0000	0.0000	1.0000	11.0000
13878.0730	0.0001	22.4999	0.0045	1826.0000	753.0000	730.0000	2385.0000	2579.0000	6.0000	14.0000	0.0000	0.0000	20.0000
13879.8470	0.0001	22.4999	0.0046	1794.0000	765.0000	769.0000	2383.0000	2559.0000	10.0000	16.0000	0.0000	1.0000	26.0000
13881.5280	0.0001	22.4999	0.0047	1830.0000	799.0000	732.0000	2423.0000	2629.0000	8.0000	8.0000	0.0000	2.0000	16.0000
13883.1380	0.0001	22.4999	0.0048	2143.0000	686.0000	713.0000	2355.0000	2829.0000	4.0000	11.0000	4.0000	1.0000	15.0000
13884.7960	0.0001	22.4999	0.0049	2209.0000	655.0000	608.0000	2356.0000	2864.0000	1.0000	7.0000	12.0000	0.0000	8.0000
13886.3820	0.0001	22.4999	0.0050	2430.0000	570.0000	619.0000	2387.0000	3000.0000	1.0000	7.0000	6.0000	0.0000	8.0000
13888.0470	0.0001	22.4999	0.0051	2647.0000	537.0000	485.0000	2431.0000	3184.0000	4.0000	12.0000	3.0000	0.0000	16.0000
13889.7440	0.0001	22.4999	0.0052	2604.0000	524.0000	476.0000	2288.0000	3128.0000	3.0000	8.0000	2.0000	0.0000	11.0000
13891.3490	0.0001	22.4999	0.0053	2653.0000	555.0000	536.0000	2355.0000	3208.0000	12.0000	19.0000	3.0000	0.0000	31.0000
13892.9450	0.0001	22.4999	0.0054	2524.0000	592.0000	559.0000	2423.0000	3116.0000	9.0000	11.0000	0.0000	0.0000	20.0000
13894.5240	0.0001	22.4999	0.0055	2179.0000	676.0000	661.0000	2412.0000	2855.0000	3.0000	2.0000	1.0000	3.0000	5.0000
13896.1010	0.0001	22.4999	0.0056	2090.0000	638.0000	665.0000	2347.0000	2728.0000	5.0000	5.0000	1.0000	1.0000	10.0000
13897.7090	0.0001	22.4999	0.0057	1902.0000	741.0000	735.0000	2376.0000	2643.0000	2.0000	6.0000	1.0000	1.0000	8.0000
13899.3120	0.0001	22.4999	0.0058	1783.0000	761.0000	715.0000	2363.0000	2544.0000	6.0000	9.0000	2.0000	2.0000	15.0000
13900.9200	0.0001	22.4999	0.0059	1864.0000	757.0000	708.0000	2396.0000	2621.0000	4.0000	10.0000	2.0000	1.0000	14.0000
13902.5180	0.0001	22.4999	0.0060	2000.0000	787.0000	699.0000	2395.0000	2787.0000	12.0000	16.0000	0.0000	0.0000	28.0000
13904.1920	0.0001	22.4999	0.0061	2109.0000	735.0000	673.0000	2493.0000	2844.0000	10.0000	5.0000	5.0000	0.0000	15.0000
13905.8050	0.0001	22.4999	0.0062	2428.0000	576.0000	605.0000	2387.0000	3004.0000	1.0000	3.0000	11.0000	0.0000	4.0000
13907.3950	0.0001	22.4999	0.0063	2475.0000	542.0000	516.0000	2453.0000	3017.0000	2.0000	8.0000	5.0000	0.0000	10.0000
13909.0120	0.0001	22.4999	0.0064	2646.0000	612.0000	533.0000	2461.0000	3258.0000	8.0000	10.0000	4.0000	0.0000	18.0000
13910.6360	0.0001	22.4999	0.0065	2664.0000	608.0000	503.0000	2473.0000	3272.0000	4.0000	13.0000	8.0000	2.0000	17.0000
13912.2080	0.0001	22.4999	0.0066	2446.0000	582.0000	531.0000	2379.0000	3028.0000	8.0000	12.0000	0.0000	2.0000	20.0000
13913.7950	0.0001	22.4999	0.0067	2403.0000	612.0000	570.0000	2426.0000	3015.0000	6.0000	17.0000	0.0000	0.0000	23.0000
13915.3900	0.0001	22.4999	0.0068	2097.0000	614.0000	609.0000	2454.0000	2711.0000	1.0000	8.0000	0.0000	1.0000	9.0000
13916.9980	0.0001	22.4999	0.0069	2014.0000	682.0000	644.0000	2395.0000	2696.0000	1.0000	2.0000	0.0000	0.0000	3.0000
13918.6370	0.0001	22.4999	0.0070	1879.0000	772.0000	737.0000	2394.0000	2651.0000	5.0000	5.0000	2.0000	0.0000	10.0000
13920.2050	0.0001	22.4999	0.0071	1859.0000	864.0000	720.0000	2421.0000	2723.0000	3.0000	4.0000	0.0000	2.0000	7.0000
13921.8340	0.0001	22.4999	0.0072	2051.0000	731.0000	703.0000	2430.0000	2782.0000	11.0000	11.0000	2.0000	0.0000	22.0000
13923.4070	0.0001	22.4999	0.0073	2013.0000	695.0000	685.0000	2379.0000	2708.0000	7.0000	10.0000	4.0000	0.0000	17.0000
13924.9880	0.0001	22.4999	0.0074	2238.0000	627.0000	584.0000	2387.0000	2865.0000	5.0000	6.0000	2.0000	1.0000	11.0000
13926.5760	0.0001	22.4999	0.0075	2349.0000	560.0000	605.0000	2327.0000	2909.0000	4.0000	9.0000	4.0000	0.0000	13.0000
13928.1970	0.0001	22.4999	0.0076	2508.0000	583.0000	529.0000	2455.0000	3091.0000	4.0000	9.0000	4.0000	0.0000	13.0000
13929.7950	0.0001	22.4999	0.0077	2475.0000	557.0000	594.0000	2377.0000	3032.0000	11.0000	20.0000	2.0000	1.0000	31.0000
13931.3780	0.0001	22.4999	0.0078	2487.0000	571.0000	571.0000	2340.0000	3058.0000	5.0000	12.0000	0.0000	2.0000	17.0000
13932.9930	0.0001	22.4999	0.0079	2169.0000	691.0000	619.0000	2468.0000	2860.0000	4.0000	9.0000	3.0000	1.0000	13.0000
13934.6030	0.0001	22.4999	0.0080	2199.0000	650.0000	586.0000	2435.0000	2849.0000	5.0000	14.0000	1.0000	1.0000	19.0000
13936.2390	0.0001	22.4999	0.0081	1993.0000	759.0000	701.0000	2342.0000	2752.0000	5.0000	10.0000	0.0000	0.0000	15.0000
13937.8930	0.0001	22.4999	0.0082	1954.0000	718.0000	691.0000	2380.0000	2672.0000	2.0000	4.0000	1.0000	1.0000	6.0000
13939.4880	0.0001	22.4999	0.0083	2005.0000	691.0000	698.0000	2363.0000	2696.0000	5.0000	13.0000	1.0000	1.0000	18.0000
13941.0870	0.0001	22.4999	0.0084	2149.0000	649.0000	636.0000	2370.0000	2798.0000	9.0000	10.0000	0.0000	0.0000	19.0000
13942.7140	0.0001	22.4999	0.0085	2328.0000	645.0000	587.0000	2427.0000	2973.0000	4.0000	10.0000	3.0000	0.0000	14.0000
13944.3060	0.0001	22.4999	0.0086	2453.0000	612.0000	590.0000	2383.0000	3065.0000	1.0000	4.0000	9.0000	0.0000	5.0000
13945.8940	0.0001	22.4999	0.0087	2480.0000	632.0000	551.0000	2373.0000	3112.0000	6.0000	9.0000	6.0000	1.0000	15.0000
13947.5190	0.0001	22.4999	0.0088	2410.0000	578.0000	558.0000	2358.0000	2988.0000	5.0000	7.0000	2.0000	0.0000	12.0000
13949.0990	0.0001	22.4999	0.0089	2358.0000	610.0000	601.0000	2373.0000	2968.0000	4.0000	12.0000	2.0000	1.0000	16.0000
13950.6800	0.0001	22.4999	0.0090	2236.0000	661.0000	649.0000	2449.0000	2897.0000	4.0000	12.0000	0.0000	0.0000	16.0000
13952.3580	0.0001	22.4999	0.0091	2065.0000	665.0000	644.0000	2449.0000	2730.0000	7.0000	3.0000	2.0000	1.0000	10.0000
13953.9690	0.0001	22.4999	0.0092	2111.0000	676.0000	653.0000	2393.0000	2787.0000	5.0000	3.0000	1.0000	0.0000	8.0000
13955.5600	0.0001	22.4999	0.0093	2142.0000	718.0000	697.0000	2369.0000	2860.0000	2.0000	9.0000	0.0000	2.0000	11.0000
13957.1710	0.0001	22.4999	0.0094	2068.0000	738.0000	704.0000	2365.0000	2806.0000	7.0000	10.0000	0.0000	2.0000	17.0000
13958.7510	0.0001	22.4999	0.0095	2270.0000	662.0000	627.0000	2435.0000	2932.0000	6.0000	14.0000	1.0000	0.0000	20.0000
13960.3720	0.0001	22.4999	0.0096	2264.0000	666.0000	605.0000	2437.0000	2930.0000	6.0000	8.0000	3.0000	1.0000	14.0000
13961.9710	0.0001	22.4999	0.0097	2385.0000	587.0000	579.0000	2399.0000	2972.0000	1.0000	2.0000	2.0000	0.0000	3.0000
13963.5310	0.0001	22.4999	0.0098	2306.0000	609.0000	581.0000	2366.0000	2915.0000	3.0000	6.0000	3.0000	0.0000	9.0000
13965.1930	0.0001	22.4999	0.0099	2373.0000	617.0000	608.0000	2394.0000	2990.0000	4.0000	11.0000	1.0000	0.0000	15.0000
13966.7720	0.0001	22.4999	0.0100	2236.0000	630.0000	610.0000	2452.0000	2866.0000	11.0000	11.0000	2.0000	1.0000	22.0000
