Time	HWP_P	HWP_a2	Shifter	Single Count 1	Single Count 2	Single Count 3	Single Count 4	Sum	Coincidence Count 1	Coincidence Count 2	Coincidence Count 3	Coincidence Count 4	Coincidence Sum
16152,3620	0,0001	22,4999	-0,1000	2149,0000	652,0000	643,0000	2366,0000	2801,0000	5,0000	8,0000	2,0000	0,0000	13,0000
16152,7870	0,0001	22,4999	-0,1000	2149,0000	652,0000	643,0000	2366,0000	2801,0000	5,0000	8,0000	2,0000	0,0000	13,0000
16154,2420	0,0001	22,4999	-0,0995	2282,0000	621,0000	609,0000	2311,0000	2903,0000	7,0000	14,0000	1,0000	1,0000	21,0000
16155,7410	0,0001	22,4999	-0,0990	2183,0000	621,0000	605,0000	2347,0000	2804,0000	0,0000	4,0000	5,0000	0,0000	4,0000
16157,2790	0,0001	22,4999	-0,0985	2114,0000	631,0000	617,0000	2453,0000	2745,0000	7,0000	8,0000	1,0000	0,0000	15,0000
16158,8180	0,0001	22,4999	-0,0980	2195,0000	645,0000	645,0000	2442,0000	2840,0000	5,0000	12,0000	2,0000	2,0000	17,0000
16160,3600	0,0001	22,4999	-0,0975	2209,0000	667,0000	679,0000	2400,0000	2876,0000	1,0000	4,0000	1,0000	2,0000	5,0000
16161,8680	0,0001	22,4999	-0,0970	2144,0000	648,0000	624,0000	2351,0000	2792,0000	5,0000	15,0000	0,0000	0,0000	20,0000
16163,3730	0,0001	22,4999	-0,0965	2236,0000	674,0000	583,0000	2337,0000	2910,0000	6,0000	8,0000	3,0000	1,0000	14,0000
16164,9190	0,0001	22,4999	-0,0960	2284,0000	631,0000	597,0000	2294,0000	2915,0000	7,0000	13,0000	1,0000	2,0000	20,0000
16166,4370	0,0001	22,4999	-0,0955	2211,0000	549,0000	642,0000	2398,0000	2760,0000	3,0000	5,0000	0,0000	2,0000	8,0000
16167,9500	0,0001	22,4999	-0,0950	2185,0000	636,0000	608,0000	2378,0000	2821,0000	4,0000	4,0000	2,0000	0,0000	8,0000
16169,5030	0,0001	22,4999	-0,0945	2300,0000	633,0000	616,0000	2326,0000	2933,0000	6,0000	13,0000	3,0000	1,0000	19,0000
16170,9950	0,0001	22,4999	-0,0940	2183,0000	645,0000	643,0000	2373,0000	2828,0000	12,0000	15,0000	3,0000	1,0000	27,0000
16172,4920	0,0001	22,4999	-0,0935	2170,0000	576,0000	620,0000	2273,0000	2746,0000	6,0000	9,0000	3,0000	0,0000	15,0000
16174,0450	0,0001	22,4999	-0,0930	2218,0000	594,0000	638,0000	2328,0000	2812,0000	3,0000	11,0000	1,0000	1,0000	14,0000
16175,5820	0,0001	22,4999	-0,0925	2183,0000	654,0000	664,0000	2427,0000	2837,0000	5,0000	6,0000	3,0000	0,0000	11,0000
16177,1020	0,0001	22,4999	-0,0920	2168,0000	695,0000	586,0000	2277,0000	2863,0000	6,0000	3,0000	2,0000	0,0000	9,0000
16178,7360	0,0001	22,4999	-0,0915	2226,0000	619,0000	570,0000	2313,0000	2845,0000	1,0000	5,0000	1,0000	2,0000	6,0000
16180,2540	0,0001	22,4999	-0,0910	2287,0000	648,0000	640,0000	2383,0000	2935,0000	4,0000	11,0000	4,0000	2,0000	15,0000
16181,7710	0,0001	22,4999	-0,0905	2152,0000	656,0000	643,0000	2361,0000	2808,0000	10,0000	5,0000	6,0000	1,0000	15,0000
16183,3530	0,0001	22,4999	-0,0900	2163,0000	697,0000	622,0000	2319,0000	2860,0000	7,0000	9,0000	0,0000	1,0000	16,0000
16184,8610	0,0001	22,4999	-0,0895	2254,0000	645,0000	604,0000	2357,0000	2899,0000	6,0000	6,0000	0,0000	5,0000	12,0000
16186,4810	0,0001	22,4999	-0,0890	2178,0000	636,0000	635,0000	2399,0000	2814,0000	6,0000	6,0000	5,0000	3,0000	12,0000
16188,0440	0,0001	22,4999	-0,0885	2127,0000	697,0000	581,0000	2278,0000	2824,0000	5,0000	6,0000	0,0000	0,0000	11,0000
16189,6230	0,0001	22,4999	-0,0880	2244,0000	640,0000	597,0000	2288,0000	2884,0000	5,0000	8,0000	5,0000	1,0000	13,0000
16191,1650	0,0001	22,4999	-0,0875	2203,0000	631,0000	634,0000	2449,0000	2834,0000	2,0000	2,0000	5,0000	1,0000	4,0000
16192,8050	0,0001	22,4999	-0,0870	2231,0000	656,0000	612,0000	2421,0000	2887,0000	7,0000	9,0000	1,0000	0,0000	16,0000
16194,3670	0,0001	22,4999	-0,0865	2308,0000	611,0000	661,0000	2269,0000	2919,0000	7,0000	9,0000	1,0000	2,0000	16,0000
16195,9600	0,0001	22,4999	-0,0860	2177,0000	609,0000	646,0000	2320,0000	2786,0000	5,0000	9,0000	4,0000	3,0000	14,0000
16197,6300	0,0001	22,4999	-0,0855	2243,0000	660,0000	629,0000	2291,0000	2903,0000	7,0000	9,0000	0,0000	0,0000	16,0000
16199,2350	0,0001	22,4999	-0,0850	2155,0000	648,0000	645,0000	2219,0000	2803,0000	6,0000	11,0000	1,0000	0,0000	17,0000
16200,8440	0,0001	22,4999	-0,0845	2293,0000	649,0000	618,0000	2377,0000	2942,0000	8,0000	10,0000	1,0000	1,0000	18,0000
16202,4350	0,0001	22,4999	-0,0840	2129,0000	616,0000	611,0000	2318,0000	2745,0000	4,0000	2,0000	2,0000	0,0000	6,0000
16204,0140	0,0001	22,4999	-0,0835	2215,0000	663,0000	608,0000	2337,0000	2878,0000	1,0000	4,0000	4,0000	0,0000	5,0000
16205,6560	0,0001	22,4999	-0,0830	2252,0000	650,0000	615,0000	2358,0000	2902,0000	6,0000	11,0000	2,0000	2,0000	17,0000
16207,2890	0,0001	22,4999	-0,0825	2177,0000	656,0000	659,0000	2394,0000	2833,0000	10,0000	14,0000	1,0000	0,0000	24,0000
16208,8850	0,0001	22,4999	-0,0820	2225,0000	606,0000	610,0000	2377,0000	2831,0000	4,0000	10,0000	1,0000	1,0000	14,0000
16210,5450	0,0001	22,4999	-0,0815	2115,0000	679,0000	634,0000	2420,0000	2794,0000	2,0000	8,0000	3,0000	0,0000	10,0000
16212,1590	0,0001	22,4999	-0,0810	2191,0000	682,0000	651,0000	2348,0000	2873,0000	2,0000	5,0000	1,0000	2,0000	7,0000
16213,7350	0,0001	22,4999	-0,0805	2150,0000	637,0000	587,0000	2443,0000	2787,0000	5,0000	10,0000	4,0000	1,0000	15,0000
16215,3430	0,0001	22,4999	-0,0800	2199,0000	653,0000	668,0000	2434,0000	2852,0000	3,0000	6,0000	6,0000	0,0000	9,0000
16217,0180	0,0001	22,4999	-0,0795	2333,0000	600,0000	623,0000	2350,0000	2933,0000	10,0000	18,0000	4,0000	0,0000	28,0000
16218,6530	0,0001	22,4999	-0,0790	2072,0000	644,0000	666,0000	2341,0000	2716,0000	8,0000	20,0000	0,0000	1,0000	28,0000
16220,2730	0,0001	22,4999	-0,0785	2160,0000	627,0000	622,0000	2293,0000	2787,0000	5,0000	6,0000	1,0000	1,0000	11,0000
16221,8430	0,0001	22,4999	-0,0780	2282,0000	632,0000	624,0000	2387,0000	2914,0000	4,0000	7,0000	5,0000	1,0000	11,0000
16223,4450	0,0001	22,4999	-0,0775	2180,0000	665,0000	650,0000	2294,0000	2845,0000	8,0000	13,0000	0,0000	0,0000	21,0000
16225,0570	0,0001	22,4999	-0,0770	2206,0000	651,0000	602,0000	2404,0000	2857,0000	7,0000	10,0000	2,0000	2,0000	17,0000
16226,7300	0,0001	22,4999	-0,0765	2125,0000	697,0000	656,0000	2331,0000	2822,0000	6,0000	10,0000	2,0000	1,0000	16,0000
16228,3020	0,0001	22,4999	-0,0760	2133,0000	668,0000	642,0000	2331,0000	2801,0000	3,0000	3,0000	2,0000	0,0000	6,0000
16229,8850	0,0001	22,4999	-0,0755	2217,0000	630,0000	610,0000	2201,0000	2847,0000	3,0000	10,0000	1,0000	3,0000	13,0000
16231,4730	0,0001	22,4999	-0,0750	2179,0000	629,0000	601,0000	2335,0000	2808,0000	6,0000	15,0000	2,0000	0,0000	21,0000
16233,0720	0,0001	22,4999	-0,0745	2189,0000	643,0000	569,0000	2307,0000	2832,0000	8,0000	5,0000	2,0000	2,0000	13,0000
16234,7370	0,0001	22,4999	-0,0740	2260,0000	628,0000	622,0000	2424,0000	2888,0000	5,0000	4,0000	2,0000	0,0000	9,0000
16236,3310	0,0001	22,4999	-0,0735	2228,0000	721,0000	619,0000	2329,0000	2949,0000	3,0000	9,0000	1,0000	0,0000	12,0000
16237,9350	0,0001	22,4999	-0,0730	2139,0000	679,0000	592,0000	2317,0000	2818,0000	10,0000	11,0000	0,0000	0,0000	21,0000
16239,5320	0,0001	22,4999	-0,0725	2189,0000	625,0000	621,0000	2288,0000	2814,0000	5,0000	13,0000	2,0000	0,0000	18,0000
16241,1100	0,0001	22,4999	-0,0720	2246,0000	656,0000	611,0000	2358,0000	2902,0000	4,0000	9,0000	4,0000	0,0000	13,0000
16242,7260	0,0001	22,4999	-0,0715	2259,0000	600,0000	614,0000	2377,0000	2859,0000	4,0000	16,0000	1,0000	3,0000	20,0000
16244,3070	0,0001	22,4999	-0,0710	2229,0000	631,0000	637,0000	2353,0000	2860,0000	11,0000	15,0000	2,0000	0,0000	26,0000
16245,9270	0,0001	22,4999	-0,0705	2217,0000	592,0000	654,0000	2319,0000	2809,0000	9,0000	10,0000	2,0000	1,0000	19,0000
16247,5140	0,0001	22,4999	-0,0700	2174,0000	649,0000	642,0000	2343,0000	2823,0000	2,0000	3,0000	4,0000	1,0000	5,0000
16249,1840	0,0001	22,4999	-0,0695	2244,0000	665,0000	644,0000	2326,0000	2909,0000	4,0000	9,0000	5,0000	0,0000	13,0000
16250,7930	0,0001	22,4999	-0,0690	2177,0000	620,0000	612,0000	2355,0000	2797,0000	8,0000	7,0000	1,0000	3,0000	15,0000
16252,3840	0,0001	22,4999	-0,0685	2169,0000	667,0000	683,0000	2244,0000	2836,0000	9,0000	11,0000	1,0000	0,0000	20,0000
16253,9740	0,0001	22,4999	-0,0680	2212,0000	606,0000	634,0000	2403,0000	2818,0000	8,0000	11,0000	1,0000	0,0000	19,0000
16255,6000	0,0001	22,4999	-0,0675	2176,0000	687,0000	590,0000	2258,0000	2863,0000	4,0000	5,0000	3,0000	0,0000	9,0000
16257,1940	0,0001	22,4999	-0,0670	2279,0000	649,0000	589,0000	2332,0000	2928,0000	2,0000	1,0000	1,0000	0,0000	3,0000
16258,7970	0,0001	22,4999	-0,0665	2144,0000	671,0000	641,0000	2328,0000	2815,0000	3,0000	6,0000	1,0000	0,0000	9,0000
16260,3910	0,0001	22,4999	-0,0660	2181,0000	661,0000	588,0000	2331,0000	2842,0000	7,0000	9,0000	2,0000	3,0000	16,0000
16261,9630	0,0001	22,4999	-0,0655	2255,0000	593,0000	633,0000	2389,0000	2848,0000	12,0000	20,0000	1,0000	1,0000	32,0000
16263,5290	0,0001	22,4999	-0,0650	2143,0000	673,0000	625,0000	2261,0000	2816,0000	5,0000	7,0000	2,0000	0,0000	12,0000
16265,1260	0,0001	22,4999	-0,0645	2273,0000	657,0000	587,0000	2235,0000	2930,0000	3,0000	8,0000	0,0000	0,0000	11,0000
16266,8060	0,0001	22,4999	-0,0640	2106,0000	682,0000	613,0000	2400,0000	2788,0000	2,0000	4,0000	2,0000	1,0000	6,0000
16268,3770	0,0001	22,4999	-0,0635	2339,0000	621,0000	581,0000	2352,0000	2960,0000	6,0000	3,0000	3,0000	1,0000	9,0000
16269,9820	0,0001	22,4999	-0,0630	2154,0000	580,0000	587,0000	2351,0000	2734,0000	7,0000	13,0000	1,0000	2,0000	20,0000
16271,5760	0,0001	22,4999	-0,0625	2176,0000	645,0000	687,0000	2345,0000	2821,0000	2,0000	9,0000	1,0000	1,0000	11,0000
16273,2020	0,0001	22,4999	-0,0620	2267,0000	592,0000	629,0000	2304,0000	2859,0000	7,0000	7,0000	3,0000	2,0000	14,0000
16274,7650	0,0001	22,4999	-0,0615	2121,0000	725,0000	651,0000	2409,0000	2846,0000	2,0000	3,0000	5,0000	1,0000	5,0000
16276,3790	0,0001	22,4999	-0,0610	2250,0000	622,0000	583,0000	2344,0000	2872,0000	3,0000	5,0000	3,0000	0,0000	8,0000
16277,9740	0,0001	22,4999	-0,0605	2248,0000	613,0000	555,0000	2428,0000	2861,0000	11,0000	11,0000	0,0000	1,0000	22,0000
16279,5700	0,0001	22,4999	-0,0600	2083,0000	647,0000	676,0000	2333,0000	2730,0000	4,0000	5,0000	4,0000	0,0000	9,0000
16281,3080	0,0001	22,4999	-0,0595	2279,0000	642,0000	647,0000	2317,0000	2921,0000	4,0000	4,0000	4,0000	0,0000	8,0000
16282,9620	0,0001	22,4999	-0,0590	2290,0000	662,0000	649,0000	2343,0000	2952,0000	7,0000	19,0000	0,0000	2,0000	26,0000
16284,5720	0,0001	22,4999	-0,0585	2128,0000	647,0000	577,0000	2435,0000	2775,0000	8,0000	13,0000	1,0000	1,0000	21,0000
16286,1960	0,0001	22,4999	-0,0580	2296,0000	666,0000	607,0000	2399,0000	2962,0000	4,0000	7,0000	1,0000	0,0000	11,0000
16287,7930	0,0001	22,4999	-0,0575	2119,0000	693,0000	632,0000	2224,0000	2812,0000	6,0000	5,0000	2,0000	1,0000	11,0000
16289,3710	0,0001	22,4999	-0,0570	2244,0000	647,0000	600,0000	2340,0000	2891,0000	9,0000	11,0000	1,0000	0,0000	20,0000
16290,9670	0,0001	22,4999	-0,0565	2273,0000	610,0000	628,0000	2336,0000	2883,0000	9,0000	10,0000	2,0000	2,0000	19,0000
16292,5610	0,0001	22,4999	-0,0560	2207,0000	631,0000	647,0000	2381,0000	2838,0000	3,0000	5,0000	2,0000	0,0000	8,0000
16294,1690	0,0001	22,4999	-0,0555	2167,0000	663,0000	650,0000	2367,0000	2830,0000	6,0000	3,0000	3,0000	0,0000	9,0000
16295,7830	0,0001	22,4999	-0,0550	2224,0000	626,0000	663,0000	2322,0000	2850,0000	8,0000	8,0000	4,0000	1,0000	16,0000
16297,3840	0,0001	22,4999	-0,0545	2254,0000	630,0000	604,0000	2270,0000	2884,0000	6,0000	11,0000	1,0000	0,0000	17,0000
16299,0340	0,0001	22,4999	-0,0540	2214,0000	628,0000	606,0000	2396,0000	2842,0000	7,0000	10,0000	0,0000	3,0000	17,0000
16300,6530	0,0001	22,4999	-0,0535	2180,0000	704,0000	623,0000	2257,0000	2884,0000	2,0000	9,0000	2,0000	2,0000	11,0000
16302,3430	0,0001	22,4999	-0,0530	2191,0000	614,0000	660,0000	2281,0000	2805,0000	2,0000	4,0000	1,0000	0,0000	6,0000
16303,9790	0,0001	22,4999	-0,0525	2135,0000	587,0000	620,0000	2269,0000	2722,0000	0,0000	6,0000	7,0000	2,0000	6,0000
16305,5720	0,0001	22,4999	-0,0520	2256,0000	640,0000	573,0000	2331,0000	2896,0000	4,0000	6,0000	1,0000	1,0000	10,0000
16307,1970	0,0001	22,4999	-0,0515	2227,0000	637,0000	633,0000	2322,0000	2864,0000	3,0000	7,0000	4,0000	1,0000	10,0000
16308,8110	0,0001	22,4999	-0,0510	2217,0000	658,0000	566,0000	2320,0000	2875,0000	3,0000	13,0000	0,0000	1,0000	16,0000
16310,4200	0,0001	22,4999	-0,0505	2098,0000	715,0000	654,0000	2376,0000	2813,0000	11,0000	18,0000	1,0000	0,0000	29,0000
16312,0200	0,0001	22,4999	-0,0500	2194,0000	624,0000	595,0000	2378,0000	2818,0000	2,0000	11,0000	1,0000	0,0000	13,0000
16313,7010	0,0001	22,4999	-0,0495	2173,0000	671,0000	642,0000	2377,0000	2844,0000	5,0000	7,0000	3,0000	0,0000	12,0000
16315,3050	0,0001	22,4999	-0,0490	2103,0000	633,0000	658,0000	2394,0000	2736,0000	4,0000	2,0000	4,0000	0,0000	6,0000
16316,9070	0,0001	22,4999	-0,0485	2298,0000	630,0000	616,0000	2472,0000	2928,0000	6,0000	9,0000	4,0000	1,0000	15,0000
16318,5000	0,0001	22,4999	-0,0480	2179,0000	724,0000	634,0000	2332,0000	2903,0000	9,0000	20,0000	2,0000	2,0000	29,0000
16320,0930	0,0001	22,4999	-0,0475	2252,0000	631,0000	610,0000	2333,0000	2883,0000	9,0000	5,0000	3,0000	0,0000	14,0000
16321,6640	0,0001	22,4999	-0,0470	2111,0000	605,0000	616,0000	2344,0000	2716,0000	3,0000	2,0000	1,0000	1,0000	5,0000
16323,2380	0,0001	22,4999	-0,0465	2129,0000	608,0000	700,0000	2317,0000	2737,0000	2,0000	5,0000	6,0000	1,0000	7,0000
16324,8410	0,0001	22,4999	-0,0460	2296,0000	581,0000	587,0000	2317,0000	2877,0000	3,0000	10,0000	0,0000	0,0000	13,0000
16326,4360	0,0001	22,4999	-0,0455	2185,0000	663,0000	630,0000	2355,0000	2848,0000	8,0000	3,0000	2,0000	0,0000	11,0000
16328,0250	0,0001	22,4999	-0,0450	2132,0000	599,0000	594,0000	2324,0000	2731,0000	4,0000	3,0000	2,0000	1,0000	7,0000
16329,6210	0,0001	22,4999	-0,0445	2257,0000	591,0000	577,0000	2408,0000	2848,0000	3,0000	7,0000	5,0000	0,0000	10,0000
16331,2050	0,0001	22,4999	-0,0440	2085,0000	694,0000	640,0000	2334,0000	2779,0000	4,0000	8,0000	0,0000	0,0000	12,0000
16332,8400	0,0001	22,4999	-0,0435	2272,0000	633,0000	588,0000	2316,0000	2905,0000	6,0000	9,0000	2,0000	1,0000	15,0000
16334,4440	0,0001	22,4999	-0,0430	2265,0000	630,0000	660,0000	2457,0000	2895,0000	2,0000	9,0000	2,0000	0,0000	11,0000
16336,0230	0,0001	22,4999	-0,0425	2096,0000	649,0000	637,0000	2383,0000	2745,0000	4,0000	4,0000	2,0000	3,0000	8,0000
16337,6280	0,0001	22,4999	-0,0420	2263,0000	646,0000	560,0000	2371,0000	2909,0000	10,0000	7,0000	0,0000	0,0000	17,0000
16339,2620	0,0001	22,4999	-0,0415	2180,0000	655,0000	677,0000	2332,0000	2835,0000	5,0000	13,0000	2,0000	2,0000	18,0000
16340,8450	0,0001	22,4999	-0,0410	2226,0000	681,0000	639,0000	2303,0000	2907,0000	6,0000	4,0000	0,0000	0,0000	10,0000
16342,4360	0,0001	22,4999	-0,0405	2306,0000	692,0000	627,0000	2388,0000	2998,0000	2,0000	5,0000	4,0000	0,0000	7,0000
16343,9970	0,0001	22,4999	-0,0400	2153,0000	687,0000	629,0000	2307,0000	2840,0000	7,0000	7,0000	0,0000	1,0000	14,0000
16345,6710	0,0001	22,4999	-0,0395	2297,0000	613,0000	633,0000	2398,0000	2910,0000	9,0000	13,0000	2,0000	0,0000	22,0000
16347,3060	0,0001	22,4999	-0,0390	2278,0000	678,0000	623,0000	2380,0000	2956,0000	6,0000	6,0000	3,0000	0,0000	12,0000
16348,9140	0,0001	22,4999	-0,0385	2230,0000	640,0000	625,0000	2333,0000	2870,0000	1,0000	6,0000	1,0000	0,0000	7,0000
16350,5330	0,0001	22,4999	-0,0380	2157,0000	680,0000	628,0000	2504,0000	2837,0000	2,0000	6,0000	3,0000	0,0000	8,0000
16352,1420	0,0001	22,4999	-0,0375	2187,0000	646,0000	603,0000	2319,0000	2833,0000	4,0000	6,0000	0,0000	2,0000	10,0000
16353,7460	0,0001	22,4999	-0,0370	2249,0000	684,0000	606,0000	2388,0000	2933,0000	8,0000	13,0000	1,0000	0,0000	21,0000
16355,3250	0,0001	22,4999	-0,0365	2068,0000	642,0000	674,0000	2316,0000	2710,0000	6,0000	12,0000	1,0000	1,0000	18,0000
16356,9620	0,0001	22,4999	-0,0360	2286,0000	604,0000	620,0000	2410,0000	2890,0000	3,0000	5,0000	1,0000	1,0000	8,0000
16358,6100	0,0001	22,4999	-0,0355	2051,0000	656,0000	667,0000	2383,0000	2707,0000	4,0000	1,0000	5,0000	0,0000	5,0000
16360,2120	0,0001	22,4999	-0,0350	2317,0000	670,0000	587,0000	2288,0000	2987,0000	6,0000	6,0000	2,0000	1,0000	12,0000
16361,8070	0,0001	22,4999	-0,0345	2036,0000	710,0000	667,0000	2334,0000	2746,0000	2,0000	2,0000	1,0000	0,0000	4,0000
16363,3750	0,0001	22,4999	-0,0340	2183,0000	597,0000	598,0000	2325,0000	2780,0000	2,0000	9,0000	1,0000	1,0000	11,0000
16364,9880	0,0001	22,4999	-0,0335	2295,0000	576,0000	585,0000	2286,0000	2871,0000	7,0000	10,0000	5,0000	0,0000	17,0000
16366,5940	0,0001	22,4999	-0,0330	2021,0000	723,0000	649,0000	2288,0000	2744,0000	6,0000	17,0000	5,0000	1,0000	23,0000
16368,2040	0,0001	22,4999	-0,0325	2314,0000	512,0000	582,0000	2321,0000	2826,0000	0,0000	3,0000	1,0000	3,0000	3,0000
16369,7730	0,0001	22,4999	-0,0320	1987,0000	674,0000	608,0000	2280,0000	2661,0000	4,0000	7,0000	2,0000	1,0000	11,0000
16371,3580	0,0001	22,4999	-0,0315	2202,0000	602,0000	588,0000	2371,0000	2804,0000	5,0000	11,0000	1,0000	0,0000	16,0000
16372,9480	0,0001	22,4999	-0,0310	2400,0000	578,0000	533,0000	2298,0000	2978,0000	8,0000	14,0000	1,0000	1,0000	22,0000
16374,5400	0,0001	22,4999	-0,0305	2082,0000	735,0000	665,0000	2282,0000	2817,0000	2,0000	5,0000	7,0000	0,0000	7,0000
16376,1850	0,0001	22,4999	-0,0300	2237,0000	635,0000	556,0000	2274,0000	2872,0000	8,0000	4,0000	1,0000	0,0000	12,0000
16377,8710	0,0001	22,4999	-0,0295	2427,0000	595,0000	573,0000	2276,0000	3022,0000	4,0000	5,0000	0,0000	2,0000	9,0000
16379,4960	0,0001	22,4999	-0,0290	1901,0000	725,0000	660,0000	2321,0000	2626,0000	5,0000	3,0000	7,0000	0,0000	8,0000
16381,0750	0,0001	22,4999	-0,0285	2279,0000	506,0000	564,0000	2330,0000	2785,0000	1,0000	2,0000	0,0000	0,0000	3,0000
16382,6660	0,0001	22,4999	-0,0280	2304,0000	568,0000	582,0000	2291,0000	2872,0000	4,0000	10,0000	0,0000	0,0000	14,0000
16384,2650	0,0001	22,4999	-0,0275	1884,0000	728,0000	691,0000	2417,0000	2612,0000	8,0000	9,0000	1,0000	0,0000	17,0000
16385,8570	0,0001	22,4999	-0,0270	2358,0000	642,0000	534,0000	2348,0000	3000,0000	2,0000	3,0000	2,0000	1,0000	5,0000
16387,4730	0,0001	22,4999	-0,0265	2048,0000	631,0000	604,0000	2467,0000	2679,0000	4,0000	8,0000	8,0000	0,0000	12,0000
16389,0860	0,0001	22,4999	-0,0260	2174,0000	608,0000	615,0000	2369,0000	2782,0000	3,0000	6,0000	0,0000	0,0000	9,0000
16390,6810	0,0001	22,4999	-0,0255	2417,0000	574,0000	559,0000	2421,0000	2991,0000	8,0000	11,0000	0,0000	0,0000	19,0000
16392,3010	0,0001	22,4999	-0,0250	2042,0000	657,0000	700,0000	2354,0000	2699,0000	4,0000	8,0000	1,0000	0,0000	12,0000
16393,9030	0,0001	22,4999	-0,0245	2387,0000	624,0000	560,0000	2372,0000	3011,0000	2,0000	9,0000	0,0000	1,0000	11,0000
16395,5130	0,0001	22,4999	-0,0240	2087,0000	653,0000	622,0000	2273,0000	2740,0000	4,0000	8,0000	2,0000	0,0000	12,0000
16397,1090	0,0001	22,4999	-0,0235	2084,0000	652,0000	654,0000	2403,0000	2736,0000	3,0000	8,0000	1,0000	1,0000	11,0000
16398,7520	0,0001	22,4999	-0,0230	2232,0000	655,0000	584,0000	2373,0000	2887,0000	5,0000	11,0000	0,0000	0,0000	16,0000
16400,3330	0,0001	22,4999	-0,0225	2138,0000	668,0000	652,0000	2371,0000	2806,0000	8,0000	17,0000	1,0000	1,0000	25,0000
16401,9230	0,0001	22,4999	-0,0220	2232,0000	600,0000	617,0000	2354,0000	2832,0000	2,0000	3,0000	0,0000	1,0000	5,0000
16403,5430	0,0001	22,4999	-0,0215	2099,0000	741,0000	649,0000	2330,0000	2840,0000	3,0000	2,0000	3,0000	0,0000	5,0000
16405,1140	0,0001	22,4999	-0,0210	2286,0000	615,0000	560,0000	2326,0000	2901,0000	2,0000	6,0000	1,0000	2,0000	8,0000
16406,7360	0,0001	22,4999	-0,0205	2010,0000	651,0000	656,0000	2332,0000	2661,0000	5,0000	8,0000	2,0000	0,0000	13,0000
16408,3400	0,0001	22,4999	-0,0200	2318,0000	608,0000	594,0000	2360,0000	2926,0000	3,0000	5,0000	0,0000	2,0000	8,0000
16410,0040	0,0001	22,4999	-0,0195	2045,0000	731,0000	670,0000	2356,0000	2776,0000	11,0000	13,0000	1,0000	0,0000	24,0000
16411,5870	0,0001	22,4999	-0,0190	2267,0000	635,0000	557,0000	2394,0000	2902,0000	8,0000	6,0000	2,0000	0,0000	14,0000
16413,1580	0,0001	22,4999	-0,0185	2295,0000	610,0000	579,0000	2322,0000	2905,0000	3,0000	2,0000	0,0000	0,0000	5,0000
16414,7510	0,0001	22,4999	-0,0180	1808,0000	783,0000	689,0000	2405,0000	2591,0000	8,0000	4,0000	4,0000	1,0000	12,0000
16416,3530	0,0001	22,4999	-0,0175	2506,0000	549,0000	540,0000	2311,0000	3055,0000	5,0000	8,0000	3,0000	2,0000	13,0000
16417,9630	0,0001	22,4999	-0,0170	2152,0000	621,0000	596,0000	2376,0000	2773,0000	2,0000	8,0000	0,0000	2,0000	10,0000
16419,5660	0,0001	22,4999	-0,0165	1875,0000	747,0000	706,0000	2356,0000	2622,0000	4,0000	3,0000	2,0000	0,0000	7,0000
16421,1590	0,0001	22,4999	-0,0160	2780,0000	530,0000	468,0000	2379,0000	3310,0000	0,0000	6,0000	1,0000	1,0000	6,0000
16422,7770	0,0001	22,4999	-0,0155	1899,0000	753,0000	671,0000	2423,0000	2652,0000	11,0000	9,0000	1,0000	1,0000	20,0000
16424,3830	0,0001	22,4999	-0,0150	1704,0000	769,0000	717,0000	2399,0000	2473,0000	1,0000	1,0000	8,0000	1,0000	2,0000
16425,9790	0,0001	22,4999	-0,0145	2958,0000	355,0000	430,0000	2428,0000	3313,0000	1,0000	2,0000	0,0000	0,0000	3,0000
16427,5900	0,0001	22,4999	-0,0140	1896,0000	679,0000	712,0000	2407,0000	2575,0000	7,0000	11,0000	2,0000	1,0000	18,0000
16429,1590	0,0001	22,4999	-0,0135	2132,0000	673,0000	638,0000	2392,0000	2805,0000	1,0000	11,0000	10,0000	1,0000	12,0000
16430,7540	0,0001	22,4999	-0,0130	2684,0000	425,0000	468,0000	2363,0000	3109,0000	0,0000	6,0000	0,0000	4,0000	6,0000
16432,3550	0,0001	22,4999	-0,0125	1214,0000	911,0000	885,0000	2333,0000	2125,0000	1,0000	4,0000	7,0000	0,0000	5,0000
16433,9450	0,0001	22,4999	-0,0120	2485,0000	565,0000	571,0000	2355,0000	3050,0000	10,0000	12,0000	0,0000	0,0000	22,0000
16435,5730	0,0001	22,4999	-0,0115	2584,0000	541,0000	491,0000	2364,0000	3125,0000	5,0000	11,0000	0,0000	3,0000	16,0000
16437,1740	0,0001	22,4999	-0,0110	1353,0000	849,0000	869,0000	2361,0000	2202,0000	5,0000	5,0000	7,0000	0,0000	10,0000
16438,7680	0,0001	22,4999	-0,0105	3287,0000	345,0000	289,0000	2362,0000	3632,0000	2,0000	4,0000	0,0000	1,0000	6,0000
16440,3940	0,0001	22,4999	-0,0100	1395,0000	880,0000	865,0000	2305,0000	2275,0000	3,0000	8,0000	5,0000	1,0000	11,0000
16442,0670	0,0001	22,4999	-0,0095	2466,0000	626,0000	545,0000	2268,0000	3092,0000	9,0000	10,0000	1,0000	0,0000	19,0000
16443,7030	0,0001	22,4999	-0,0090	3061,0000	435,0000	384,0000	2358,0000	3496,0000	5,0000	2,0000	0,0000	2,0000	7,0000
16445,3070	0,0001	22,4999	-0,0085	1290,0000	870,0000	835,0000	2379,0000	2160,0000	6,0000	7,0000	5,0000	0,0000	13,0000
16446,8950	0,0001	22,4999	-0,0080	3386,0000	254,0000	261,0000	2404,0000	3640,0000	0,0000	3,0000	0,0000	3,0000	3,0000
16448,5070	0,0001	22,4999	-0,0075	1024,0000	993,0000	916,0000	2364,0000	2017,0000	2,0000	1,0000	7,0000	0,0000	3,0000
16450,1040	0,0001	22,4999	-0,0070	2735,0000	491,0000	474,0000	2390,0000	3226,0000	3,0000	9,0000	1,0000	3,0000	12,0000
16451,7300	0,0001	22,4999	-0,0065	2615,0000	565,0000	538,0000	2336,0000	3180,0000	11,0000	10,0000	1,0000	1,0000	21,0000
16453,3070	0,0001	22,4999	-0,0060	1152,0000	882,0000	887,0000	2312,0000	2034,0000	1,0000	7,0000	1,0000	0,0000	8,0000
16454,9460	0,0001	22,4999	-0,0055	3374,0000	276,0000	266,0000	2420,0000	3650,0000	4,0000	2,0000	0,0000	1,0000	6,0000
16456,5560	0,0001	22,4999	-0,0050	855,0000	1043,0000	997,0000	2312,0000	1898,0000	0,0000	0,0000	9,0000	0,0000	0,0000
16458,1490	0,0001	22,4999	-0,0045	3304,0000	343,0000	294,0000	2275,0000	3647,0000	2,0000	1,0000	0,0000	2,0000	3,0000
16459,7180	0,0001	22,4999	-0,0040	1563,0000	830,0000	831,0000	2390,0000	2393,0000	1,0000	5,0000	8,0000	2,0000	6,0000
16461,2860	0,0001	22,4999	-0,0035	1136,0000	839,0000	948,0000	2396,0000	1975,0000	8,0000	11,0000	3,0000	0,0000	19,0000
16462,9130	0,0001	22,4999	-0,0030	3203,0000	347,0000	310,0000	2451,0000	3550,0000	3,0000	8,0000	0,0000	3,0000	11,0000
16464,5010	0,0001	22,4999	-0,0025	1154,0000	998,0000	875,0000	2307,0000	2152,0000	2,0000	2,0000	6,0000	0,0000	4,0000
16466,0750	0,0001	22,4999	-0,0020	2680,0000	423,0000	436,0000	2378,0000	3103,0000	0,0000	3,0000	0,0000	0,0000	3,0000
16467,6680	0,0001	22,4999	-0,0015	2072,0000	680,0000	626,0000	2334,0000	2752,0000	5,0000	5,0000	2,0000	0,0000	10,0000
16469,2890	0,0001	22,4999	-0,0010	995,0000	868,0000	945,0000	2440,0000	1863,0000	4,0000	8,0000	4,0000	1,0000	12,0000
16470,8920	0,0001	22,4999	-0,0005	2704,0000	496,0000	490,0000	2349,0000	3200,0000	2,0000	3,0000	0,0000	2,0000	5,0000
16472,4780	0,0001	22,4999	0,0000	2932,0000	458,0000	383,0000	2429,0000	3390,0000	11,0000	7,0000	2,0000	1,0000	18,0000
16474,1990	0,0001	22,4999	0,0005	1220,0000	894,0000	870,0000	2232,0000	2114,0000	4,0000	4,0000	1,0000	0,0000	8,0000
16475,7910	0,0001	22,4999	0,0010	2591,0000	467,0000	476,0000	2348,0000	3058,0000	1,0000	0,0000	0,0000	0,0000	1,0000
16477,3790	0,0001	22,4999	0,0015	1928,0000	694,0000	683,0000	2361,0000	2622,0000	1,0000	3,0000	5,0000	0,0000	4,0000
16479,0040	0,0001	22,4999	0,0020	1514,0000	818,0000	809,0000	2303,0000	2332,0000	8,0000	14,0000	0,0000	0,0000	22,0000
16480,6010	0,0001	22,4999	0,0025	2989,0000	341,0000	392,0000	2410,0000	3330,0000	7,0000	7,0000	1,0000	1,0000	14,0000
16482,2140	0,0001	22,4999	0,0030	1918,0000	679,0000	694,0000	2341,0000	2597,0000	4,0000	3,0000	2,0000	0,0000	7,0000
16483,8140	0,0001	22,4999	0,0035	2238,0000	560,0000	531,0000	2407,0000	2798,0000	1,0000	3,0000	1,0000	2,0000	4,0000
16485,4200	0,0001	22,4999	0,0040	2515,0000	526,0000	471,0000	2340,0000	3041,0000	6,0000	9,0000	2,0000	1,0000	15,0000
16487,0210	0,0001	22,4999	0,0045	1534,0000	854,0000	796,0000	2303,0000	2388,0000	2,0000	13,0000	1,0000	1,0000	15,0000
16488,6390	0,0001	22,4999	0,0050	2792,0000	540,0000	473,0000	2347,0000	3332,0000	5,0000	15,0000	0,0000	1,0000	20,0000
16490,2150	0,0001	22,4999	0,0055	2177,0000	664,0000	580,0000	2305,0000	2841,0000	2,0000	7,0000	6,0000	0,0000	9,0000
16491,8140	0,0001	22,4999	0,0060	1897,0000	677,0000	659,0000	2233,0000	2574,0000	4,0000	5,0000	0,0000	1,0000	9,0000
16493,4020	0,0001	22,4999	0,0065	2554,0000	527,0000	491,0000	2362,0000	3081,0000	6,0000	13,0000	0,0000	0,0000	19,0000
16495,0020	0,0001	22,4999	0,0070	1831,0000	808,0000	761,0000	2314,0000	2639,0000	8,0000	17,0000	2,0000	2,0000	25,0000
16496,6280	0,0001	22,4999	0,0075	2363,0000	521,0000	526,0000	2291,0000	2884,0000	7,0000	10,0000	2,0000	1,0000	17,0000
16498,2380	0,0001	22,4999	0,0080	2234,0000	659,0000	649,0000	2320,0000	2893,0000	5,0000	6,0000	10,0000	0,0000	11,0000
16499,8560	0,0001	22,4999	0,0085	1963,0000	718,0000	723,0000	2363,0000	2681,0000	7,0000	5,0000	1,0000	0,0000	12,0000
16501,4440	0,0001	22,4999	0,0090	2403,0000	569,0000	584,0000	2354,0000	2972,0000	5,0000	9,0000	2,0000	0,0000	14,0000
16503,0580	0,0001	22,4999	0,0095	2113,0000	640,0000	669,0000	2307,0000	2753,0000	5,0000	17,0000	0,0000	2,0000	22,0000
16504,6820	0,0001	22,4999	0,0100	2237,0000	636,0000	612,0000	2311,0000	2873,0000	9,0000	10,0000	0,0000	2,0000	19,0000
16506,3650	0,0001	22,4999	0,0105	2226,0000	643,0000	615,0000	2331,0000	2869,0000	9,0000	17,0000	0,0000	0,0000	26,0000
16507,9600	0,0001	22,4999	0,0110	2077,0000	739,0000	649,0000	2254,0000	2816,0000	5,0000	12,0000	0,0000	1,0000	17,0000
16509,6050	0,0001	22,4999	0,0115	2179,0000	615,0000	602,0000	2389,0000	2794,0000	6,0000	8,0000	3,0000	0,0000	14,0000
16511,1930	0,0001	22,4999	0,0120	2213,0000	624,0000	615,0000	2387,0000	2837,0000	8,0000	15,0000	1,0000	0,0000	23,0000
16512,7840	0,0001	22,4999	0,0125	2036,0000	650,0000	636,0000	2280,0000	2686,0000	7,0000	9,0000	0,0000	2,0000	16,0000
16514,3790	0,0001	22,4999	0,0130	2375,0000	597,0000	546,0000	2267,0000	2972,0000	9,0000	10,0000	3,0000	0,0000	19,0000
16515,9490	0,0001	22,4999	0,0135	2126,0000	648,0000	591,0000	2325,0000	2774,0000	1,0000	4,0000	1,0000	2,0000	5,0000
16517,5840	0,0001	22,4999	0,0140	1944,0000	714,0000	712,0000	2235,0000	2658,0000	7,0000	12,0000	0,0000	0,0000	19,0000
16519,1940	0,0001	22,4999	0,0145	2385,0000	530,0000	571,0000	2344,0000	2915,0000	7,0000	14,0000	0,0000	3,0000	21,0000
16520,8250	0,0001	22,4999	0,0150	2204,0000	685,0000	625,0000	2334,0000	2889,0000	6,0000	5,0000	2,0000	2,0000	11,0000
16522,4650	0,0001	22,4999	0,0155	1994,0000	718,0000	700,0000	2402,0000	2712,0000	3,0000	10,0000	7,0000	0,0000	13,0000
16524,0660	0,0001	22,4999	0,0160	2450,0000	555,0000	557,0000	2326,0000	3005,0000	12,0000	14,0000	0,0000	3,0000	26,0000
16525,6670	0,0001	22,4999	0,0165	2130,0000	659,0000	681,0000	2379,0000	2789,0000	7,0000	19,0000	2,0000	4,0000	26,0000
16527,2850	0,0001	22,4999	0,0170	2135,0000	639,0000	648,0000	2348,0000	2774,0000	2,0000	11,0000	2,0000	1,0000	13,0000
16528,9190	0,0001	22,4999	0,0175	2438,0000	621,0000	594,0000	2386,0000	3059,0000	6,0000	5,0000	3,0000	0,0000	11,0000
16530,5050	0,0001	22,4999	0,0180	2040,0000	703,0000	687,0000	2419,0000	2743,0000	5,0000	14,0000	3,0000	0,0000	19,0000
16532,0960	0,0001	22,4999	0,0185	2341,0000	577,0000	604,0000	2250,0000	2918,0000	4,0000	13,0000	0,0000	1,0000	17,0000
16533,6830	0,0001	22,4999	0,0190	2298,0000	659,0000	623,0000	2354,0000	2957,0000	4,0000	8,0000	1,0000	0,0000	12,0000
16535,2780	0,0001	22,4999	0,0195	1928,0000	737,0000	713,0000	2318,0000	2665,0000	0,0000	7,0000	3,0000	0,0000	7,0000
16536,8720	0,0001	22,4999	0,0200	2437,0000	542,0000	537,0000	2310,0000	2979,0000	3,0000	5,0000	1,0000	1,0000	8,0000
16538,4480	0,0001	22,4999	0,0205	2076,0000	693,0000	701,0000	2305,0000	2769,0000	11,0000	9,0000	1,0000	1,0000	20,0000
16540,1370	0,0001	22,4999	0,0210	2333,0000	635,0000	580,0000	2321,0000	2968,0000	6,0000	15,0000	2,0000	1,0000	21,0000
16541,7310	0,0001	22,4999	0,0215	2195,0000	597,0000	582,0000	2313,0000	2792,0000	4,0000	16,0000	0,0000	1,0000	20,0000
16543,3340	0,0001	22,4999	0,0220	2172,0000	729,0000	630,0000	2333,0000	2901,0000	11,0000	8,0000	2,0000	0,0000	19,0000
16544,9550	0,0001	22,4999	0,0225	2311,0000	578,0000	569,0000	2347,0000	2889,0000	2,0000	6,0000	6,0000	1,0000	8,0000
16546,5350	0,0001	22,4999	0,0230	2118,0000	655,0000	679,0000	2255,0000	2773,0000	2,0000	5,0000	1,0000	1,0000	7,0000
16548,1490	0,0001	22,4999	0,0235	2230,0000	641,0000	590,0000	2272,0000	2871,0000	5,0000	8,0000	0,0000	0,0000	13,0000
16549,7380	0,0001	22,4999	0,0240	2210,0000	670,0000	632,0000	2363,0000	2880,0000	5,0000	10,0000	3,0000	1,0000	15,0000
16551,3420	0,0001	22,4999	0,0245	2131,0000	608,0000	633,0000	2341,0000	2739,0000	6,0000	16,0000	1,0000	0,0000	22,0000
16552,9630	0,0001	22,4999	0,0250	2210,0000	664,0000	544,0000	2341,0000	2874,0000	12,0000	11,0000	1,0000	0,0000	23,0000
16554,5780	0,0001	22,4999	0,0255	2098,0000	640,0000	636,0000	2340,0000	2738,0000	13,0000	13,0000	0,0000	0,0000	26,0000
16556,2120	0,0001	22,4999	0,0260	2286,0000	614,0000	567,0000	2328,0000	2900,0000	6,0000	3,0000	5,0000	1,0000	9,0000
16557,8210	0,0001	22,4999	0,0265	2276,0000	642,0000	640,0000	2451,0000	2918,0000	5,0000	10,0000	2,0000	1,0000	15,0000
16559,4280	0,0001	22,4999	0,0270	2209,0000	651,0000	619,0000	2279,0000	2860,0000	5,0000	17,0000	1,0000	0,0000	22,0000
16561,0600	0,0001	22,4999	0,0275	2257,0000	620,0000	630,0000	2365,0000	2877,0000	6,0000	12,0000	1,0000	3,0000	18,0000
16562,6440	0,0001	22,4999	0,0280	2281,0000	629,0000	627,0000	2426,0000	2910,0000	7,0000	12,0000	0,0000	1,0000	19,0000
16564,2560	0,0001	22,4999	0,0285	2130,0000	692,0000	639,0000	2443,0000	2822,0000	4,0000	4,0000	3,0000	1,0000	8,0000
16565,8260	0,0001	22,4999	0,0290	2194,0000	639,0000	596,0000	2460,0000	2833,0000	4,0000	6,0000	1,0000	0,0000	10,0000
16567,3870	0,0001	22,4999	0,0295	2329,0000	656,0000	630,0000	2352,0000	2985,0000	10,0000	6,0000	0,0000	0,0000	16,0000
16569,0150	0,0001	22,4999	0,0300	2095,0000	623,0000	617,0000	2297,0000	2718,0000	1,0000	3,0000	0,0000	2,0000	4,0000
16570,6140	0,0001	22,4999	0,0305	2191,0000	683,0000	660,0000	2333,0000	2874,0000	4,0000	9,0000	3,0000	0,0000	13,0000
16572,1930	0,0001	22,4999	0,0310	2245,0000	675,0000	583,0000	2394,0000	2920,0000	13,0000	13,0000	1,0000	0,0000	26,0000
16573,7650	0,0001	22,4999	0,0315	2070,0000	653,0000	710,0000	2362,0000	2723,0000	6,0000	5,0000	5,0000	0,0000	11,0000
16575,3500	0,0001	22,4999	0,0320	2377,0000	658,0000	564,0000	2377,0000	3035,0000	3,0000	2,0000	1,0000	1,0000	5,0000
16576,9180	0,0001	22,4999	0,0325	2185,0000	629,0000	609,0000	2383,0000	2814,0000	4,0000	11,0000	2,0000	1,0000	15,0000
16578,5070	0,0001	22,4999	0,0330	2097,0000	664,0000	665,0000	2394,0000	2761,0000	5,0000	9,0000	0,0000	2,0000	14,0000
16580,1110	0,0001	22,4999	0,0335	2305,0000	595,0000	641,0000	2336,0000	2900,0000	10,0000	15,0000	1,0000	0,0000	25,0000
16581,6820	0,0001	22,4999	0,0340	2051,0000	682,0000	651,0000	2289,0000	2733,0000	4,0000	1,0000	5,0000	0,0000	5,0000
16583,3210	0,0001	22,4999	0,0345	2285,0000	615,0000	625,0000	2284,0000	2900,0000	2,0000	6,0000	1,0000	1,0000	8,0000
16584,9200	0,0001	22,4999	0,0350	2301,0000	636,0000	577,0000	2389,0000	2937,0000	8,0000	10,0000	6,0000	1,0000	18,0000
16586,5270	0,0001	22,4999	0,0355	2037,0000	674,0000	707,0000	2368,0000	2711,0000	7,0000	13,0000	3,0000	1,0000	20,0000
16588,1100	0,0001	22,4999	0,0360	2278,0000	580,0000	560,0000	2251,0000	2858,0000	5,0000	9,0000	3,0000	2,0000	14,0000
16589,7320	0,0001	22,4999	0,0365	2099,0000	725,0000	667,0000	2343,0000	2824,0000	3,0000	8,0000	4,0000	1,0000	11,0000
16591,3140	0,0001	22,4999	0,0370	2183,0000	642,0000	607,0000	2364,0000	2825,0000	6,0000	7,0000	3,0000	0,0000	13,0000
16592,8920	0,0001	22,4999	0,0375	2260,0000	596,0000	614,0000	2320,0000	2856,0000	5,0000	6,0000	2,0000	2,0000	11,0000
16594,4840	0,0001	22,4999	0,0380	2085,0000	649,0000	651,0000	2426,0000	2734,0000	4,0000	11,0000	5,0000	0,0000	15,0000
16596,0790	0,0001	22,4999	0,0385	2355,0000	611,0000	583,0000	2336,0000	2966,0000	5,0000	18,0000	0,0000	0,0000	23,0000
16597,6890	0,0001	22,4999	0,0390	2117,0000	667,0000	600,0000	2298,0000	2784,0000	4,0000	5,0000	1,0000	0,0000	9,0000
16599,3070	0,0001	22,4999	0,0395	2301,0000	593,0000	583,0000	2364,0000	2894,0000	3,0000	4,0000	2,0000	0,0000	7,0000
16600,9230	0,0001	22,4999	0,0400	2061,0000	584,0000	672,0000	2318,0000	2645,0000	3,0000	2,0000	0,0000	0,0000	5,0000
16602,5110	0,0001	22,4999	0,0405	2190,0000	614,0000	649,0000	2327,0000	2804,0000	4,0000	4,0000	0,0000	0,0000	8,0000
16604,2010	0,0001	22,4999	0,0410	2211,0000	643,0000	606,0000	2330,0000	2854,0000	4,0000	4,0000	2,0000	2,0000	8,0000
16605,7890	0,0001	22,4999	0,0415	2117,0000	728,0000	668,0000	2326,0000	2845,0000	13,0000	9,0000	1,0000	0,0000	22,0000
16607,3910	0,0001	22,4999	0,0420	2168,0000	622,0000	633,0000	2335,0000	2790,0000	5,0000	7,0000	0,0000	0,0000	12,0000
16608,9760	0,0001	22,4999	0,0425	2195,0000	664,0000	588,0000	2340,0000	2859,0000	3,0000	5,0000	5,0000	2,0000	8,0000
16610,5810	0,0001	22,4999	0,0430	2124,0000	683,0000	633,0000	2392,0000	2807,0000	2,0000	7,0000	1,0000	2,0000	9,0000
16612,1970	0,0001	22,4999	0,0435	2194,0000	629,0000	622,0000	2368,0000	2823,0000	5,0000	6,0000	1,0000	0,0000	11,0000
16613,8170	0,0001	22,4999	0,0440	2144,0000	658,0000	633,0000	2333,0000	2802,0000	2,0000	6,0000	1,0000	0,0000	8,0000
16615,4070	0,0001	22,4999	0,0445	2179,0000	599,0000	615,0000	2396,0000	2778,0000	0,0000	3,0000	2,0000	1,0000	3,0000
16617,0400	0,0001	22,4999	0,0450	2162,0000	663,0000	630,0000	2335,0000	2825,0000	3,0000	7,0000	2,0000	0,0000	10,0000
16618,6560	0,0001	22,4999	0,0455	2312,0000	618,0000	659,0000	2325,0000	2930,0000	12,0000	14,0000	0,0000	0,0000	26,0000
16620,2650	0,0001	22,4999	0,0460	2223,0000	652,0000	651,0000	2366,0000	2875,0000	4,0000	3,0000	3,0000	1,0000	7,0000
16621,9320	0,0001	22,4999	0,0465	2165,0000	608,0000	621,0000	2311,0000	2773,0000	1,0000	5,0000	3,0000	0,0000	6,0000
16623,5270	0,0001	22,4999	0,0470	2273,0000	701,0000	633,0000	2332,0000	2974,0000	5,0000	12,0000	3,0000	0,0000	17,0000
16625,1490	0,0001	22,4999	0,0475	2073,0000	661,0000	634,0000	2328,0000	2734,0000	6,0000	11,0000	0,0000	1,0000	17,0000
16626,7610	0,0001	22,4999	0,0480	2168,0000	665,0000	625,0000	2317,0000	2833,0000	2,0000	7,0000	3,0000	0,0000	9,0000
16628,3480	0,0001	22,4999	0,0485	2225,0000	612,0000	624,0000	2418,0000	2837,0000	1,0000	1,0000	4,0000	0,0000	2,0000
16629,9330	0,0001	22,4999	0,0490	2100,0000	657,0000	661,0000	2448,0000	2757,0000	8,0000	10,0000	1,0000	0,0000	18,0000
16631,5070	0,0001	22,4999	0,0495	2178,0000	650,0000	626,0000	2322,0000	2828,0000	7,0000	21,0000	2,0000	2,0000	28,0000
16633,1250	0,0001	22,4999	0,0500	2254,0000	624,0000	658,0000	2269,0000	2878,0000	5,0000	7,0000	2,0000	0,0000	12,0000
16634,6980	0,0001	22,4999	0,0505	2125,0000	657,0000	658,0000	2308,0000	2782,0000	1,0000	8,0000	2,0000	1,0000	9,0000
16636,3390	0,0001	22,4999	0,0510	2278,0000	634,0000	584,0000	2314,0000	2912,0000	2,0000	8,0000	2,0000	0,0000	10,0000
16637,9120	0,0001	22,4999	0,0515	2212,0000	645,0000	625,0000	2321,0000	2857,0000	6,0000	11,0000	0,0000	0,0000	17,0000
16639,4840	0,0001	22,4999	0,0520	2146,0000	617,0000	625,0000	2288,0000	2763,0000	6,0000	18,0000	2,0000	0,0000	24,0000
16641,1210	0,0001	22,4999	0,0525	2242,0000	636,0000	601,0000	2235,0000	2878,0000	3,0000	4,0000	2,0000	4,0000	7,0000
16642,7570	0,0001	22,4999	0,0530	2042,0000	702,0000	637,0000	2355,0000	2744,0000	4,0000	6,0000	7,0000	0,0000	10,0000
16644,3680	0,0001	22,4999	0,0535	2185,0000	579,0000	565,0000	2277,0000	2764,0000	6,0000	6,0000	3,0000	1,0000	12,0000
16646,0230	0,0001	22,4999	0,0540	2161,0000	612,0000	632,0000	2284,0000	2773,0000	8,0000	15,0000	2,0000	1,0000	23,0000
16647,6290	0,0001	22,4999	0,0545	2168,0000	686,0000	611,0000	2401,0000	2854,0000	4,0000	13,0000	0,0000	1,0000	17,0000
16649,2760	0,0001	22,4999	0,0550	2153,0000	636,0000	670,0000	2294,0000	2789,0000	7,0000	10,0000	3,0000	0,0000	17,0000
16650,8980	0,0001	22,4999	0,0555	2105,0000	653,0000	649,0000	2432,0000	2758,0000	2,0000	6,0000	0,0000	2,0000	8,0000
16652,4930	0,0001	22,4999	0,0560	2174,0000	648,0000	547,0000	2326,0000	2822,0000	5,0000	3,0000	0,0000	0,0000	8,0000
16654,1220	0,0001	22,4999	0,0565	2174,0000	681,0000	642,0000	2301,0000	2855,0000	3,0000	14,0000	2,0000	0,0000	17,0000
16655,7380	0,0001	22,4999	0,0570	2181,0000	625,0000	610,0000	2308,0000	2806,0000	5,0000	9,0000	3,0000	1,0000	14,0000
16657,3530	0,0001	22,4999	0,0575	2232,0000	711,0000	616,0000	2327,0000	2943,0000	7,0000	10,0000	0,0000	0,0000	17,0000
16658,9940	0,0001	22,4999	0,0580	2212,0000	601,0000	612,0000	2335,0000	2813,0000	0,0000	6,0000	2,0000	1,0000	6,0000
16660,5930	0,0001	22,4999	0,0585	2190,0000	666,0000	595,0000	2361,0000	2856,0000	1,0000	4,0000	1,0000	3,0000	5,0000
16662,1980	0,0001	22,4999	0,0590	2217,0000	674,0000	603,0000	2344,0000	2891,0000	5,0000	13,0000	0,0000	1,0000	18,0000
16663,8000	0,0001	22,4999	0,0595	2141,0000	648,0000	673,0000	2343,0000	2789,0000	8,0000	7,0000	1,0000	0,0000	15,0000
16665,4230	0,0001	22,4999	0,0600	2079,0000	604,0000	642,0000	2274,0000	2683,0000	6,0000	6,0000	0,0000	0,0000	12,0000
16667,0480	0,0001	22,4999	0,0605	2243,0000	616,0000	649,0000	2344,0000	2859,0000	11,0000	13,0000	2,0000	0,0000	24,0000
16668,7210	0,0001	22,4999	0,0610	2193,0000	656,0000	598,0000	2421,0000	2849,0000	2,0000	5,0000	2,0000	1,0000	7,0000
16670,3150	0,0001	22,4999	0,0615	2128,0000	625,0000	596,0000	2290,0000	2753,0000	7,0000	7,0000	1,0000	0,0000	14,0000
16671,9010	0,0001	22,4999	0,0620	2282,0000	604,0000	597,0000	2364,0000	2886,0000	1,0000	5,0000	1,0000	0,0000	6,0000
16673,4960	0,0001	22,4999	0,0625	2279,0000	625,0000	608,0000	2413,0000	2904,0000	12,0000	12,0000	0,0000	0,0000	24,0000
16675,1080	0,0001	22,4999	0,0630	2167,0000	664,0000	619,0000	2406,0000	2831,0000	4,0000	7,0000	0,0000	0,0000	11,0000
16676,7280	0,0001	22,4999	0,0635	2202,0000	601,0000	601,0000	2415,0000	2803,0000	3,0000	4,0000	1,0000	0,0000	7,0000
16678,3350	0,0001	22,4999	0,0640	2148,0000	666,0000	604,0000	2334,0000	2814,0000	1,0000	2,0000	2,0000	1,0000	3,0000
16679,9240	0,0001	22,4999	0,0645	2146,0000	618,0000	618,0000	2239,0000	2764,0000	7,0000	11,0000	4,0000	1,0000	18,0000
16681,5610	0,0001	22,4999	0,0650	2317,0000	582,0000	642,0000	2292,0000	2899,0000	8,0000	10,0000	1,0000	2,0000	18,0000
16683,1480	0,0001	22,4999	0,0655	2110,0000	680,0000	628,0000	2374,0000	2790,0000	8,0000	12,0000	1,0000	0,0000	20,0000
16684,7710	0,0001	22,4999	0,0660	2170,0000	624,0000	623,0000	2261,0000	2794,0000	0,0000	3,0000	5,0000	2,0000	3,0000
16686,3680	0,0001	22,4999	0,0665	2170,0000	587,0000	684,0000	2317,0000	2757,0000	1,0000	8,0000	4,0000	2,0000	9,0000
16687,9610	0,0001	22,4999	0,0670	2168,0000	608,0000	628,0000	2351,0000	2776,0000	4,0000	2,0000	4,0000	1,0000	6,0000
16689,6070	0,0001	22,4999	0,0675	2181,0000	641,0000	606,0000	2301,0000	2822,0000	9,0000	7,0000	3,0000	1,0000	16,0000
16691,2600	0,0001	22,4999	0,0680	2175,0000	658,0000	630,0000	2380,0000	2833,0000	4,0000	11,0000	3,0000	2,0000	15,0000
16692,8440	0,0001	22,4999	0,0685	2342,0000	591,0000	627,0000	2255,0000	2933,0000	9,0000	10,0000	0,0000	0,0000	19,0000
16694,4680	0,0001	22,4999	0,0690	2166,0000	733,0000	687,0000	2305,0000	2899,0000	1,0000	13,0000	2,0000	0,0000	14,0000
16696,0650	0,0001	22,4999	0,0695	2219,0000	659,0000	583,0000	2405,0000	2878,0000	4,0000	3,0000	0,0000	1,0000	7,0000
16697,6880	0,0001	22,4999	0,0700	2172,0000	661,0000	624,0000	2414,0000	2833,0000	2,0000	3,0000	1,0000	1,0000	5,0000
16699,2730	0,0001	22,4999	0,0705	2211,0000	634,0000	605,0000	2415,0000	2845,0000	5,0000	4,0000	0,0000	2,0000	9,0000
16700,8680	0,0001	22,4999	0,0710	2288,0000	655,0000	605,0000	2285,0000	2943,0000	8,0000	16,0000	1,0000	1,0000	24,0000
16702,4460	0,0001	22,4999	0,0715	2117,0000	658,0000	638,0000	2278,0000	2775,0000	5,0000	17,0000	1,0000	0,0000	22,0000
16704,0590	0,0001	22,4999	0,0720	2122,0000	612,0000	647,0000	2266,0000	2734,0000	1,0000	4,0000	4,0000	0,0000	5,0000
16705,6370	0,0001	22,4999	0,0725	2266,0000	658,0000	617,0000	2385,0000	2924,0000	4,0000	9,0000	2,0000	0,0000	13,0000
16707,2310	0,0001	22,4999	0,0730	2183,0000	621,0000	657,0000	2391,0000	2804,0000	5,0000	4,0000	3,0000	0,0000	9,0000
16708,8630	0,0001	22,4999	0,0735	2237,0000	601,0000	595,0000	2396,0000	2838,0000	11,0000	13,0000	4,0000	3,0000	24,0000
16710,4840	0,0001	22,4999	0,0740	2244,0000	645,0000	585,0000	2329,0000	2889,0000	2,0000	2,0000	1,0000	3,0000	4,0000
16712,1050	0,0001	22,4999	0,0745	2140,0000	650,0000	651,0000	2318,0000	2790,0000	7,0000	9,0000	0,0000	1,0000	16,0000
16713,7210	0,0001	22,4999	0,0750	2236,0000	649,0000	655,0000	2363,0000	2885,0000	5,0000	10,0000	3,0000	1,0000	15,0000
16715,3450	0,0001	22,4999	0,0755	2224,0000	642,0000	619,0000	2279,0000	2866,0000	1,0000	5,0000	3,0000	1,0000	6,0000
16716,9310	0,0001	22,4999	0,0760	2328,0000	655,0000	613,0000	2422,0000	2983,0000	8,0000	6,0000	3,0000	1,0000	14,0000
16718,5300	0,0001	22,4999	0,0765	2160,0000	652,0000	624,0000	2401,0000	2812,0000	10,0000	9,0000	5,0000	0,0000	19,0000
16720,1440	0,0001	22,4999	0,0770	2188,0000	615,0000	601,0000	2281,0000	2803,0000	5,0000	5,0000	0,0000	1,0000	10,0000
16721,7690	0,0001	22,4999	0,0775	2174,0000	654,0000	617,0000	2429,0000	2828,0000	4,0000	6,0000	1,0000	0,0000	10,0000
16723,3770	0,0001	22,4999	0,0780	2173,0000	685,0000	638,0000	2337,0000	2858,0000	5,0000	6,0000	0,0000	1,0000	11,0000
16724,9820	0,0001	22,4999	0,0785	2228,0000	616,0000	604,0000	2332,0000	2844,0000	5,0000	11,0000	1,0000	0,0000	16,0000
16726,6070	0,0001	22,4999	0,0790	2201,0000	613,0000	649,0000	2348,0000	2814,0000	3,0000	10,0000	1,0000	0,0000	13,0000
16728,2020	0,0001	22,4999	0,0795	2173,0000	626,0000	663,0000	2251,0000	2799,0000	5,0000	5,0000	5,0000	0,0000	10,0000
16729,8030	0,0001	22,4999	0,0800	2211,0000	691,0000	641,0000	2392,0000	2902,0000	5,0000	2,0000	2,0000	0,0000	7,0000
16731,4220	0,0001	22,4999	0,0805	2104,0000	625,0000	644,0000	2365,0000	2729,0000	7,0000	10,0000	1,0000	0,0000	17,0000
16733,1500	0,0001	22,4999	0,0810	2141,0000	645,0000	630,0000	2377,0000	2786,0000	7,0000	16,0000	2,0000	1,0000	23,0000
16734,7300	0,0001	22,4999	0,0815	2148,0000	615,0000	616,0000	2302,0000	2763,0000	7,0000	14,0000	0,0000	1,0000	21,0000
16736,3790	0,0001	22,4999	0,0820	2131,0000	629,0000	607,0000	2346,0000	2760,0000	1,0000	3,0000	1,0000	3,0000	4,0000
