1937.1300	-0.1000	2816.0000	952.0000	920.0000	7001.0000	3768.0000	5.0000	16.0000	4.0000	2.0000	21.0000
1937.5590	-0.1000	2816.0000	952.0000	920.0000	7001.0000	3768.0000	5.0000	16.0000	4.0000	2.0000	21.0000
1943.8720	-0.0995	2783.0000	1003.0000	850.0000	6875.0000	3786.0000	9.0000	10.0000	7.0000	3.0000	19.0000
1950.3710	-0.0990	2878.0000	969.0000	884.0000	6720.0000	3847.0000	8.0000	9.0000	1.0000	1.0000	17.0000
1956.8870	-0.0985	2679.0000	1065.0000	924.0000	6819.0000	3744.0000	4.0000	10.0000	3.0000	4.0000	14.0000
1963.3880	-0.0980	2848.0000	983.0000	922.0000	6733.0000	3831.0000	11.0000	10.0000	2.0000	0.0000	21.0000
1969.8890	-0.0975	2805.0000	999.0000	951.0000	6602.0000	3804.0000	4.0000	13.0000	1.0000	2.0000	17.0000
1976.4150	-0.0970	2787.0000	1059.0000	897.0000	6808.0000	3846.0000	9.0000	15.0000	4.0000	0.0000	24.0000
1982.9210	-0.0965	2811.0000	1069.0000	909.0000	6810.0000	3880.0000	12.0000	11.0000	1.0000	0.0000	23.0000
1989.4640	-0.0960	2759.0000	1072.0000	922.0000	6790.0000	3831.0000	3.0000	7.0000	1.0000	0.0000	10.0000
1995.9760	-0.0955	2854.0000	976.0000	910.0000	6779.0000	3830.0000	7.0000	14.0000	1.0000	0.0000	21.0000
2002.5030	-0.0950	2746.0000	1015.0000	904.0000	6667.0000	3761.0000	6.0000	11.0000	4.0000	5.0000	17.0000
2009.0530	-0.0945	2886.0000	1009.0000	913.0000	6748.0000	3895.0000	6.0000	12.0000	3.0000	2.0000	18.0000
2015.5300	-0.0940	2789.0000	1048.0000	968.0000	6840.0000	3837.0000	5.0000	10.0000	9.0000	0.0000	15.0000
2022.0570	-0.0935	2877.0000	986.0000	925.0000	6848.0000	3863.0000	7.0000	11.0000	2.0000	1.0000	18.0000
2028.6120	-0.0930	2824.0000	1006.0000	927.0000	6755.0000	3830.0000	7.0000	14.0000	3.0000	2.0000	21.0000
2035.1860	-0.0925	2680.0000	930.0000	925.0000	6769.0000	3610.0000	8.0000	5.0000	0.0000	1.0000	13.0000
2041.6970	-0.0920	2831.0000	987.0000	919.0000	6779.0000	3818.0000	10.0000	5.0000	2.0000	1.0000	15.0000
2048.2860	-0.0915	2749.0000	1016.0000	909.0000	6764.0000	3765.0000	9.0000	9.0000	4.0000	1.0000	18.0000
2054.8620	-0.0910	2798.0000	998.0000	899.0000	6789.0000	3796.0000	8.0000	7.0000	2.0000	0.0000	15.0000
2061.3890	-0.0905	2906.0000	1013.0000	914.0000	6783.0000	3919.0000	3.0000	12.0000	3.0000	1.0000	15.0000
2068.0020	-0.0900	2715.0000	1050.0000	868.0000	6779.0000	3765.0000	6.0000	4.0000	3.0000	1.0000	10.0000
2074.5450	-0.0895	2896.0000	977.0000	926.0000	6778.0000	3873.0000	6.0000	8.0000	4.0000	2.0000	14.0000
2081.1450	-0.0890	2742.0000	982.0000	913.0000	6742.0000	3724.0000	9.0000	10.0000	6.0000	1.0000	19.0000
2087.7100	-0.0885	2734.0000	1011.0000	967.0000	6770.0000	3745.0000	5.0000	11.0000	1.0000	0.0000	16.0000
2094.2770	-0.0880	2761.0000	949.0000	909.0000	6905.0000	3710.0000	5.0000	12.0000	9.0000	1.0000	17.0000
2100.8720	-0.0875	2733.0000	1099.0000	919.0000	6856.0000	3832.0000	4.0000	12.0000	2.0000	2.0000	16.0000
2107.5090	-0.0870	2816.0000	1035.0000	960.0000	6782.0000	3851.0000	6.0000	16.0000	4.0000	0.0000	22.0000
2114.0910	-0.0865	2830.0000	1061.0000	922.0000	6764.0000	3891.0000	9.0000	16.0000	3.0000	1.0000	25.0000
2120.7320	-0.0860	2639.0000	1006.0000	910.0000	6812.0000	3645.0000	2.0000	9.0000	6.0000	4.0000	11.0000
2127.3860	-0.0855	2786.0000	996.0000	860.0000	6873.0000	3782.0000	8.0000	6.0000	1.0000	0.0000	14.0000
2134.0000	-0.0850	2725.0000	1015.0000	890.0000	6827.0000	3740.0000	6.0000	13.0000	2.0000	1.0000	19.0000
2140.6450	-0.0845	2773.0000	1036.0000	935.0000	6847.0000	3809.0000	15.0000	14.0000	3.0000	0.0000	29.0000
2147.2700	-0.0840	2908.0000	1012.0000	919.0000	6744.0000	3920.0000	4.0000	9.0000	6.0000	0.0000	13.0000
2153.9150	-0.0835	2723.0000	1057.0000	926.0000	6709.0000	3780.0000	10.0000	16.0000	1.0000	1.0000	26.0000
2160.5790	-0.0830	2767.0000	957.0000	910.0000	6713.0000	3724.0000	4.0000	11.0000	0.0000	2.0000	15.0000
2167.2070	-0.0825	2753.0000	1007.0000	912.0000	6728.0000	3760.0000	8.0000	14.0000	5.0000	3.0000	22.0000
2173.8350	-0.0820	2769.0000	1068.0000	913.0000	6792.0000	3837.0000	11.0000	12.0000	2.0000	0.0000	23.0000
2180.5400	-0.0815	2822.0000	914.0000	923.0000	6656.0000	3736.0000	5.0000	12.0000	4.0000	2.0000	17.0000
2187.1520	-0.0810	2814.0000	972.0000	890.0000	6815.0000	3786.0000	4.0000	13.0000	2.0000	0.0000	17.0000
2193.7730	-0.0805	2819.0000	1009.0000	940.0000	6687.0000	3828.0000	7.0000	8.0000	5.0000	0.0000	15.0000
2200.3910	-0.0800	2670.0000	1074.0000	891.0000	6876.0000	3744.0000	9.0000	11.0000	4.0000	2.0000	20.0000
2207.0900	-0.0795	2762.0000	953.0000	864.0000	6698.0000	3715.0000	4.0000	13.0000	0.0000	0.0000	17.0000
2213.6860	-0.0790	2779.0000	975.0000	895.0000	6621.0000	3754.0000	5.0000	16.0000	6.0000	1.0000	21.0000
2220.2970	-0.0785	2824.0000	1044.0000	922.0000	6854.0000	3868.0000	6.0000	6.0000	3.0000	2.0000	12.0000
2226.9420	-0.0780	2750.0000	961.0000	940.0000	6702.0000	3711.0000	4.0000	12.0000	4.0000	1.0000	16.0000
2233.5620	-0.0775	2777.0000	970.0000	927.0000	6859.0000	3747.0000	7.0000	13.0000	2.0000	1.0000	20.0000
2240.1600	-0.0770	2717.0000	1028.0000	922.0000	6691.0000	3745.0000	2.0000	10.0000	2.0000	1.0000	12.0000
2246.8220	-0.0765	2708.0000	1082.0000	926.0000	6601.0000	3790.0000	3.0000	10.0000	1.0000	4.0000	13.0000
2253.4230	-0.0760	2784.0000	997.0000	890.0000	6822.0000	3781.0000	10.0000	16.0000	2.0000	2.0000	26.0000
2260.0480	-0.0755	2753.0000	1037.0000	885.0000	6598.0000	3790.0000	4.0000	11.0000	2.0000	1.0000	15.0000
2266.6480	-0.0750	2773.0000	1009.0000	907.0000	6691.0000	3782.0000	8.0000	11.0000	1.0000	1.0000	19.0000
2273.2650	-0.0745	2737.0000	982.0000	948.0000	6784.0000	3719.0000	7.0000	6.0000	0.0000	1.0000	13.0000
2279.9780	-0.0740	2888.0000	948.0000	947.0000	6658.0000	3836.0000	12.0000	19.0000	2.0000	1.0000	31.0000
2286.6520	-0.0735	2741.0000	1040.0000	888.0000	6803.0000	3781.0000	10.0000	10.0000	1.0000	3.0000	20.0000
2293.3160	-0.0730	2842.0000	1033.0000	942.0000	6662.0000	3875.0000	7.0000	14.0000	2.0000	0.0000	21.0000
2299.9320	-0.0725	2798.0000	1051.0000	895.0000	6681.0000	3849.0000	13.0000	16.0000	2.0000	0.0000	29.0000
2306.5740	-0.0720	2670.0000	1051.0000	904.0000	6694.0000	3721.0000	7.0000	7.0000	4.0000	3.0000	14.0000
2313.2350	-0.0715	2848.0000	989.0000	867.0000	6814.0000	3837.0000	4.0000	9.0000	2.0000	1.0000	13.0000
2319.8620	-0.0710	2813.0000	1002.0000	905.0000	6607.0000	3815.0000	3.0000	13.0000	7.0000	0.0000	16.0000
2326.4920	-0.0705	2854.0000	1003.0000	898.0000	6680.0000	3857.0000	5.0000	16.0000	3.0000	3.0000	21.0000
2333.1410	-0.0700	2728.0000	1022.0000	935.0000	6795.0000	3750.0000	5.0000	8.0000	2.0000	0.0000	13.0000
2339.8480	-0.0695	2834.0000	983.0000	879.0000	6845.0000	3817.0000	4.0000	10.0000	3.0000	0.0000	14.0000
2346.4880	-0.0690	2764.0000	971.0000	883.0000	6722.0000	3735.0000	7.0000	14.0000	2.0000	2.0000	21.0000
2353.1150	-0.0685	2658.0000	1008.0000	920.0000	6721.0000	3666.0000	8.0000	14.0000	4.0000	1.0000	22.0000
2359.7400	-0.0680	2863.0000	1021.0000	898.0000	6844.0000	3884.0000	10.0000	15.0000	2.0000	5.0000	25.0000
2366.3720	-0.0675	2772.0000	1005.0000	890.0000	6703.0000	3777.0000	10.0000	11.0000	1.0000	1.0000	21.0000
2372.9930	-0.0670	2819.0000	996.0000	908.0000	6730.0000	3815.0000	11.0000	13.0000	4.0000	1.0000	24.0000
2379.6410	-0.0665	2723.0000	1009.0000	954.0000	6827.0000	3732.0000	3.0000	17.0000	3.0000	4.0000	20.0000
2386.2900	-0.0660	2711.0000	1023.0000	900.0000	6735.0000	3734.0000	10.0000	8.0000	4.0000	1.0000	18.0000
2392.9160	-0.0655	2791.0000	959.0000	907.0000	6962.0000	3750.0000	12.0000	12.0000	5.0000	0.0000	24.0000
2399.5410	-0.0650	2853.0000	938.0000	907.0000	6739.0000	3791.0000	5.0000	9.0000	3.0000	0.0000	14.0000
2406.1780	-0.0645	2767.0000	1033.0000	891.0000	6756.0000	3800.0000	14.0000	14.0000	2.0000	4.0000	28.0000
2412.8590	-0.0640	2795.0000	1054.0000	873.0000	6705.0000	3849.0000	7.0000	8.0000	2.0000	0.0000	15.0000
2419.5000	-0.0635	2676.0000	1008.0000	880.0000	6641.0000	3684.0000	6.0000	14.0000	2.0000	2.0000	20.0000
2426.1280	-0.0630	2760.0000	1062.0000	921.0000	6684.0000	3822.0000	12.0000	8.0000	2.0000	1.0000	20.0000
2432.7690	-0.0625	2840.0000	1055.0000	912.0000	6819.0000	3895.0000	9.0000	19.0000	2.0000	1.0000	28.0000
2439.4120	-0.0620	2771.0000	959.0000	942.0000	6746.0000	3730.0000	8.0000	14.0000	0.0000	0.0000	22.0000
2446.0330	-0.0615	2699.0000	1029.0000	864.0000	6863.0000	3728.0000	14.0000	14.0000	1.0000	3.0000	28.0000
2452.6770	-0.0610	2787.0000	1022.0000	889.0000	6698.0000	3809.0000	8.0000	11.0000	1.0000	1.0000	19.0000
2459.3100	-0.0605	2729.0000	1039.0000	882.0000	6747.0000	3768.0000	5.0000	11.0000	6.0000	0.0000	16.0000
2465.9530	-0.0600	2740.0000	959.0000	850.0000	6731.0000	3699.0000	5.0000	6.0000	1.0000	3.0000	11.0000
2472.6730	-0.0595	2815.0000	998.0000	928.0000	6766.0000	3813.0000	11.0000	10.0000	2.0000	0.0000	21.0000
2479.3320	-0.0590	2728.0000	1022.0000	901.0000	6815.0000	3750.0000	7.0000	15.0000	2.0000	0.0000	22.0000
2485.9510	-0.0585	2759.0000	1070.0000	903.0000	6722.0000	3829.0000	12.0000	14.0000	2.0000	5.0000	26.0000
2492.5810	-0.0580	2721.0000	994.0000	926.0000	6628.0000	3715.0000	6.0000	15.0000	1.0000	2.0000	21.0000
2499.2390	-0.0575	2818.0000	1062.0000	897.0000	6808.0000	3880.0000	6.0000	15.0000	3.0000	4.0000	21.0000
2505.8830	-0.0570	2744.0000	952.0000	897.0000	6797.0000	3696.0000	10.0000	11.0000	1.0000	2.0000	21.0000
2512.5130	-0.0565	2677.0000	1075.0000	941.0000	6703.0000	3752.0000	7.0000	18.0000	4.0000	2.0000	25.0000
2519.1490	-0.0560	2692.0000	953.0000	945.0000	6785.0000	3645.0000	6.0000	12.0000	3.0000	3.0000	18.0000
2525.7940	-0.0555	2787.0000	975.0000	899.0000	6847.0000	3762.0000	8.0000	15.0000	3.0000	2.0000	23.0000
2532.4430	-0.0550	2692.0000	967.0000	897.0000	6709.0000	3659.0000	8.0000	17.0000	5.0000	0.0000	25.0000
2539.0920	-0.0545	2763.0000	971.0000	922.0000	6516.0000	3734.0000	4.0000	10.0000	0.0000	0.0000	14.0000
2545.8010	-0.0540	2737.0000	1008.0000	919.0000	6753.0000	3745.0000	12.0000	10.0000	1.0000	0.0000	22.0000
2552.4390	-0.0535	2742.0000	972.0000	898.0000	6681.0000	3714.0000	7.0000	12.0000	5.0000	0.0000	19.0000
2559.0760	-0.0530	2806.0000	1062.0000	868.0000	6784.0000	3868.0000	9.0000	8.0000	4.0000	2.0000	17.0000
2565.6910	-0.0525	2710.0000	1030.0000	937.0000	6817.0000	3740.0000	10.0000	21.0000	3.0000	1.0000	31.0000
2572.3670	-0.0520	2828.0000	949.0000	910.0000	6713.0000	3777.0000	9.0000	17.0000	1.0000	2.0000	26.0000
2579.0060	-0.0515	2626.0000	1011.0000	958.0000	6738.0000	3637.0000	6.0000	16.0000	3.0000	0.0000	22.0000
2585.6590	-0.0510	2845.0000	938.0000	933.0000	6770.0000	3783.0000	5.0000	11.0000	2.0000	3.0000	16.0000
2592.3120	-0.0505	2691.0000	989.0000	916.0000	6627.0000	3680.0000	6.0000	20.0000	2.0000	1.0000	26.0000
2598.9400	-0.0500	2678.0000	1001.0000	951.0000	6759.0000	3679.0000	5.0000	9.0000	8.0000	1.0000	14.0000
2605.6570	-0.0495	2788.0000	962.0000	877.0000	6528.0000	3750.0000	9.0000	8.0000	0.0000	0.0000	17.0000
2612.2920	-0.0490	2580.0000	1059.0000	910.0000	6732.0000	3639.0000	6.0000	10.0000	2.0000	4.0000	16.0000
2618.9550	-0.0485	2877.0000	946.0000	894.0000	6790.0000	3823.0000	9.0000	7.0000	2.0000	1.0000	16.0000
2625.6160	-0.0480	2693.0000	1072.0000	903.0000	6706.0000	3765.0000	6.0000	12.0000	4.0000	1.0000	18.0000
2632.2750	-0.0475	2824.0000	1024.0000	942.0000	6688.0000	3848.0000	11.0000	14.0000	0.0000	3.0000	25.0000
2638.9370	-0.0470	2718.0000	1056.0000	835.0000	6719.0000	3774.0000	6.0000	5.0000	3.0000	0.0000	11.0000
2645.6020	-0.0465	2696.0000	1022.0000	905.0000	6680.0000	3718.0000	13.0000	9.0000	2.0000	1.0000	22.0000
2652.2290	-0.0460	2834.0000	1052.0000	870.0000	6651.0000	3886.0000	9.0000	12.0000	1.0000	4.0000	21.0000
2658.8970	-0.0455	2796.0000	950.0000	861.0000	6730.0000	3746.0000	7.0000	14.0000	6.0000	2.0000	21.0000
2665.5790	-0.0450	2659.0000	1038.0000	963.0000	6828.0000	3697.0000	4.0000	13.0000	2.0000	1.0000	17.0000
2672.2380	-0.0445	2827.0000	892.0000	886.0000	6647.0000	3719.0000	4.0000	12.0000	0.0000	2.0000	16.0000
2678.8760	-0.0440	2884.0000	968.0000	858.0000	6656.0000	3852.0000	7.0000	15.0000	1.0000	0.0000	22.0000
2685.5110	-0.0435	2569.0000	952.0000	959.0000	6639.0000	3521.0000	5.0000	16.0000	4.0000	0.0000	21.0000
2692.1480	-0.0430	2890.0000	987.0000	894.0000	6751.0000	3877.0000	6.0000	11.0000	0.0000	2.0000	17.0000
2698.8060	-0.0425	2768.0000	997.0000	937.0000	6657.0000	3765.0000	6.0000	21.0000	4.0000	0.0000	27.0000
2705.4470	-0.0420	2621.0000	1028.0000	958.0000	6547.0000	3649.0000	16.0000	15.0000	5.0000	0.0000	31.0000
2712.0820	-0.0415	2816.0000	949.0000	871.0000	6613.0000	3765.0000	12.0000	11.0000	0.0000	1.0000	23.0000
2718.7260	-0.0410	2690.0000	1035.0000	866.0000	6686.0000	3725.0000	5.0000	5.0000	2.0000	0.0000	10.0000
2725.3830	-0.0405	2745.0000	983.0000	878.0000	6813.0000	3728.0000	1.0000	11.0000	4.0000	1.0000	12.0000
2732.0410	-0.0400	2907.0000	925.0000	811.0000	6783.0000	3832.0000	6.0000	5.0000	2.0000	0.0000	11.0000
2738.7490	-0.0395	2584.0000	1096.0000	986.0000	6560.0000	3680.0000	8.0000	12.0000	2.0000	0.0000	20.0000
2745.4010	-0.0390	2910.0000	1026.0000	847.0000	6623.0000	3936.0000	7.0000	6.0000	3.0000	6.0000	13.0000
2752.0650	-0.0385	2718.0000	974.0000	875.0000	6669.0000	3692.0000	4.0000	8.0000	5.0000	0.0000	12.0000
2758.7300	-0.0380	2808.0000	972.0000	975.0000	6748.0000	3780.0000	10.0000	16.0000	7.0000	2.0000	26.0000
2765.3800	-0.0375	2906.0000	904.0000	938.0000	6810.0000	3810.0000	10.0000	9.0000	0.0000	0.0000	19.0000
2772.0380	-0.0370	2685.0000	1025.0000	912.0000	6632.0000	3710.0000	12.0000	10.0000	3.0000	0.0000	22.0000
2778.6860	-0.0365	2911.0000	921.0000	854.0000	6650.0000	3832.0000	3.0000	9.0000	1.0000	3.0000	12.0000
2785.3270	-0.0360	2674.0000	933.0000	888.0000	6598.0000	3607.0000	3.0000	9.0000	7.0000	0.0000	12.0000
2792.0140	-0.0355	2784.0000	972.0000	885.0000	6716.0000	3756.0000	11.0000	10.0000	6.0000	3.0000	21.0000
2798.7000	-0.0350	2725.0000	999.0000	900.0000	6554.0000	3724.0000	4.0000	9.0000	2.0000	0.0000	13.0000
2805.3120	-0.0345	2718.0000	1015.0000	929.0000	6758.0000	3733.0000	10.0000	14.0000	8.0000	4.0000	24.0000
2811.9330	-0.0340	2805.0000	949.0000	878.0000	6630.0000	3754.0000	7.0000	9.0000	0.0000	0.0000	16.0000
2818.5740	-0.0335	2597.0000	1034.0000	902.0000	6671.0000	3631.0000	5.0000	7.0000	1.0000	2.0000	12.0000
2825.2240	-0.0330	2861.0000	932.0000	864.0000	6595.0000	3793.0000	2.0000	8.0000	1.0000	1.0000	10.0000
2831.8920	-0.0325	2654.0000	989.0000	921.0000	6577.0000	3643.0000	3.0000	6.0000	1.0000	0.0000	9.0000
2838.5600	-0.0320	2755.0000	1013.0000	877.0000	6544.0000	3768.0000	10.0000	4.0000	1.0000	3.0000	14.0000
2845.2450	-0.0315	2786.0000	1051.0000	880.0000	6697.0000	3837.0000	6.0000	13.0000	2.0000	5.0000	19.0000
2851.8850	-0.0310	2590.0000	1092.0000	959.0000	6655.0000	3682.0000	2.0000	8.0000	3.0000	1.0000	10.0000
2858.5290	-0.0305	2705.0000	1035.0000	887.0000	6674.0000	3740.0000	5.0000	5.0000	4.0000	2.0000	10.0000
2865.1920	-0.0300	2807.0000	929.0000	952.0000	6647.0000	3736.0000	3.0000	9.0000	6.0000	2.0000	12.0000
2871.9070	-0.0295	2547.0000	1089.0000	894.0000	6594.0000	3636.0000	6.0000	3.0000	6.0000	1.0000	9.0000
2878.5670	-0.0290	2706.0000	987.0000	905.0000	6808.0000	3693.0000	4.0000	5.0000	3.0000	1.0000	9.0000
2885.2440	-0.0285	2850.0000	1034.0000	898.0000	6729.0000	3884.0000	4.0000	7.0000	1.0000	2.0000	11.0000
2891.8850	-0.0280	2540.0000	1044.0000	962.0000	6591.0000	3584.0000	4.0000	3.0000	6.0000	0.0000	7.0000
2898.5360	-0.0275	2851.0000	1038.0000	906.0000	6622.0000	3889.0000	3.0000	8.0000	3.0000	3.0000	11.0000
2905.1880	-0.0270	2681.0000	961.0000	887.0000	6676.0000	3642.0000	7.0000	7.0000	0.0000	2.0000	14.0000
2911.8470	-0.0265	2531.0000	1101.0000	1004.0000	6505.0000	3632.0000	5.0000	7.0000	10.0000	1.0000	12.0000
2918.5000	-0.0260	2866.0000	971.0000	817.0000	6709.0000	3837.0000	4.0000	5.0000	2.0000	0.0000	9.0000
2925.1730	-0.0255	2684.0000	1073.0000	907.0000	6637.0000	3757.0000	6.0000	7.0000	2.0000	0.0000	13.0000
2931.8390	-0.0250	2701.0000	1032.0000	944.0000	6762.0000	3733.0000	3.0000	7.0000	2.0000	2.0000	10.0000
2938.4820	-0.0245	2843.0000	986.0000	903.0000	6535.0000	3829.0000	5.0000	5.0000	3.0000	0.0000	10.0000
2945.1560	-0.0240	2479.0000	1039.0000	974.0000	6567.0000	3518.0000	3.0000	3.0000	3.0000	0.0000	6.0000
2951.8500	-0.0235	2882.0000	898.0000	873.0000	6623.0000	3780.0000	8.0000	4.0000	1.0000	2.0000	12.0000
2958.5070	-0.0230	2538.0000	1041.0000	925.0000	6651.0000	3579.0000	0.0000	1.0000	4.0000	0.0000	1.0000
2965.1710	-0.0225	2890.0000	967.0000	775.0000	6639.0000	3857.0000	5.0000	6.0000	3.0000	2.0000	11.0000
2971.8430	-0.0220	2698.0000	968.0000	905.0000	6863.0000	3666.0000	3.0000	7.0000	5.0000	0.0000	10.0000
2978.5160	-0.0215	2706.0000	1022.0000	873.0000	6580.0000	3728.0000	7.0000	5.0000	5.0000	2.0000	12.0000
2985.1540	-0.0210	2868.0000	934.0000	842.0000	6516.0000	3802.0000	3.0000	2.0000	2.0000	2.0000	5.0000
2991.8170	-0.0205	2573.0000	1019.0000	970.0000	6644.0000	3592.0000	3.0000	4.0000	5.0000	0.0000	7.0000
2998.5120	-0.0200	2802.0000	994.0000	861.0000	6530.0000	3796.0000	6.0000	3.0000	6.0000	1.0000	9.0000
3005.2340	-0.0195	2627.0000	993.0000	966.0000	6718.0000	3620.0000	3.0000	6.0000	2.0000	1.0000	9.0000
3011.9020	-0.0190	2653.0000	1060.0000	904.0000	6596.0000	3713.0000	1.0000	3.0000	6.0000	3.0000	4.0000
3018.5630	-0.0185	2915.0000	906.0000	889.0000	6710.0000	3821.0000	3.0000	6.0000	5.0000	3.0000	9.0000
3025.2130	-0.0180	2516.0000	1019.0000	964.0000	6760.0000	3535.0000	3.0000	5.0000	2.0000	0.0000	8.0000
3031.8940	-0.0175	2574.0000	1044.0000	950.0000	6514.0000	3618.0000	3.0000	8.0000	7.0000	0.0000	11.0000
3038.5710	-0.0170	2826.0000	931.0000	859.0000	6498.0000	3757.0000	2.0000	1.0000	1.0000	0.0000	3.0000
3045.2470	-0.0165	2573.0000	1015.0000	939.0000	6545.0000	3588.0000	2.0000	2.0000	5.0000	0.0000	4.0000
3051.9410	-0.0160	2918.0000	956.0000	795.0000	6728.0000	3874.0000	0.0000	0.0000	2.0000	4.0000	0.0000
3058.6030	-0.0155	2711.0000	1004.0000	945.0000	6735.0000	3715.0000	3.0000	4.0000	2.0000	1.0000	7.0000
3065.2470	-0.0150	2493.0000	1066.0000	933.0000	6544.0000	3559.0000	5.0000	7.0000	7.0000	1.0000	12.0000
3071.9210	-0.0145	2936.0000	972.0000	789.0000	6608.0000	3908.0000	1.0000	4.0000	3.0000	1.0000	5.0000
3078.6100	-0.0140	2808.0000	1014.0000	924.0000	6649.0000	3822.0000	2.0000	4.0000	8.0000	2.0000	6.0000
3085.3390	-0.0135	2619.0000	1065.0000	891.0000	6530.0000	3684.0000	3.0000	5.0000	9.0000	1.0000	8.0000
3092.0440	-0.0130	2923.0000	926.0000	835.0000	6669.0000	3849.0000	1.0000	3.0000	2.0000	1.0000	4.0000
3098.7160	-0.0125	2549.0000	1010.0000	945.0000	6596.0000	3559.0000	3.0000	4.0000	4.0000	1.0000	7.0000
3105.4180	-0.0120	2493.0000	981.0000	908.0000	6516.0000	3474.0000	1.0000	3.0000	5.0000	0.0000	4.0000
3112.0860	-0.0115	2944.0000	953.0000	819.0000	6675.0000	3897.0000	3.0000	3.0000	1.0000	0.0000	6.0000
3118.7760	-0.0110	2560.0000	1041.0000	919.0000	6637.0000	3601.0000	2.0000	3.0000	8.0000	1.0000	5.0000
3125.4760	-0.0105	2776.0000	1061.0000	875.0000	6656.0000	3837.0000	1.0000	1.0000	6.0000	3.0000	2.0000
3132.1470	-0.0100	2803.0000	937.0000	840.0000	6790.0000	3740.0000	1.0000	3.0000	4.0000	0.0000	4.0000
3138.8810	-0.0095	2584.0000	1057.0000	934.0000	6680.0000	3641.0000	0.0000	3.0000	6.0000	1.0000	3.0000
3145.5710	-0.0090	2826.0000	847.0000	859.0000	6723.0000	3673.0000	4.0000	3.0000	3.0000	2.0000	7.0000
3152.2510	-0.0085	2620.0000	1026.0000	924.0000	6442.0000	3646.0000	2.0000	5.0000	5.0000	0.0000	7.0000
3158.9260	-0.0080	2703.0000	951.0000	910.0000	6719.0000	3654.0000	1.0000	2.0000	6.0000	2.0000	3.0000
3165.6100	-0.0075	2643.0000	976.0000	866.0000	6450.0000	3619.0000	1.0000	3.0000	0.0000	0.0000	4.0000
3172.2820	-0.0070	2628.0000	1047.0000	951.0000	6470.0000	3675.0000	1.0000	4.0000	10.0000	3.0000	5.0000
3178.9560	-0.0065	2895.0000	933.0000	837.0000	6750.0000	3828.0000	0.0000	0.0000	1.0000	2.0000	0.0000
3185.6140	-0.0060	2430.0000	980.0000	895.0000	6643.0000	3410.0000	4.0000	3.0000	5.0000	0.0000	7.0000
3192.2660	-0.0055	2921.0000	949.0000	817.0000	6606.0000	3870.0000	1.0000	0.0000	5.0000	4.0000	1.0000
3198.9370	-0.0050	2577.0000	1061.0000	952.0000	6754.0000	3638.0000	1.0000	1.0000	6.0000	0.0000	2.0000
3205.6350	-0.0045	2828.0000	942.0000	917.0000	6676.0000	3770.0000	1.0000	6.0000	11.0000	1.0000	7.0000
3212.3390	-0.0040	2737.0000	989.0000	913.0000	6689.0000	3726.0000	1.0000	1.0000	0.0000	3.0000	2.0000
3219.0300	-0.0035	2610.0000	1047.0000	980.0000	6686.0000	3657.0000	0.0000	4.0000	4.0000	0.0000	4.0000
3225.7070	-0.0030	2926.0000	911.0000	808.0000	6761.0000	3837.0000	1.0000	1.0000	2.0000	3.0000	2.0000
3232.4030	-0.0025	2606.0000	1063.0000	955.0000	6668.0000	3669.0000	3.0000	6.0000	4.0000	0.0000	9.0000
3239.1180	-0.0020	2720.0000	982.0000	852.0000	6702.0000	3702.0000	4.0000	4.0000	4.0000	0.0000	8.0000
3245.7940	-0.0015	2762.0000	921.0000	877.0000	6576.0000	3683.0000	1.0000	2.0000	2.0000	2.0000	3.0000
3252.4890	-0.0010	2490.0000	1072.0000	934.0000	6736.0000	3562.0000	3.0000	4.0000	5.0000	0.0000	7.0000
3259.1660	-0.0005	2673.0000	1013.0000	874.0000	6621.0000	3686.0000	1.0000	4.0000	9.0000	1.0000	5.0000
3265.8330	0.0000	2826.0000	892.0000	878.0000	6550.0000	3718.0000	1.0000	2.0000	1.0000	0.0000	3.0000
3272.5640	0.0005	2521.0000	1048.0000	954.0000	6612.0000	3569.0000	2.0000	0.0000	10.0000	0.0000	2.0000
3279.2530	0.0010	2884.0000	957.0000	853.0000	6635.0000	3841.0000	2.0000	5.0000	2.0000	3.0000	7.0000
3285.9570	0.0015	2628.0000	916.0000	894.0000	6619.0000	3544.0000	0.0000	3.0000	2.0000	0.0000	3.0000
3292.6240	0.0020	2657.0000	1037.0000	885.0000	6619.0000	3694.0000	1.0000	4.0000	2.0000	0.0000	5.0000
3299.2890	0.0025	2813.0000	917.0000	852.0000	6518.0000	3730.0000	1.0000	2.0000	1.0000	3.0000	3.0000
3305.9950	0.0030	2556.0000	1055.0000	995.0000	6818.0000	3611.0000	1.0000	3.0000	1.0000	3.0000	4.0000
3312.7310	0.0035	2845.0000	883.0000	856.0000	6631.0000	3728.0000	1.0000	6.0000	5.0000	0.0000	7.0000
3319.4270	0.0040	2668.0000	952.0000	882.0000	6649.0000	3620.0000	3.0000	2.0000	2.0000	1.0000	5.0000
3326.1210	0.0045	2643.0000	1052.0000	904.0000	6658.0000	3695.0000	6.0000	7.0000	6.0000	0.0000	13.0000
3332.8500	0.0050	2730.0000	978.0000	839.0000	6662.0000	3708.0000	1.0000	1.0000	1.0000	4.0000	2.0000
3339.5310	0.0055	2466.0000	1031.0000	951.0000	6603.0000	3497.0000	4.0000	4.0000	2.0000	0.0000	8.0000
3346.2020	0.0060	2898.0000	964.0000	800.0000	6660.0000	3862.0000	5.0000	6.0000	1.0000	1.0000	11.0000
3352.8960	0.0065	2613.0000	1044.0000	928.0000	6598.0000	3657.0000	2.0000	6.0000	3.0000	1.0000	8.0000
3359.5740	0.0070	2786.0000	954.0000	875.0000	6606.0000	3740.0000	2.0000	6.0000	4.0000	0.0000	8.0000
3366.2750	0.0075	2694.0000	978.0000	877.0000	6598.0000	3672.0000	3.0000	3.0000	3.0000	1.0000	6.0000
3372.9750	0.0080	2546.0000	1033.0000	970.0000	6751.0000	3579.0000	5.0000	5.0000	4.0000	0.0000	10.0000
3379.6820	0.0085	2896.0000	961.0000	934.0000	6780.0000	3857.0000	3.0000	5.0000	3.0000	1.0000	8.0000
3386.3700	0.0090	2538.0000	1041.0000	992.0000	6653.0000	3579.0000	4.0000	5.0000	3.0000	0.0000	9.0000
3393.0380	0.0095	2807.0000	905.0000	836.0000	6623.0000	3712.0000	10.0000	5.0000	3.0000	4.0000	15.0000
3399.7300	0.0100	2730.0000	1014.0000	882.0000	6711.0000	3744.0000	0.0000	4.0000	3.0000	1.0000	4.0000
3406.5360	0.0105	2714.0000	958.0000	897.0000	6633.0000	3672.0000	5.0000	6.0000	4.0000	0.0000	11.0000
3413.2050	0.0110	2740.0000	886.0000	887.0000	6723.0000	3626.0000	1.0000	5.0000	0.0000	3.0000	6.0000
3419.9060	0.0115	2485.0000	1048.0000	881.0000	6530.0000	3533.0000	2.0000	4.0000	2.0000	0.0000	6.0000
3426.5930	0.0120	2694.0000	1023.0000	851.0000	6691.0000	3717.0000	4.0000	6.0000	5.0000	1.0000	10.0000
3433.2660	0.0125	2734.0000	871.0000	841.0000	6511.0000	3605.0000	3.0000	7.0000	1.0000	0.0000	10.0000
3439.9390	0.0130	2551.0000	1006.0000	930.0000	6544.0000	3557.0000	7.0000	6.0000	1.0000	0.0000	13.0000
3446.6150	0.0135	2835.0000	947.0000	778.0000	6673.0000	3782.0000	6.0000	9.0000	1.0000	0.0000	15.0000
3453.2920	0.0140	2615.0000	961.0000	880.0000	6595.0000	3576.0000	2.0000	4.0000	1.0000	2.0000	6.0000
3459.9670	0.0145	2659.0000	954.0000	939.0000	6623.0000	3613.0000	5.0000	9.0000	5.0000	0.0000	14.0000
3466.6250	0.0150	2771.0000	905.0000	851.0000	6436.0000	3676.0000	5.0000	3.0000	2.0000	0.0000	8.0000
3473.2920	0.0155	2620.0000	1053.0000	963.0000	6692.0000	3673.0000	4.0000	13.0000	5.0000	0.0000	17.0000
3479.9960	0.0160	2745.0000	1063.0000	916.0000	6601.0000	3808.0000	10.0000	6.0000	2.0000	1.0000	16.0000
3486.6710	0.0165	2876.0000	982.0000	872.0000	6483.0000	3858.0000	5.0000	11.0000	1.0000	2.0000	16.0000
3493.3400	0.0170	2629.0000	1038.0000	887.0000	6550.0000	3667.0000	5.0000	6.0000	16.0000	0.0000	11.0000
3500.0360	0.0175	2903.0000	881.0000	848.0000	6731.0000	3784.0000	1.0000	13.0000	2.0000	1.0000	14.0000
3506.7690	0.0180	2718.0000	1083.0000	913.0000	6500.0000	3801.0000	5.0000	14.0000	1.0000	0.0000	19.0000
3513.4940	0.0185	2740.0000	995.0000	882.0000	6704.0000	3735.0000	8.0000	10.0000	6.0000	0.0000	18.0000
3520.1870	0.0190	2876.0000	922.0000	830.0000	6496.0000	3798.0000	6.0000	5.0000	1.0000	1.0000	11.0000
3526.8620	0.0195	2645.0000	1057.0000	936.0000	6700.0000	3702.0000	3.0000	8.0000	4.0000	0.0000	11.0000
3533.5320	0.0200	2769.0000	962.0000	855.0000	6672.0000	3731.0000	7.0000	9.0000	2.0000	0.0000	16.0000
3540.2080	0.0205	2844.0000	1043.0000	851.0000	6644.0000	3887.0000	7.0000	8.0000	3.0000	4.0000	15.0000
3546.9740	0.0210	2605.0000	968.0000	922.0000	6753.0000	3573.0000	5.0000	5.0000	8.0000	0.0000	10.0000
3553.6730	0.0215	2799.0000	912.0000	866.0000	6758.0000	3711.0000	3.0000	11.0000	3.0000	4.0000	14.0000
3560.3620	0.0220	2587.0000	951.0000	910.0000	6785.0000	3538.0000	7.0000	12.0000	1.0000	0.0000	19.0000
3567.0640	0.0225	2932.0000	882.0000	911.0000	6476.0000	3814.0000	9.0000	14.0000	1.0000	0.0000	23.0000
3573.7590	0.0230	2612.0000	977.0000	972.0000	6526.0000	3589.0000	8.0000	10.0000	4.0000	0.0000	18.0000
3580.4320	0.0235	2775.0000	947.0000	911.0000	6633.0000	3722.0000	7.0000	12.0000	3.0000	0.0000	19.0000
3587.1150	0.0240	2733.0000	965.0000	900.0000	6543.0000	3698.0000	5.0000	6.0000	0.0000	0.0000	11.0000
3593.7960	0.0245	2651.0000	990.0000	890.0000	6598.0000	3641.0000	5.0000	11.0000	3.0000	1.0000	16.0000
3600.5000	0.0250	2796.0000	983.0000	865.0000	6647.0000	3779.0000	4.0000	9.0000	0.0000	0.0000	13.0000
3607.2100	0.0255	2581.0000	1009.0000	897.0000	6707.0000	3590.0000	6.0000	8.0000	3.0000	0.0000	14.0000
3613.8990	0.0260	2705.0000	942.0000	844.0000	6711.0000	3647.0000	5.0000	10.0000	0.0000	1.0000	15.0000
3620.6310	0.0265	2603.0000	1013.0000	924.0000	6509.0000	3616.0000	7.0000	7.0000	5.0000	1.0000	14.0000
3627.3450	0.0270	2642.0000	986.0000	898.0000	6556.0000	3628.0000	2.0000	10.0000	6.0000	0.0000	12.0000
3634.0310	0.0275	2659.0000	982.0000	879.0000	6666.0000	3641.0000	5.0000	10.0000	0.0000	2.0000	15.0000
3640.7500	0.0280	2612.0000	1000.0000	906.0000	6495.0000	3612.0000	10.0000	9.0000	2.0000	0.0000	19.0000
3647.4150	0.0285	2757.0000	903.0000	884.0000	6613.0000	3660.0000	6.0000	7.0000	2.0000	0.0000	13.0000
3654.1120	0.0290	2641.0000	974.0000	916.0000	6545.0000	3615.0000	5.0000	11.0000	1.0000	1.0000	16.0000
3660.8020	0.0295	2687.0000	1009.0000	952.0000	6494.0000	3696.0000	4.0000	11.0000	5.0000	1.0000	15.0000
3667.4870	0.0300	2815.0000	954.0000	835.0000	6624.0000	3769.0000	5.0000	10.0000	0.0000	3.0000	15.0000
3674.1630	0.0305	2689.0000	1082.0000	928.0000	6609.0000	3771.0000	7.0000	18.0000	4.0000	1.0000	25.0000
3680.8550	0.0310	2828.0000	976.0000	917.0000	6531.0000	3804.0000	8.0000	18.0000	4.0000	3.0000	26.0000
3687.5410	0.0315	2765.0000	939.0000	900.0000	6530.0000	3704.0000	12.0000	14.0000	0.0000	4.0000	26.0000
3694.2480	0.0320	2594.0000	978.0000	834.0000	6526.0000	3572.0000	8.0000	10.0000	1.0000	0.0000	18.0000
3700.9340	0.0325	2750.0000	990.0000	890.0000	6580.0000	3740.0000	7.0000	18.0000	6.0000	2.0000	25.0000
3707.6230	0.0330	2663.0000	1021.0000	918.0000	6474.0000	3684.0000	9.0000	12.0000	1.0000	1.0000	21.0000
3714.3690	0.0335	2677.0000	1037.0000	918.0000	6656.0000	3714.0000	8.0000	11.0000	2.0000	0.0000	19.0000
3721.0670	0.0340	2767.0000	969.0000	897.0000	6547.0000	3736.0000	9.0000	11.0000	0.0000	1.0000	20.0000
3727.8090	0.0345	2511.0000	1031.0000	848.0000	6577.0000	3542.0000	7.0000	13.0000	6.0000	1.0000	20.0000
3734.4990	0.0350	2768.0000	947.0000	901.0000	6453.0000	3715.0000	4.0000	12.0000	3.0000	1.0000	16.0000
3741.1930	0.0355	2707.0000	1075.0000	897.0000	6639.0000	3782.0000	12.0000	14.0000	1.0000	0.0000	26.0000
3747.8960	0.0360	2641.0000	974.0000	904.0000	6596.0000	3615.0000	3.0000	10.0000	3.0000	1.0000	13.0000
3754.6050	0.0365	2744.0000	966.0000	820.0000	6597.0000	3710.0000	7.0000	14.0000	0.0000	5.0000	21.0000
3761.2810	0.0370	2615.0000	983.0000	871.0000	6562.0000	3598.0000	8.0000	9.0000	2.0000	0.0000	17.0000
3768.0350	0.0375	2774.0000	966.0000	849.0000	6610.0000	3740.0000	3.0000	7.0000	1.0000	4.0000	10.0000
3774.6980	0.0380	2669.0000	1022.0000	907.0000	6438.0000	3691.0000	13.0000	16.0000	3.0000	0.0000	29.0000
3781.3700	0.0385	2776.0000	919.0000	926.0000	6555.0000	3695.0000	9.0000	12.0000	6.0000	2.0000	21.0000
3788.0880	0.0390	2737.0000	956.0000	866.0000	6613.0000	3693.0000	10.0000	14.0000	0.0000	0.0000	24.0000
3794.7780	0.0395	2694.0000	1035.0000	919.0000	6483.0000	3729.0000	7.0000	8.0000	2.0000	3.0000	15.0000
3801.4970	0.0400	2694.0000	911.0000	854.0000	6734.0000	3605.0000	10.0000	12.0000	0.0000	0.0000	22.0000
3808.2110	0.0405	2657.0000	959.0000	876.0000	6570.0000	3616.0000	10.0000	6.0000	1.0000	0.0000	16.0000
3814.9650	0.0410	2710.0000	1026.0000	843.0000	6673.0000	3736.0000	5.0000	17.0000	2.0000	0.0000	22.0000
3821.7000	0.0415	2694.0000	944.0000	911.0000	6661.0000	3638.0000	3.0000	12.0000	0.0000	1.0000	15.0000
3828.4060	0.0420	2695.0000	1064.0000	818.0000	6624.0000	3759.0000	9.0000	9.0000	4.0000	1.0000	18.0000
3835.1040	0.0425	2719.0000	959.0000	890.0000	6552.0000	3678.0000	7.0000	11.0000	2.0000	4.0000	18.0000
3841.8370	0.0430	2640.0000	967.0000	921.0000	6616.0000	3607.0000	8.0000	10.0000	2.0000	0.0000	18.0000
3848.5490	0.0435	2689.0000	1009.0000	842.0000	6664.0000	3698.0000	10.0000	13.0000	4.0000	3.0000	23.0000
3855.2520	0.0440	2797.0000	1014.0000	884.0000	6597.0000	3811.0000	11.0000	17.0000	1.0000	3.0000	28.0000
3861.9770	0.0445	2687.0000	1026.0000	953.0000	6586.0000	3713.0000	5.0000	16.0000	1.0000	3.0000	21.0000
3868.6940	0.0450	2762.0000	986.0000	879.0000	6609.0000	3748.0000	14.0000	7.0000	1.0000	0.0000	21.0000
3875.3850	0.0455	2632.0000	1012.0000	938.0000	6564.0000	3644.0000	11.0000	9.0000	2.0000	2.0000	20.0000
3882.0840	0.0460	2683.0000	960.0000	872.0000	6590.0000	3643.0000	8.0000	13.0000	0.0000	1.0000	21.0000
3888.7970	0.0465	2627.0000	980.0000	879.0000	6577.0000	3607.0000	2.0000	9.0000	0.0000	1.0000	11.0000
3895.4910	0.0470	2632.0000	953.0000	944.0000	6422.0000	3585.0000	6.0000	21.0000	2.0000	1.0000	27.0000
3902.1930	0.0475	2707.0000	972.0000	877.0000	6488.0000	3679.0000	8.0000	10.0000	1.0000	1.0000	18.0000
3908.9090	0.0480	2676.0000	950.0000	932.0000	6501.0000	3626.0000	3.0000	6.0000	0.0000	4.0000	9.0000
3915.6160	0.0485	2659.0000	1066.0000	913.0000	6470.0000	3725.0000	9.0000	7.0000	6.0000	2.0000	16.0000
3922.3200	0.0490	2755.0000	947.0000	852.0000	6553.0000	3702.0000	6.0000	10.0000	0.0000	1.0000	16.0000
3929.0250	0.0495	2641.0000	1031.0000	926.0000	6580.0000	3672.0000	5.0000	19.0000	2.0000	1.0000	24.0000
3935.7420	0.0500	2722.0000	1000.0000	859.0000	6527.0000	3722.0000	4.0000	7.0000	3.0000	2.0000	11.0000
3942.4420	0.0505	2648.0000	968.0000	895.0000	6745.0000	3616.0000	6.0000	10.0000	0.0000	3.0000	16.0000
3949.1520	0.0510	2619.0000	1016.0000	878.0000	6719.0000	3635.0000	9.0000	17.0000	4.0000	1.0000	26.0000
3955.8540	0.0515	2643.0000	943.0000	855.0000	6487.0000	3586.0000	6.0000	12.0000	1.0000	1.0000	18.0000
3962.5600	0.0520	2733.0000	960.0000	854.0000	6706.0000	3693.0000	7.0000	22.0000	0.0000	2.0000	29.0000
3969.2680	0.0525	2614.0000	984.0000	851.0000	6661.0000	3598.0000	5.0000	4.0000	1.0000	0.0000	9.0000
3975.9510	0.0530	2709.0000	914.0000	874.0000	6555.0000	3623.0000	6.0000	16.0000	0.0000	2.0000	22.0000
3982.6810	0.0535	2812.0000	886.0000	956.0000	6674.0000	3698.0000	6.0000	11.0000	7.0000	1.0000	17.0000
3989.4080	0.0540	2774.0000	978.0000	882.0000	6553.0000	3752.0000	7.0000	14.0000	0.0000	2.0000	21.0000
3996.1730	0.0545	2708.0000	950.0000	817.0000	6389.0000	3658.0000	4.0000	9.0000	3.0000	0.0000	13.0000
4002.8690	0.0550	2637.0000	984.0000	883.0000	6640.0000	3621.0000	6.0000	13.0000	3.0000	0.0000	19.0000
4009.5730	0.0555	2639.0000	999.0000	883.0000	6428.0000	3638.0000	11.0000	14.0000	2.0000	3.0000	25.0000
4016.3110	0.0560	2723.0000	946.0000	912.0000	6541.0000	3669.0000	4.0000	13.0000	1.0000	0.0000	17.0000
4023.0480	0.0565	2668.0000	936.0000	872.0000	6460.0000	3604.0000	3.0000	3.0000	3.0000	2.0000	6.0000
4029.7470	0.0570	2707.0000	1001.0000	915.0000	6552.0000	3708.0000	7.0000	13.0000	2.0000	1.0000	20.0000
4036.4970	0.0575	2722.0000	893.0000	877.0000	6567.0000	3615.0000	6.0000	8.0000	1.0000	1.0000	14.0000
4043.2300	0.0580	2709.0000	1051.0000	886.0000	6486.0000	3760.0000	4.0000	7.0000	2.0000	2.0000	11.0000
4049.9810	0.0585	2673.0000	1024.0000	880.0000	6536.0000	3697.0000	5.0000	9.0000	1.0000	2.0000	14.0000
4056.7410	0.0590	2635.0000	937.0000	859.0000	6486.0000	3572.0000	7.0000	7.0000	1.0000	1.0000	14.0000
4063.4400	0.0595	2720.0000	983.0000	876.0000	6438.0000	3703.0000	5.0000	13.0000	0.0000	2.0000	18.0000
4070.1730	0.0600	2687.0000	1075.0000	871.0000	6558.0000	3762.0000	9.0000	11.0000	4.0000	1.0000	20.0000
4076.8850	0.0605	2639.0000	947.0000	895.0000	6441.0000	3586.0000	7.0000	17.0000	4.0000	0.0000	24.0000
4083.6620	0.0610	2667.0000	1032.0000	907.0000	6557.0000	3699.0000	9.0000	7.0000	1.0000	0.0000	16.0000
4090.3530	0.0615	2663.0000	952.0000	882.0000	6523.0000	3615.0000	6.0000	12.0000	0.0000	0.0000	18.0000
4097.0910	0.0620	2659.0000	996.0000	923.0000	6591.0000	3655.0000	9.0000	13.0000	2.0000	1.0000	22.0000
4103.8180	0.0625	2781.0000	987.0000	892.0000	6685.0000	3768.0000	4.0000	11.0000	0.0000	0.0000	15.0000
4110.5050	0.0630	2697.0000	969.0000	926.0000	6549.0000	3666.0000	5.0000	17.0000	3.0000	2.0000	22.0000
4117.2100	0.0635	2749.0000	1008.0000	905.0000	6421.0000	3757.0000	9.0000	9.0000	2.0000	2.0000	18.0000
4123.9390	0.0640	2686.0000	998.0000	893.0000	6479.0000	3684.0000	3.0000	8.0000	0.0000	2.0000	11.0000
4130.6160	0.0645	2646.0000	1009.0000	876.0000	6458.0000	3655.0000	7.0000	12.0000	0.0000	2.0000	19.0000
4137.2890	0.0650	2665.0000	965.0000	830.0000	6594.0000	3630.0000	6.0000	10.0000	2.0000	0.0000	16.0000
4143.9550	0.0655	2567.0000	951.0000	876.0000	6453.0000	3518.0000	6.0000	11.0000	3.0000	2.0000	17.0000
4150.6730	0.0660	2768.0000	984.0000	897.0000	6518.0000	3752.0000	7.0000	12.0000	1.0000	2.0000	19.0000
4157.4070	0.0665	2586.0000	948.0000	870.0000	6561.0000	3534.0000	5.0000	9.0000	5.0000	1.0000	14.0000
4164.1330	0.0670	2682.0000	951.0000	832.0000	6567.0000	3633.0000	6.0000	16.0000	1.0000	1.0000	22.0000
4170.8170	0.0675	2655.0000	990.0000	855.0000	6411.0000	3645.0000	6.0000	15.0000	2.0000	4.0000	21.0000
4177.5020	0.0680	2575.0000	971.0000	896.0000	6484.0000	3546.0000	4.0000	7.0000	2.0000	1.0000	11.0000
4184.2300	0.0685	2718.0000	937.0000	837.0000	6419.0000	3655.0000	4.0000	12.0000	2.0000	1.0000	16.0000
4191.0150	0.0690	2701.0000	961.0000	910.0000	6494.0000	3662.0000	3.0000	9.0000	3.0000	1.0000	12.0000
4197.7340	0.0695	2620.0000	987.0000	887.0000	6372.0000	3607.0000	4.0000	11.0000	3.0000	2.0000	15.0000
4204.4790	0.0700	2653.0000	978.0000	854.0000	6483.0000	3631.0000	5.0000	9.0000	4.0000	0.0000	14.0000
4211.2180	0.0705	2716.0000	989.0000	900.0000	6557.0000	3705.0000	4.0000	7.0000	2.0000	1.0000	11.0000
4217.9320	0.0710	2712.0000	998.0000	863.0000	6409.0000	3710.0000	6.0000	10.0000	3.0000	2.0000	16.0000
4224.6500	0.0715	2587.0000	1012.0000	907.0000	6671.0000	3599.0000	7.0000	15.0000	0.0000	0.0000	22.0000
4231.3660	0.0720	2678.0000	987.0000	860.0000	6398.0000	3665.0000	7.0000	5.0000	8.0000	0.0000	12.0000
4238.1030	0.0725	2727.0000	1050.0000	892.0000	6409.0000	3777.0000	9.0000	13.0000	0.0000	1.0000	22.0000
4244.8160	0.0730	2610.0000	999.0000	899.0000	6462.0000	3609.0000	6.0000	17.0000	2.0000	1.0000	23.0000
4251.5000	0.0735	2724.0000	1045.0000	885.0000	6471.0000	3769.0000	9.0000	13.0000	1.0000	1.0000	22.0000
4258.2450	0.0740	2627.0000	987.0000	933.0000	6656.0000	3614.0000	5.0000	15.0000	2.0000	0.0000	20.0000
4264.9520	0.0745	2577.0000	964.0000	849.0000	6592.0000	3541.0000	3.0000	6.0000	3.0000	1.0000	9.0000
4271.6360	0.0750	2673.0000	980.0000	838.0000	6511.0000	3653.0000	5.0000	7.0000	3.0000	2.0000	12.0000
4278.3740	0.0755	2745.0000	1009.0000	902.0000	6515.0000	3754.0000	7.0000	8.0000	1.0000	2.0000	15.0000
4285.1170	0.0760	2621.0000	943.0000	897.0000	6594.0000	3564.0000	7.0000	7.0000	3.0000	0.0000	14.0000
4291.8800	0.0765	2723.0000	914.0000	875.0000	6549.0000	3637.0000	4.0000	6.0000	3.0000	2.0000	10.0000
4298.5880	0.0770	2663.0000	1023.0000	915.0000	6672.0000	3686.0000	4.0000	6.0000	3.0000	1.0000	10.0000
4305.3340	0.0775	2780.0000	946.0000	850.0000	6508.0000	3726.0000	6.0000	6.0000	4.0000	0.0000	12.0000
4312.1020	0.0780	2700.0000	976.0000	907.0000	6521.0000	3676.0000	8.0000	12.0000	0.0000	4.0000	20.0000
4318.8380	0.0785	2632.0000	907.0000	901.0000	6514.0000	3539.0000	3.0000	12.0000	3.0000	1.0000	15.0000
4325.5510	0.0790	2703.0000	1028.0000	860.0000	6546.0000	3731.0000	11.0000	10.0000	1.0000	3.0000	21.0000
4332.3140	0.0795	2639.0000	966.0000	880.0000	6504.0000	3605.0000	9.0000	12.0000	6.0000	0.0000	21.0000
4339.0360	0.0800	2797.0000	1034.0000	885.0000	6519.0000	3831.0000	9.0000	11.0000	2.0000	0.0000	20.0000
4345.8160	0.0805	2700.0000	964.0000	882.0000	6437.0000	3664.0000	5.0000	10.0000	4.0000	1.0000	15.0000
4352.6150	0.0810	2677.0000	964.0000	889.0000	6593.0000	3641.0000	7.0000	15.0000	1.0000	0.0000	22.0000
4359.3230	0.0815	2692.0000	999.0000	899.0000	6570.0000	3691.0000	9.0000	7.0000	2.0000	0.0000	16.0000
4366.0660	0.0820	2649.0000	977.0000	947.0000	6640.0000	3626.0000	5.0000	9.0000	1.0000	2.0000	14.0000
4372.7940	0.0825	2653.0000	951.0000	862.0000	6484.0000	3604.0000	9.0000	9.0000	2.0000	2.0000	18.0000
4379.5640	0.0830	2688.0000	998.0000	863.0000	6513.0000	3686.0000	3.0000	8.0000	0.0000	2.0000	11.0000
4386.3250	0.0835	2617.0000	900.0000	887.0000	6447.0000	3517.0000	6.0000	11.0000	0.0000	2.0000	17.0000
4393.0640	0.0840	2688.0000	963.0000	891.0000	6499.0000	3651.0000	10.0000	11.0000	0.0000	1.0000	21.0000
4399.8320	0.0845	2632.0000	973.0000	923.0000	6462.0000	3605.0000	4.0000	6.0000	5.0000	1.0000	10.0000
4406.5550	0.0850	2638.0000	953.0000	910.0000	6609.0000	3591.0000	8.0000	10.0000	0.0000	1.0000	18.0000
4413.2720	0.0855	2563.0000	982.0000	870.0000	6413.0000	3545.0000	6.0000	10.0000	6.0000	2.0000	16.0000
4420.0300	0.0860	2731.0000	952.0000	886.0000	6592.0000	3683.0000	3.0000	13.0000	3.0000	3.0000	16.0000
4426.7740	0.0865	2694.0000	926.0000	867.0000	6445.0000	3620.0000	5.0000	11.0000	1.0000	1.0000	16.0000
4433.4960	0.0870	2547.0000	958.0000	846.0000	6569.0000	3505.0000	5.0000	2.0000	1.0000	1.0000	7.0000
4440.2320	0.0875	2637.0000	973.0000	883.0000	6568.0000	3610.0000	2.0000	10.0000	0.0000	2.0000	12.0000
4446.9960	0.0880	2629.0000	1061.0000	866.0000	6550.0000	3690.0000	7.0000	5.0000	1.0000	0.0000	12.0000
4453.7590	0.0885	2754.0000	959.0000	917.0000	6575.0000	3713.0000	1.0000	6.0000	0.0000	1.0000	7.0000
4460.5170	0.0890	2688.0000	995.0000	888.0000	6509.0000	3683.0000	9.0000	5.0000	0.0000	3.0000	14.0000
4467.2320	0.0895	2746.0000	984.0000	836.0000	6502.0000	3730.0000	3.0000	14.0000	7.0000	1.0000	17.0000
4473.9520	0.0900	2639.0000	1089.0000	802.0000	6470.0000	3728.0000	8.0000	13.0000	4.0000	1.0000	21.0000
4480.6880	0.0905	2606.0000	978.0000	898.0000	6552.0000	3584.0000	5.0000	12.0000	3.0000	0.0000	17.0000
4487.4190	0.0910	2715.0000	930.0000	900.0000	6578.0000	3645.0000	4.0000	5.0000	2.0000	2.0000	9.0000
4494.1240	0.0915	2613.0000	1016.0000	897.0000	6559.0000	3629.0000	6.0000	4.0000	1.0000	2.0000	10.0000
4500.8650	0.0920	2693.0000	1023.0000	870.0000	6596.0000	3716.0000	8.0000	16.0000	7.0000	1.0000	24.0000
4507.6050	0.0925	2693.0000	952.0000	897.0000	6483.0000	3645.0000	3.0000	5.0000	3.0000	3.0000	8.0000
4514.5460	0.0930	2694.0000	1042.0000	893.0000	6407.0000	3736.0000	5.0000	9.0000	3.0000	0.0000	14.0000
4521.2540	0.0935	2736.0000	1015.0000	868.0000	6776.0000	3751.0000	5.0000	9.0000	1.0000	2.0000	14.0000
4527.9930	0.0940	2733.0000	991.0000	891.0000	6470.0000	3724.0000	9.0000	10.0000	2.0000	2.0000	19.0000
4534.7450	0.0945	2617.0000	991.0000	871.0000	6477.0000	3608.0000	8.0000	7.0000	4.0000	4.0000	15.0000
4541.4810	0.0950	2656.0000	975.0000	863.0000	6474.0000	3631.0000	9.0000	12.0000	1.0000	1.0000	21.0000
4548.2510	0.0955	2619.0000	990.0000	926.0000	6469.0000	3609.0000	7.0000	6.0000	2.0000	1.0000	13.0000
4554.9790	0.0960	2627.0000	1019.0000	918.0000	6540.0000	3646.0000	7.0000	10.0000	3.0000	2.0000	17.0000
4561.7550	0.0965	2791.0000	965.0000	853.0000	6413.0000	3756.0000	8.0000	10.0000	1.0000	4.0000	18.0000
4568.5020	0.0970	2616.0000	999.0000	850.0000	6548.0000	3615.0000	4.0000	7.0000	2.0000	1.0000	11.0000
4575.2820	0.0975	2697.0000	950.0000	924.0000	6577.0000	3647.0000	4.0000	12.0000	0.0000	1.0000	16.0000
4582.0110	0.0980	2644.0000	938.0000	843.0000	6492.0000	3582.0000	5.0000	8.0000	0.0000	6.0000	13.0000
4588.7580	0.0985	2619.0000	1010.0000	916.0000	6636.0000	3629.0000	6.0000	17.0000	3.0000	0.0000	23.0000
4595.4980	0.0990	2762.0000	926.0000	887.0000	6708.0000	3688.0000	10.0000	13.0000	2.0000	2.0000	23.0000
4602.2920	0.0995	2671.0000	1045.0000	870.0000	6398.0000	3716.0000	6.0000	13.0000	6.0000	3.0000	19.0000
