Time	HWP_b1	QWP_b1	HWP_b2	QWP_b2	Single Count 1	Single Count 2	Single Count 3	Single Count 4	Sum	Coincidence Count 1	Coincidence Count 2	Coincidence Count 3	Coincidence Count 4	Coincidence Sum
6702.3150	45.0001	-0.0001	-0.0014	-0.0032	683.0000	5476.0000	2761.0000	2454.0000	5476.0000	1.0000	0.0000	39.0000	61.0000	101.0000
6712.6510	45.0001	-0.0001	-0.0014	-0.0032	719.0000	5610.0000	2773.0000	2479.0000	5610.0000	6.0000	1.0000	43.0000	89.0000	139.0000
6722.9880	45.0001	-0.0001	-0.0014	-0.0032	709.0000	5628.0000	2664.0000	2387.0000	5628.0000	7.0000	0.0000	52.0000	63.0000	122.0000
6757.6350	45.0001	-0.0001	22.4988	-0.0032	666.0000	5642.0000	2362.0000	3032.0000	5642.0000	2.0000	3.0000	45.0000	75.0000	125.0000
6768.0510	45.0001	-0.0001	22.4988	-0.0032	738.0000	5539.0000	2286.0000	3035.0000	5539.0000	0.0000	4.0000	43.0000	88.0000	135.0000
6778.4790	45.0001	-0.0001	22.4988	-0.0032	693.0000	5566.0000	2326.0000	2997.0000	5566.0000	2.0000	2.0000	45.0000	99.0000	148.0000
6823.8720	45.0001	-0.0001	-0.0014	134.9958	672.0000	5578.0000	439.0000	5157.0000	5578.0000	1.0000	3.0000	0.0000	157.0000	161.0000
6834.2450	45.0001	-0.0001	-0.0014	134.9958	647.0000	5525.0000	454.0000	5182.0000	5525.0000	0.0000	2.0000	0.0000	155.0000	157.0000
6844.6730	45.0001	-0.0001	-0.0014	134.9958	734.0000	5448.0000	476.0000	5257.0000	5448.0000	0.0000	0.0000	0.0000	138.0000	138.0000
