7808.0670	0.0001	-45.0016	-0.0009	134.9958	699.0000	5597.0000	2534.0000	2674.0000	5597.0000	4.0000	0.0000	34.0000	68.0000	106.0000
7818.5040	0.0001	-45.0016	-0.0009	134.9958	747.0000	5597.0000	2640.0000	2720.0000	5597.0000	4.0000	1.0000	43.0000	83.0000	131.0000
7828.9300	0.0001	-45.0016	-0.0009	134.9958	758.0000	5593.0000	2641.0000	2706.0000	5593.0000	5.0000	0.0000	34.0000	89.0000	128.0000
