29	0	10	90	156	
29	0	10	90	156	
34	6	13	72	187	
100	7	15	105	144	
101	0	11	101	138	
115	0	2	201	222	
127	0	10	151	211	
145	15	3	145	195	
145	15	3	145	195	
145	15	3	145	195	
145	15	3	145	195	
187	0	2	201	222	
187	0	2	201	222	
187	0	2	201	222	
216	6	2	223	250	
216	6	2	223	250	
222	0	12	242	308	
222	0	12	242	308	
222	0	12	242	308	
224	0	6	242	275	
237	0	1	260	278	
313	17	11	337	370	
313	17	11	337	370	
313	17	11	337	370	
324	12	20	327	366	
355	0	15	392	452	
355	0	15	392	452	
370	0	19	392	479	
370	0	19	392	479	
386	0	11	422	470	
431	7	10	442	466	
431	7	10	442	466	
464	0	8	511	565	
489	0	1	511	601	
500	0	7	511	547	
500	0	7	511	547	
503	15	5	507	552	
503	15	5	507	552	
503	15	5	507	552	
517	17	14	575	599	
559	0	4	597	624	
582	12	13	620	638	
639	0	6	651	684	
639	0	6	651	684	
656	0	16	656	729	
677	0	4	702	729	
677	0	4	702	729	
749	0	11	778	886	
755	12	7	756	786	
764	0	7	778	814	
768	0	18	778	953	
830	14	6	856	983	
830	14	6	856	983	
834	0	7	834	858	
834	0	7	834	858	
834	0	7	834	858	
834	0	7	834	858	
840	0	14	855	963	
840	0	14	855	963	
843	0	20	855	930	
843	0	20	855	930	
843	0	20	855	930	
843	0	20	855	930	
884	0	2	950	1010	
884	0	2	950	1010	
908	16	18	932	953	
908	16	18	932	953	
908	16	18	932	953	
932	0	12	1020	1086	
1008	0	4	1020	1047	
1098	0	17	1104	1170	
1158	0	6	1182	1215	
1158	0	6	1182	1215	
1158	0	6	1182	1215	
1169	0	19	1182	1284	
1177	9	7	1180	1201	
1177	9	7	1180	1201	
1222	0	2	1238	1259	
1222	0	2	1238	1259	
1246	0	5	1246	1283	
1251	2	15	1259	1328	
1274	12	5	1317	1353	
1309	0	7	1371	1407	
1448	0	19	1448	1706	
1458	16	3	1466	1520	
1462	0	18	1468	1537	
1462	0	18	1468	1537	
1462	0	18	1468	1537	
1462	0	18	1468	1537	
1467	0	10	1516	1561	
1467	0	10	1516	1561	
1493	0	17	1516	1684	
1568	0	17	1591	1657	
1571	11	15	1574	1601	
1571	11	15	1574	1601	
1571	11	15	1574	1601	
1576	0	8	1591	1699	
1580	15	3	1580	1628	
1701	0	3	1721	1745	
1701	0	3	1721	1745	
1726	8	3	1732	1762	
1755	0	20	1769	1844	
1755	0	20	1769	1844	
1769	0	16	1777	1840	
1837	0	15	1883	1943	
1844	0	18	1883	2081	
1897	0	5	1957	1987	
1914	9	1	1976	2015	
1914	9	1	1976	2015	
1926	0	4	1957	2005	
1988	0	4	1995	2022	
1999	0	5	1999	2040	
1999	0	5	1999	2040	
2093	0	9	2103	2160	
2111	0	8	2111	2142	
2111	0	8	2111	2142	
2111	0	8	2111	2142	
2144	18	3	2193	2253	
2151	0	5	2157	2187	
2151	0	5	2157	2187	
2323	19	13	2331	2364	
2388	0	16	2429	2492	
2447	0	12	2447	2489	
2447	0	12	2447	2489	
2447	0	12	2447	2489	
2447	0	12	2447	2489	
2481	2	20	2487	2556	
2481	2	20	2487	2556	
2481	2	20	2487	2556	
2513	14	4	2515	2560	
2548	0	15	2575	2635	
2566	7	9	2577	2598	
2654	0	7	2655	2691	
2709	8	19	2717	2765	
2763	9	1	2780	2819	
2813	0	3	2833	2857	
2879	0	3	2881	2905	
2891	12	14	2926	2947	
2891	12	14	2926	2947	
2948	0	7	2978	3014	
3002	0	7	3002	3037	
3002	0	7	3002	3037	
3002	0	7	3002	3037	
3028	18	7	3062	3110	
3028	18	7	3062	3110	
3064	0	15	3098	3173	
3096	0	14	3098	3155	
3109	0	6	3109	3132	
3132	0	6	3146	3194	
3169	13	4	3194	3236	
3169	13	4	3194	3236	
3247	20	1	3270	3342	
3260	0	12	3268	3481	
3291	0	5	3301	3331	
3291	0	5	3301	3331	
3291	0	5	3301	3331	
3294	0	6	3301	3349	
3303	0	5	3303	3331	
3358	0	15	3358	3406	
3365	2	11	3372	3414	
3375	0	3	3466	3490	
3375	0	8	3407	3446	
3375	0	8	3407	3446	
3375	0	8	3407	3446	
3387	11	4	3406	3442	
3459	0	13	3466	3535	
3459	0	13	3466	3535	
3505	0	2	3512	3533	
3598	0	14	3604	3676	
3611	0	2	3611	3625	
3670	15	18	3685	3709	
3703	15	13	3704	3725	
3703	15	13	3704	3725	
3707	11	6	3746	3776	
3775	0	6	3795	3828	
3775	0	6	3795	3828	
3790	0	18	3795	3894	
3807	0	12	3807	3861	
3885	0	6	3912	3945	
3894	0	15	3912	3972	
3914	0	17	3914	3993	
3998	0	7	3999	4035	
3998	0	7	3999	4035	
4019	16	6	4029	4074	
4073	0	10	4098	4158	
4073	0	10	4098	4158	
4084	0	18	4105	4197	
4086	1	11	4100	4145	
4091	0	9	4098	4140	
4105	0	9	4105	4140	
4209	17	12	4215	4245	
4225	0	10	4274	4316	
4243	0	12	4271	4337	
4274	1	3	4350	4371	
4287	0	5	4301	4331	
4312	0	2	4312	4355	
4340	7	1	4394	4442	
4349	16	15	4490	4508	
4357	2	5	4357	4379	
4372	13	9	4416	4443	
4486	0	20	4514	4589	
4486	0	20	4514	4589	
4538	0	20	4572	4662	
4544	19	20	4547	4565	
4567	0	20	4572	4662	
4567	0	16	4572	4635	
4702	6	8	4719	4740	
4705	0	6	4718	4751	
4762	0	15	4766	4826	
4762	0	15	4766	4826	
4788	0	2	4788	4799	
4877	11	7	4880	4907	
4938	0	19	4964	5036	
5035	0	7	5038	5074	
5039	0	20	5039	5128	
5039	0	20	5039	5128	
5056	0	3	5056	5077	
5056	0	3	5056	5077	
5095	0	16	5101	5194	
5108	16	19	5132	5156	
5115	0	15	5116	5176	
5151	0	19	5247	5319	
5165	8	2	5204	5294	
5239	0	19	5247	5319	
5246	7	5	5251	5272	
5246	7	5	5251	5272	
5246	7	5	5251	5272	
5297	0	9	5315	5357	
5347	0	4	5391	5418	
5362	0	15	5391	5466	
5623	0	3	5627	5651	
5631	14	7	5654	5690	
5672	0	4	5689	5716	
5672	0	4	5689	5716	
5707	0	3	5726	5750	
5707	0	3	5726	5750	
5761	0	1	5762	5780	
5882	0	17	5882	5936	
5937	12	4	5940	5979	
5941	9	17	5975	6014	
5947	0	17	5979	6045	
5947	0	17	5979	6045	
6047	0	18	6062	6146	
6058	0	4	6062	6089	
6235	0	14	6242	6314	
6235	0	14	6242	6314	
6251	0	3	6251	6266	
6251	0	3	6251	6266	
6365	11	18	6366	6402	
6411	14	16	6413	6434	
6588	0	13	6638	6692	
6662	0	11	6662	6710	
6713	0	16	6735	6798	
6713	0	16	6735	6798	
6794	0	3	6794	6817	
6831	0	10	6841	6886	
6885	0	20	6885	6955	
6906	0	14	6943	7030	
6909	0	3	6943	6967	
6909	0	3	6943	6967	
6926	3	0	6942	6966	
6954	0	6	6954	6991	
6954	0	6	6954	6991	
6954	0	6	6954	6991	
6976	10	12	6977	6998	
7111	10	2	7116	7155	
7111	10	2	7116	7155	
7197	0	14	7223	7280	
7197	0	14	7223	7280	
7197	0	14	7223	7280	
7211	0	7	7225	7309	
7237	0	3	7237	7249	
7257	0	7	7273	7309	
7257	0	7	7273	7309	
7335	0	9	7337	7394	
7335	0	9	7337	7394	
7350	0	2	7350	7358	
7402	0	16	7416	7479	
7488	0	10	7495	7540	
7504	0	12	7504	7561	
7559	0	7	7566	7602	
7559	0	7	7566	7602	
7566	0	18	7566	7650	
7586	0	18	7607	7706	
7586	0	18	7607	7706	
7604	0	9	7607	7649	
7604	0	9	7607	7649	
7615	0	16	7615	7685	
7615	0	16	7615	7685	
7652	0	8	7656	7695	
7683	16	1	7697	7757	
7745	0	14	7749	7806	
7745	0	14	7749	7806	
7748	6	16	7780	7840	
7751	0	16	7751	7827	
7846	0	10	7846	7881	
7846	0	10	7846	7881	
7886	4	8	7891	7918	
7917	0	10	7932	7977	
7917	0	10	7932	7977	
7962	0	10	7964	8009	
8030	0	20	8030	8092	
8030	0	20	8030	8092	
8128	0	19	8150	8222	
8128	0	19	8150	8222	
8128	0	19	8150	8222	
8204	0	13	8204	8273	
8212	0	9	8212	8246	
8223	0	17	8258	8324	
8223	0	17	8258	8324	
8223	0	17	8258	8324	
8278	0	3	8282	8306	
8349	0	1	8366	8384	
8372	0	17	8372	8447	
8539	5	4	8543	8561	
8539	5	4	8543	8561	
8567	9	1	8587	8626	
8672	0	10	8681	8726	
8678	19	20	8710	8728	
8804	0	6	8813	8846	
8942	0	12	8945	9011	
8942	0	12	8945	9011	
8946	0	11	8946	8993	
8946	0	11	8946	8993	
8946	0	11	8946	8993	
8946	0	11	8946	8993	
8946	0	11	8968	9108	
8985	2	12	8992	9052	
8994	0	9	9045	9087	
9013	5	20	9047	9107	
9013	5	20	9047	9107	
9094	3	1	9109	9130	
9094	3	1	9109	9130	
9094	3	1	9109	9130	
9146	0	20	9152	9257	
9148	0	6	9152	9185	
9199	13	10	9204	9228	
9203	0	19	9258	9345	
9244	0	1	9258	9276	
9244	0	1	9258	9276	
9300	0	10	9313	9358	
9352	0	3	9362	9386	
9352	0	3	9362	9386	
9382	0	13	9403	9457	
9420	0	12	9436	9487	
9420	0	12	9436	9487	
9488	2	12	9507	9552	
9508	0	2	9521	9542	
9668	0	8	9670	9709	
9719	6	3	9720	9744	
9726	0	9	9748	9790	
9726	0	9	9748	9790	
9727	0	14	9768	9825	
9748	0	16	9748	9826	
9850	11	6	9853	9883	
9913	0	9	9935	9977	
9981	0	14	9985	10042	
10020	0	13	10039	10093	
10256	0	11	10261	10309	
10293	0	9	10309	10384	
10294	0	12	10309	10360	
10389	0	2	10395	10416	
10616	0	10	10616	10654	
10741	4	3	10756	10774	
10780	0	14	10798	10885	
10781	0	7	10798	10849	
10801	0	4	10801	10825	
10818	0	7	10823	10859	
10825	0	7	10825	10859	
10850	0	16	10861	10924	
10850	0	16	10861	10924	
11046	0	18	11046	11109	
11046	0	18	11046	11109	
11046	0	18	11046	11109	
11112	0	17	11131	11197	
11254	0	12	11263	11314	
11254	0	12	11263	11314	
11257	16	9	11262	11298	
11340	7	1	11344	11377	
11472	0	4	11478	11505	
11513	13	3	11546	11591	
11513	13	3	11546	11591	
11535	0	8	11547	11586	
11969	0	18	11970	12039	
12151	12	15	12159	12183	
12151	12	15	12159	12183	
12213	0	11	12252	12300	
12305	0	8	12315	12354	
12375	0	1	12375	12381	
12375	0	1	12375	12381	
12375	0	1	12375	12381	
12375	0	1	12375	12381	
12375	0	1	12375	12381	
12375	0	1	12375	12381	
12405	5	4	12419	12437	
12420	0	6	12425	12458	
12876	0	12	12877	12928	
12876	0	12	12877	12928	
12943	10	2	12948	12987	
13017	0	10	13032	13077	
13025	0	9	13032	13074	
13025	0	9	13032	13074	
13025	0	9	13032	13074	
13025	0	9	13032	13074	
13127	0	2	13127	13137	
13138	0	1	13139	13157	
13138	0	1	13139	13157	
13138	0	1	13139	13157	
13262	0	2	13262	13270	
13262	0	2	13262	13270	
13262	0	2	13262	13270	
13421	20	14	13481	13514	
13485	0	16	13529	13592	
13602	0	13	13602	13653	
13602	0	13	13602	13653	
13605	0	15	13605	13674	
13605	0	15	13605	13674	
13605	0	15	13605	13674	
13687	0	10	13695	13740	
13821	8	6	13824	13845	
13875	9	8	13884	13902	
13935	1	16	13958	14018	
14251	0	8	14268	14307	
14281	7	14	14286	14322	
14281	7	14	14286	14322	
14384	0	6	14414	14447	
14384	0	6	14414	14447	
14664	0	10	14671	14716	
14664	0	10	14671	14716	
14746	0	12	14756	14807	
14839	5	11	14843	14876	
14946	0	11	14969	15017	
15008	19	8	15067	15115	
15036	0	11	15059	15107	
15097	0	14	15106	15163	
15097	0	14	15106	15163	
15426	0	7	15442	15478	
16007	10	3	16017	16053	
16007	10	3	16017	16053	
16374	3	15	16377	16428	
16374	3	15	16377	16428	
16721	0	20	16738	16813	
16721	0	20	16738	16813	
16988	3	12	16998	17040	
17159	0	13	17169	17223	
17159	0	13	17169	17223	
17430	0	15	17430	17482	
18367	0	2	18368	18389	
18447	0	3	18447	18461	
19101	0	19	19102	19174	
19135	0	16	19146	19209	
19135	0	16	19146	19209	
19339	0	12	19363	19414	
19662	0	16	19669	19732	
19662	0	16	19669	19732	
20228	0	2	20247	20268	
20950	0	16	20951	21014	
20992	0	8	21014	21053	
21035	9	0	21043	21085	
21136	1	7	21143	21176	
21136	1	7	21143	21176	
21140	13	0	21154	21208	
21307	15	0	21340	21400	
21307	15	0	21340	21400	
21373	3	0	21380	21404	
21373	3	0	21380	21404	
21373	3	0	21380	21404	
21373	3	0	21380	21404	
21616	16	0	21658	21721	
21734	9	0	21736	21778	
21734	9	0	21736	21778	
22055	17	0	22096	22162	
22069	7	0	22075	22111	
22138	1	0	22149	22167	
22219	5	0	22233	22263	
22219	5	0	22233	22263	
22219	5	0	22233	22263	
22704	2	0	22714	22735	
22704	2	0	22714	22735	
22829	15	14	22879	22897	
23138	3	0	23172	23196	
23138	3	0	23172	23196	
23304	15	0	23352	23412	
23304	15	0	23352	23412	
23398	14	5	23406	23448	
23487	8	0	23502	23541	
23487	8	0	23502	23541	
23526	14	0	23550	23607	
23555	9	0	23583	23625	
23652	20	0	23697	23772	
23680	11	0	23688	23765	
23718	8	0	23726	23765	
23718	8	0	23726	23765	
23930	16	14	23984	24005	
23930	16	14	23984	24005	
24105	11	0	24117	24165	
24116	3	4	24147	24165	
24140	20	0	24179	24254	
24140	20	0	24179	24254	
24140	20	0	24179	24254	
24193	8	3	24196	24226	
24286	15	16	24313	24331	
24286	15	16	24313	24331	
24371	2	0	24418	24439	
24396	18	0	24417	24486	
24436	3	0	24454	24478	
24508	1	0	24509	24527	
24534	20	0	24595	24670	
24654	16	0	24655	24718	
24716	19	0	24742	24814	
24754	19	0	24754	24814	
24801	18	0	24808	24877	
24887	14	0	24889	24946	
24897	17	0	24901	24967	
24897	17	0	24901	24967	
24897	17	0	24901	24967	
24897	17	0	24901	24967	
25007	8	0	25010	25049	
25015	3	0	25016	25040	
25015	3	0	25016	25040	
25077	14	0	25112	25169	
25104	5	0	25110	25140	
25104	5	0	25110	25140	
25143	15	0	25176	25236	
25154	0	20	25155	25230	
25242	17	0	25249	25315	
25242	17	0	25249	25315	
25303	4	19	25304	25364	
25318	14	0	25330	25387	
25516	19	17	25519	25540	
25516	19	17	25519	25540	
25555	0	4	25623	25650	
25598	6	12	25606	25639	
25612	1	0	25624	25642	
25652	20	16	25707	25734	
25670	17	0	25673	25739	
25670	17	0	25673	25739	
25670	17	0	25673	25739	
25722	17	0	25723	25789	
25752	7	0	25776	25812	
25773	1	0	25788	25806	
25816	0	14	25816	25863	
25816	0	14	25816	25863	
25816	0	14	25816	25863	
25825	4	0	25831	25858	
25825	4	0	25831	25858	
25852	19	1	25884	25987	
25861	0	18	25861	26021	
25874	9	0	25902	25944	
25906	10	0	25935	25980	
25919	3	4	26072	26090	
25933	13	0	25936	26005	
26037	2	0	26050	26071	
26072	5	0	26073	26103	
26072	5	0	26073	26103	
26194	19	14	26242	26272	
26194	19	14	26242	26272	
26217	11	14	26225	26249	
26287	13	1	26290	26341	
26327	4	0	26341	26368	
26339	16	0	26375	26438	
26432	16	6	26446	26491	
26432	16	6	26446	26491	
26464	1	0	26474	26492	
26464	1	0	26474	26492	
26536	2	10	26539	26578	
26536	2	10	26539	26578	
26536	2	10	26539	26578	
26551	1	0	26557	26575	
26551	1	0	26557	26575	
26555	19	11	26584	26623	
26555	19	11	26584	26623	
26556	11	0	26594	26642	
26556	11	0	26594	26642	
26601	8	11	26614	26638	
26601	8	11	26614	26638	
26621	11	10	26623	26641	
26621	11	10	26623	26641	
26638	7	0	26665	26701	
26660	1	0	26662	26680	
26698	6	0	26709	26742	
26710	17	0	26745	26826	
26710	17	0	26745	26826	
26723	11	1	26743	26845	
26729	17	9	26745	26784	
26745	9	10	26764	26782	
26745	9	10	26764	26782	
26783	5	12	26811	26847	
26787	6	0	26791	26824	
26787	6	0	26791	26824	
26797	20	0	26916	26991	
26876	10	0	26884	26929	
26876	10	0	26884	26929	
26896	20	0	26916	26991	
26896	20	0	26916	26991	
26951	10	0	26961	27006	
26959	12	15	26967	26991	
27019	16	1	27037	27097	
27019	16	1	27037	27097	
27020	15	1	27035	27092	
27020	15	1	27035	27092	
27042	5	0	27051	27081	
27042	5	0	27051	27081	
27048	7	0	27059	27124	
27083	6	0	27091	27124	
27083	6	0	27091	27124	
27083	6	0	27091	27124	
27084	16	1	27189	27249	
27105	10	0	27139	27199	
27105	10	0	27139	27199	
27114	18	14	27193	27220	
27114	18	14	27193	27220	
27155	8	0	27160	27199	
27155	8	0	27160	27199	
27234	14	10	27235	27262	
27240	1	14	27249	27303	
27240	1	14	27249	27303	
27367	1	0	27367	27379	
27406	18	0	27523	27592	
27408	15	19	27502	27558	
27408	15	19	27502	27558	
27414	9	5	27528	27666	
27418	1	0	27428	27467	
27424	12	4	27475	27693	
27425	2	0	27446	27467	
27427	20	0	27591	27696	
27475	6	13	27483	27555	
27483	20	13	27591	27627	
27483	20	13	27591	27627	
27502	17	0	27609	27675	
27527	18	0	27527	27592	
27527	18	0	27527	27592	
27527	18	0	27527	27592	
27550	13	0	27555	27696	
27600	1	0	27648	27666	
27600	1	0	27648	27666	
27631	16	0	27655	27718	
27660	7	0	27711	27747	
27724	0	6	27724	27751	
27724	0	6	27724	27751	
27758	12	14	27786	27807	
27765	19	0	27805	27892	
27821	17	0	27831	27897	
27838	14	0	27845	27902	
27855	4	0	27865	27892	
27855	4	0	27865	27892	
27864	0	3	27892	27916	
27916	16	0	27960	28023	
27916	16	0	27960	28023	
27969	1	8	27972	28008	
27994	14	0	28024	28106	
28040	15	0	28046	28106	
28040	15	0	28046	28106	
28061	16	0	28083	28161	
28079	13	0	28085	28139	
28079	13	0	28085	28139	
28100	15	0	28101	28161	
28100	15	0	28101	28161	
28123	10	0	28125	28170	
28123	10	0	28125	28170	
28147	0	7	28147	28175	
28178	3	0	28180	28204	
28178	3	0	28180	28204	
28178	3	0	28180	28204	
28233	14	1	28275	28409	
28271	8	0	28285	28324	
28281	8	17	28281	28323	
28281	8	17	28281	28323	
28292	0	3	28298	28322	
28303	16	8	28341	28380	
28355	11	17	28372	28420	
28355	11	17	28372	28420	
28355	11	17	28372	28420	
28355	11	17	28372	28420	
28362	14	10	28396	28456	
28384	6	13	28397	28433	
28400	17	0	28420	28501	
28400	17	0	28420	28501	
28444	16	0	28457	28520	
28444	16	0	28457	28520	
28472	17	0	28528	28594	
28497	19	0	28507	28594	
28497	19	0	28507	28594	
28509	6	0	28518	28551	
28518	14	10	28558	28585	
28518	14	10	28558	28585	
28518	14	10	28558	28585	
28522	20	0	28630	28705	
28569	11	0	28572	28620	
28586	3	9	28599	28632	
28675	3	0	28695	28719	
28713	14	0	28726	28783	
28713	20	13	28824	28860	
28713	20	13	28824	28860	
28719	4	0	28722	28749	
28725	14	0	28726	28783	
28725	14	0	28726	28783	
28734	6	16	28752	28797	
28734	6	16	28752	28797	
28752	9	0	28780	28822	
28754	12	0	28756	28822	
28780	9	0	28780	28822	
28781	14	0	28818	28890	
28803	5	0	28813	28843	
28803	5	0	28813	28843	
28834	3	2	28846	28864	
28872	7	14	28879	28915	
28913	18	2	28942	29020	
28913	18	2	28942	29020	
28929	7	0	28931	28967	
29014	12	0	29018	29069	
29084	11	0	29087	29135	
29138	7	0	29144	29180	
29151	13	0	29177	29231	
29151	13	0	29177	29231	
29187	9	0	29196	29238	
29204	15	0	29225	29285	
29256	3	0	29259	29283	
29269	8	0	29280	29319	
29307	9	0	29312	29354	
29325	14	5	29342	29384	
29325	14	5	29342	29384	
29328	15	0	29396	29456	
29364	18	0	29387	29456	
29364	18	0	29387	29456	
29364	18	0	29387	29456	
29364	18	0	29387	29456	
29416	14	19	29423	29453	
29480	19	0	29494	29566	
29480	19	0	29494	29566	
29583	15	0	29613	29673	
29583	15	0	29613	29673	
29635	14	0	29644	29701	
29638	0	3	29701	29725	
29648	6	5	29663	29681	
29650	13	14	29674	29692	
29650	13	14	29674	29692	
29718	8	0	29725	29764	
29718	8	0	29725	29764	
29757	0	18	29757	29818	
29757	0	18	29757	29818	
29809	20	5	29839	29947	
29837	10	12	29848	29869	
29840	16	19	29879	29890	
29879	13	0	29887	29941	
29929	12	0	29943	29994	
29929	12	0	29943	29994	
29977	12	0	29988	30039	
30023	18	0	30046	30115	
30023	18	0	30046	30115	
30023	18	0	30046	30115	
30034	4	7	30043	30067	
30102	19	0	30120	30207	
30113	16	0	30117	30180	
30124	0	8	30124	30154	
30153	7	4	30168	30192	
30153	7	4	30168	30192	
30157	9	0	30165	30207	
30164	1	10	30198	30327	
30187	1	6	30198	30228	
30197	8	0	30219	30258	
30197	8	0	30219	30258	
30221	12	15	30239	30263	
30251	4	0	30255	30282	
30356	6	0	30360	30393	
30356	6	0	30360	30393	
30368	11	0	30386	30434	
30407	3	7	30417	30444	
30423	12	0	30437	30511	
30423	12	0	30437	30511	
30455	13	16	30477	30501	
30455	13	16	30477	30501	
30482	3	0	30487	30511	
30482	3	0	30487	30511	
30482	3	0	30487	30511	
30482	3	0	30487	30511	
30482	3	0	30504	30528	
30560	16	0	30574	30637	
30583	4	14	30591	30636	
30670	20	0	30697	30787	
30691	8	0	30693	30732	
30695	6	0	30713	30746	
30721	13	0	30733	30787	
30721	13	0	30733	30787	
30726	18	0	30773	30842	
30851	20	0	30877	30952	
30868	4	0	30869	30896	
30909	6	0	30918	30951	
30909	6	0	30918	30951	
30976	19	0	31023	31095	
31024	14	0	31029	31086	
31024	14	0	31029	31086	
31117	3	0	31119	31143	
31117	3	0	31119	31143	
31117	3	0	31119	31143	
31139	6	5	31150	31168	
31139	6	5	31150	31168	
31139	6	5	31150	31168	
31139	6	5	31150	31168	
31183	14	17	31215	31239	
31198	7	0	31200	31236	
31202	12	0	31214	31265	
31214	13	0	31236	31290	
31214	13	0	31236	31290	
31214	13	0	31236	31290	
31257	6	0	31269	31302	
31313	20	0	31368	31443	
31322	2	0	31323	31344	
31336	14	0	31339	31411	
31344	20	0	31368	31443	
31350	7	0	31359	31395	
31350	7	0	31359	31395	
31366	8	0	31372	31411	
31366	8	0	31372	31411	
31366	8	0	31372	31411	
31450	18	0	31480	31549	
31483	7	0	31489	31525	
31499	15	0	31507	31567	
31539	8	0	31541	31580	
31539	8	0	31541	31580	
31539	8	0	31541	31580	
31539	8	0	31541	31580	
31586	12	0	31600	31666	
31586	12	0	31600	31666	
31607	10	0	31621	31666	
31607	10	0	31621	31666	
31608	20	8	31655	31706	
31608	20	8	31655	31706	
31610	15	0	31645	31705	
31610	15	0	31645	31705	
31720	20	0	31757	31832	
31727	20	0	31757	31832	
31727	20	0	31757	31832	
31734	19	16	31786	31810	
31748	0	12	31748	31795	
31748	0	12	31748	31795	
31760	5	12	31878	31959	
31769	19	0	31786	31944	
31808	20	0	31854	31944	
31811	15	0	31823	31883	
31825	16	13	31827	31890	
31874	1	0	31921	31939	
31888	19	13	31995	32028	
31924	15	0	31943	32003	
32001	5	16	32037	32124	
32010	0	13	32010	32057	
32010	0	13	32010	32057	
32010	0	13	32010	32057	
32052	12	6	32079	32112	
32055	1	0	32062	32086	
32079	20	0	32097	32187	
32181	2	0	32182	32203	
32334	11	0	32377	32425	
32359	12	0	32367	32418	
32359	12	0	32367	32418	
32377	3	0	32379	32403	
32377	3	0	32379	32403	
32416	1	0	32421	32439	
32466	18	0	32523	32607	
32506	7	0	32515	32551	
32506	7	0	32515	32551	
32528	13	0	32552	32606	
32528	13	0	32552	32606	
32552	8	0	32568	32607	
32552	8	0	32568	32607	
32563	4	18	32580	32637	
32597	5	0	32615	32645	
32641	13	0	32676	32730	
32641	13	0	32676	32730	
32652	16	0	32658	32721	
32737	3	0	32744	32768	
32758	13	0	32790	32844	
32758	13	0	32790	32844	
32759	20	14	32786	32819	
32759	20	14	32786	32819	
32938	1	0	32963	32981	
33146	18	17	33201	33219	
33169	10	0	33175	33220	
33169	10	0	33175	33220	
33285	9	0	33295	33337	
33352	13	0	33376	33430	
33352	13	0	33376	33430	
33352	13	0	33376	33430	
33352	13	0	33376	33430	
33468	2	6	33472	33499	
33538	6	0	33538	33562	
33552	16	0	33596	33659	
33552	16	0	33596	33659	
33555	8	18	33574	33619	
33604	2	10	33641	33680	
33709	14	9	33737	33767	
33709	14	9	33737	33767	
33789	18	0	33804	33873	
33789	18	0	33804	33873	
33789	18	0	33804	33873	
33789	18	0	33804	33873	
33799	12	0	33810	33861	
33799	12	0	33810	33861	
33799	12	0	33810	33861	
33828	11	0	33865	33913	
33886	11	0	33886	33921	
33981	9	0	33982	34024	
33996	12	0	34013	34064	
34053	14	0	34066	34123	
34068	10	0	34085	34130	
34068	10	0	34085	34130	
34068	10	0	34085	34130	
34068	10	0	34085	34130	
34120	8	0	34130	34169	
34316	4	0	34321	34348	
34331	9	0	34351	34393	
34406	19	0	34439	34511	
35098	12	14	35115	35136	
35338	16	19	35356	35380	
35348	17	0	35355	35421	
35348	17	0	35355	35421	
35348	17	0	35355	35421	
35889	9	0	35911	35953	
35891	19	0	35894	35966	
35891	19	0	35894	35966	
35891	19	0	35894	35966	
35920	14	0	35940	35997	
36162	7	13	36166	36199	
36224	13	0	36224	36266	
36349	11	0	36359	36407	
36459	7	0	36470	36506	
36467	14	0	36479	36536	
36467	14	0	36479	36536	
36544	0	5	36544	36566	
36745	6	7	36752	36770	
36791	0	19	36818	36905	
36815	0	6	36823	36856	
36827	0	13	36827	36872	
36827	0	13	36827	36872	
36856	0	16	36856	36925	
36858	0	15	36858	36907	
37036	0	2	37055	37076	
37080	0	8	37080	37115	
37209	4	0	37214	37241	
37338	15	16	37374	37392	
37357	5	9	37363	37390	
37357	5	9	37363	37390	
37457	0	9	37476	37533	
37477	0	4	37477	37503	
37534	8	7	37536	37554	
37598	0	16	37622	37685	
37598	0	16	37622	37685	
37598	0	16	37622	37685	
37821	11	12	37841	37859	
37823	0	10	37823	37867	
37823	0	10	37823	37867	
37867	0	4	37893	37920	
37942	0	18	37947	38016	
37942	0	18	37947	38016	
37959	0	8	37959	37996	
37959	0	8	37959	37996	
38093	0	10	38093	38130	
38095	18	7	38108	38156	
38345	6	3	38365	38389	
38371	4	6	38373	38394	
38371	4	6	38373	38394	
38386	0	19	38403	38475	
38428	0	13	38430	38484	
38511	0	15	38516	38576	
38568	0	14	38568	38621	
38602	20	19	38637	38655	
38602	11	6	38621	38651	
38611	0	19	38684	38771	
38627	0	13	38684	38738	
38627	0	13	38684	38738	
38661	0	8	38707	38842	
38664	0	19	38684	38771	
38664	0	19	38684	38771	
38675	11	6	38810	38888	
38679	3	1	38772	38793	
38679	3	1	38772	38793	
38737	0	8	38737	38766	
38737	0	8	38737	38766	
38751	1	7	38793	38919	
38861	0	1	38868	38886	
38861	0	1	38868	38886	
38869	0	13	38869	38967	
38886	0	3	38921	38945	
38886	0	3	38921	38945	
38886	0	3	38921	38945	
38922	7	8	38922	38937	
38922	7	8	38922	38937	
39017	0	1	39029	39047	
39055	0	8	39055	39083	
39079	0	20	39080	39155	
39108	0	1	39108	39120	
39108	0	1	39108	39120	
39108	0	1	39108	39120	
39201	16	19	39203	39227	
39201	16	19	39203	39227	
39263	11	18	39280	39316	
39320	0	2	39356	39377	
39320	0	2	39356	39377	
39320	0	2	39356	39377	
39328	20	0	39337	39412	
39454	0	7	39454	39490	
39472	0	9	39484	39526	
39495	0	10	39495	39544	
39610	13	14	39628	39646	
39654	5	13	39676	39715	
39654	5	13	39676	39715	
39654	5	13	39676	39715	
39657	0	1	39684	39702	
39657	0	1	39684	39702	
39657	0	1	39684	39702	
39657	5	17	39676	39742	
39693	0	2	39693	39720	
39693	0	2	39693	39720	
39721	0	11	39726	39774	
39732	0	11	39732	39774	
39832	0	13	39843	39897	
39905	13	9	39905	39924	
39930	4	9	39948	39978	
39934	0	8	39952	39991	
39936	0	8	39952	39991	
39936	0	8	39952	39991	
40075	0	1	40082	40100	
40077	0	3	40098	40122	
40078	0	4	40082	40124	
40078	0	4	40082	40124	
40114	0	4	40114	40131	
40162	0	12	40162	40202	
40190	13	7	40203	40236	
40210	0	5	40245	40275	
40210	0	5	40245	40275	
40210	0	5	40245	40275	
40277	0	4	40277	40299	
40277	0	4	40277	40299	
40312	0	5	40312	40337	
40382	10	6	40410	40437	
40382	10	6	40410	40437	
40394	0	2	40403	40445	
40413	0	3	40413	40427	
40413	0	3	40413	40427	
40428	0	9	40433	40475	
40428	0	9	40433	40475	
40429	0	9	40433	40475	
40437	4	6	40508	40529	
40450	0	9	40472	40640	
40452	0	1	40472	40490	
40452	0	1	40472	40490	
40453	2	3	40453	40484	
40456	0	10	40508	40553	
40504	18	3	40556	40631	
40689	0	20	40689	40760	
40776	0	11	40787	40835	
40816	12	1	40819	40867	
40844	0	12	40850	40916	
40855	0	11	40855	40898	
40884	3	7	40888	40915	
40926	0	15	40951	41026	
40946	0	20	40946	41021	
40946	0	20	40946	41021	
40959	0	3	40959	40975	
41084	16	9	41087	41123	
41095	0	20	41118	41193	
41146	0	4	41146	41169	
41146	0	4	41146	41169	
41154	0	20	41154	41232	
41154	0	20	41154	41232	
41232	0	18	41253	41349	
41244	0	20	41253	41328	
41244	0	20	41253	41328	
41244	0	20	41253	41328	
41354	0	12	41354	41399	
41386	11	8	41398	41422	
41481	11	10	41482	41500	
41510	1	15	41542	41599	
41510	1	15	41542	41599	
41514	0	8	41549	41588	
41528	0	17	41549	41645	
41605	0	15	41611	41671	
41605	0	15	41611	41671	
41609	14	7	41617	41773	
41616	0	11	41616	41713	
41616	0	11	41616	41713	
41617	0	12	41617	41695	
41617	0	12	41617	41695	
41636	0	13	41726	41780	
41650	0	2	41729	41805	
41652	0	20	41726	41896	
41676	0	18	41737	41939	
41748	15	6	41993	42072	
41760	0	18	41858	41927	
41788	0	19	41858	41966	
41799	0	9	41826	41979	
41806	0	5	41826	41889	
41806	0	5	41826	41889	
41806	0	17	41858	41945	
41807	0	8	41826	41865	
41807	0	8	41826	41865	
41843	0	17	41858	41945	
41847	17	19	41872	41914	
41910	0	11	42008	42056	
41961	0	12	42016	42203	
41986	0	18	42008	42092	
42016	0	13	42016	42122	
42030	0	4	42031	42123	
42070	0	4	42096	42123	
42112	0	5	42177	42207	
42115	17	2	42135	42222	
42115	17	2	42135	42222	
42117	0	8	42165	42219	
42235	0	12	42243	42294	
42252	4	0	42256	42283	
42276	0	15	42278	42338	
42293	8	19	42295	42343	
42347	0	20	42384	42474	
42369	0	18	42384	42453	
42386	20	14	42401	42434	
42435	0	9	42499	42533	
42435	0	9	42499	42533	
42458	0	18	42491	42575	
42458	0	18	42491	42575	
42458	0	18	42491	42575	
42475	0	17	42491	42678	
42499	0	9	42509	42551	
42499	0	9	42509	42551	
42500	0	13	42509	42895	
42501	0	12	42509	42641	
42518	0	10	42518	42662	
42542	0	20	42593	42767	
42545	0	1	42593	42611	
42556	0	2	42593	42629	
42556	0	2	42593	42629	
42563	20	16	42706	42733	
42600	0	20	42600	42767	
42608	10	8	42672	42683	
42623	0	15	42661	42721	
42623	0	15	42661	42721	
42623	0	15	42661	42721	
42672	0	9	42672	42795	
42673	11	13	42677	42731	
42673	11	13	42677	42731	
42694	0	10	42743	42788	
42694	0	10	42743	42788	
42694	0	10	42743	42788	
42726	5	10	42822	42879	
42741	5	12	42830	42858	
42748	0	1	42748	43061	
42763	0	16	42796	43000	
42763	0	16	42796	43000	
42772	0	15	42796	43153	
42818	0	9	42924	43051	
42830	0	17	42924	43012	
42837	0	14	42907	42979	
42837	0	14	42907	42979	
42837	0	14	42907	42979	
42858	2	5	42915	42939	
42906	0	12	42924	43075	
42927	0	4	43078	43226	
42968	19	5	43175	43232	
42979	0	11	43078	43126	
42979	0	11	43078	43126	
43024	0	2	43043	43079	
43024	0	2	43043	43079	
43024	0	2	43043	43079	
43025	16	13	43339	43484	
43086	7	1	43238	43715	
43114	19	15	43147	43174	
43114	19	15	43147	43174	
43139	0	19	43171	43488	
43187	0	10	43253	43416	
43187	0	10	43253	43416	
43213	4	9	43232	43359	
43232	0	20	43262	43352	
43232	0	20	43262	43352	
43241	0	5	43253	43293	
43274	17	12	43293	43356	
43287	14	6	43389	43443	
43287	14	6	43389	43443	
43287	14	6	43389	43443	
43309	0	14	43427	43655	
43309	0	14	43427	43655	
43309	13	20	43316	43352	
43309	13	20	43316	43352	
43309	13	20	43316	43352	
43309	13	20	43316	43352	
43309	13	20	43324	43395	
43309	13	20	43324	43395	
43345	0	4	43491	43537	
43425	0	10	43427	43572	
43425	0	10	43427	43572	
43431	0	3	43431	43465	
43457	0	15	43719	43935	
43473	0	5	43489	43519	
43491	20	7	43880	44081	
43513	0	5	43552	43582	
43513	0	5	43552	43582	
43513	0	5	43552	43582	
43513	0	5	43552	43582	
43525	0	5	43552	43582	
43540	0	6	43552	43600	
43540	0	6	43664	43712	
43552	9	5	43655	43790	
43552	9	5	43655	43790	
43556	0	13	43664	43748	
43557	0	14	43719	43872	
43574	0	20	43664	43962	
43584	15	16	43602	43620	
43614	0	2	43664	43685	
43619	3	15	43732	43902	
43697	0	17	43697	43856	
43697	0	17	43697	43856	
43697	0	17	43697	43856	
43697	0	17	43719	43846	
43697	0	17	43719	43846	
43741	0	16	43741	43838	
43741	0	16	43750	43828	
43741	0	16	43750	43828	
43774	0	9	43827	43869	
43774	0	9	43827	43869	
43774	0	9	43827	43869	
43775	0	18	43827	43928	
43848	0	20	43955	44229	
43853	0	8	43955	44178	
43861	0	2	44010	44031	
43917	0	17	43955	44036	
43938	0	13	43955	44009	
43938	0	13	43955	44009	
43946	0	5	44010	44094	
44033	0	13	44052	44175	
44040	0	10	44052	44151	
44087	0	19	44087	44158	
44087	0	19	44087	44158	
44087	0	19	44087	44158	
44103	0	3	44124	44148	
44150	0	13	44172	44226	
44165	0	16	44172	44250	
44228	6	18	44244	44295	
44249	0	1	44279	44297	
44249	0	1	44279	44297	
44322	0	11	44322	44367	
44322	0	11	44322	44367	
44330	0	18	44330	44403	
44343	0	11	44355	44403	
44374	0	8	44379	44418	
44405	0	14	44451	44523	
44436	0	13	44451	44505	
44482	0	13	44482	44582	
44498	16	4	44508	44559	
44499	0	4	44513	44540	
44541	5	1	44586	44613	
44587	0	5	44601	44631	
44587	0	5	44601	44631	
44639	0	12	44639	44682	
44667	0	10	44667	44706	
44683	11	3	44699	44738	
44701	14	12	44713	44734	
44701	14	12	44713	44734	
44801	0	15	44820	44880	
44835	0	13	44835	44876	
44835	0	13	44835	44876	
44835	0	13	44835	44876	
44900	0	1	44901	44919	
44920	0	4	44930	44957	
44920	0	4	44930	44957	
44929	0	7	44930	44981	
44954	0	12	44954	44995	
44954	0	12	44954	44995	
44954	0	12	44954	44995	
44973	15	1	45000	45057	
44997	0	15	45021	45081	
45013	0	15	45021	45081	
45089	0	1	45090	45108	
45194	0	13	45194	45243	
45194	0	13	45194	45243	
45214	6	16	45225	45270	
45269	0	14	45297	45400	
45277	4	13	45310	45412	
45319	4	0	45319	45339	
45319	4	0	45319	45339	
45319	7	2	45328	45358	
45319	7	2	45328	45358	
45327	5	18	45328	45382	
45327	5	18	45328	45382	
45327	5	18	45328	45382	
45339	14	1	45400	45454	
45343	0	2	45343	45360	
45343	0	2	45343	45360	
45381	0	11	45410	45521	
45411	0	1	45411	45428	
45411	0	1	45411	45428	
45416	0	6	45416	45458	
45454	9	7	45472	45493	
45465	6	14	45465	45497	
45492	0	14	45529	45601	
45492	0	14	45529	45601	
45492	0	14	45529	45601	
45499	0	3	45545	45569	
45513	0	2	45529	45550	
45513	0	2	45529	45550	
45533	0	2	45533	45550	
45535	0	16	45549	45677	
45549	0	15	45549	45620	
45549	0	15	45549	45620	
45553	0	20	45553	45650	
45604	0	9	45617	45674	
45616	0	6	45617	45650	
45616	0	6	45617	45650	
45616	0	6	45617	45650	
45624	0	6	45624	45650	
45624	0	6	45624	45650	
45624	0	6	45643	45676	
45701	0	2	45709	45772	
45708	13	16	45715	45739	
45723	0	4	45724	45751	
45723	0	4	45724	45751	
45723	0	4	45724	45751	
45742	0	15	45793	45853	
45794	10	6	45811	45838	
45794	10	6	45811	45838	
45830	0	11	45882	46032	
45838	0	18	46036	46225	
45852	16	13	45982	46006	
45852	0	8	45882	46056	
45852	0	8	45882	46056	
45855	12	15	45882	45906	
45855	12	15	45882	45906	
45856	0	15	45882	45942	
45908	0	20	45908	45979	
45908	0	20	45908	45979	
45908	0	20	45908	45979	
45950	3	20	45993	46122	
45961	0	13	46036	46117	
45961	0	13	46036	46117	
45987	0	15	46036	46096	
46020	0	6	46036	46153	
46041	0	5	46041	46171	
46041	0	5	46084	46114	
46111	9	4	46164	46194	
46165	5	11	46171	46261	
46172	0	14	46197	46305	
46172	0	14	46197	46305	
46248	0	19	46248	46393	
46248	0	5	46248	46267	
46263	0	10	46309	46354	
46263	0	10	46309	46354	
46277	11	18	46281	46332	
46354	0	12	46384	46435	
46354	0	12	46384	46435	
46354	0	12	46384	46435	
46354	0	12	46384	46435	
46378	11	12	46393	46411	
46404	0	12	46416	46495	
46419	0	18	46419	46528	
46419	0	18	46419	46528	
46425	7	9	46444	46465	
46436	0	2	46504	46525	
46450	11	19	46453	46492	
46450	11	19	46453	46492	
46450	11	19	46453	46492	
46464	0	15	46504	46594	
46464	0	15	46504	46594	
46500	0	18	46504	46618	
46508	0	4	46508	46546	
46508	0	4	46508	46546	
46583	0	13	46597	46651	
46597	0	13	46597	46651	
46599	0	8	46599	46739	
46611	0	18	46648	46769	
46618	0	17	46699	46786	
46641	0	2	46648	46669	
46641	0	2	46648	46669	
46641	0	2	46648	46669	
46667	10	15	46672	46706	
46688	15	0	46703	46778	
46689	0	18	46699	46768	
46689	0	18	46699	46768	
46689	0	18	46699	46768	
46689	0	18	46699	46768	
46767	0	2	46778	46799	
46800	6	3	46820	46844	
46836	0	8	46868	46922	
46846	15	9	46876	46909	
46846	15	9	46876	46909	
46870	0	1	46870	46886	
46870	0	1	46870	46886	
46964	4	16	46967	47018	
46965	10	16	46970	47003	
46965	10	16	46970	47003	
46965	10	16	46970	47003	
47015	4	2	47029	47077	
47027	6	0	47048	47081	
47028	5	0	47066	47104	
47036	4	0	47036	47056	
47067	16	17	47109	47127	
47067	16	17	47109	47127	
47072	2	11	47077	47146	
47083	7	0	47133	47169	
47084	15	0	47173	47233	
47106	3	19	47296	47422	
47114	16	0	47114	47272	
47160	19	0	47200	47272	
47167	20	17	47352	47376	
47176	13	0	47223	47277	
47212	13	0	47223	47277	
47212	13	0	47223	47277	
47274	11	12	47368	47386	
47290	20	0	47323	47413	
47290	20	0	47323	47413	
47290	20	0	47323	47413	
47371	11	0	47371	47530	
47405	20	10	47440	47485	
47427	11	0	47436	47484	
47436	19	0	47436	47499	
47554	20	0	47559	47634	
47554	20	0	47559	47634	
47554	20	0	47559	47634	
47554	20	0	47559	47634	
47592	17	0	47613	47679	
47645	9	11	47657	47678	
47645	9	11	47657	47678	
47645	9	11	47657	47678	
47677	6	0	47689	47722	
47677	6	0	47689	47722	
47724	20	3	47799	47865	
47734	5	0	47742	47772	
47743	10	0	47749	47794	
47777	2	3	47791	47809	
47795	20	0	47799	47889	
47795	20	0	47799	47889	
47796	15	0	47847	47907	
47799	6	20	47866	47923	
47850	15	0	47850	47907	
47850	15	0	47850	47907	
47873	19	0	47941	48013	
47882	12	0	47891	47942	
47882	12	0	47891	47942	
47882	12	0	47891	47942	
47891	19	0	47941	48013	
47940	18	0	47973	48042	
48035	7	0	48049	48085	
48082	0	11	48085	48133	
48110	6	13	48126	48162	
48141	0	3	48164	48188	
48163	20	0	48198	48273	
48218	4	0	48223	48250	
48251	7	20	48263	48317	
48378	11	13	48382	48403	
48423	16	0	48450	48513	
48438	19	16	48450	48474	
48438	19	16	48450	48474	
48457	5	18	48495	48549	
48518	1	0	48523	48541	
48584	17	0	48600	48666	
48584	9	15	48591	48624	
48584	9	15	48591	48624	
48622	12	0	48630	48681	
48645	16	0	48656	48738	
48673	9	0	48696	48738	
48693	13	3	48720	48765	
48693	13	3	48720	48765	
48701	6	0	48714	48747	
48727	18	0	48783	48852	
48727	18	0	48783	48852	
48850	1	0	48870	48888	
48859	18	0	48880	48949	
48859	18	0	48880	48949	
48910	4	0	48922	48949	
48923	7	0	48937	48973	
48923	7	0	48937	48973	
49206	1	0	49207	49225	
49210	0	2	49225	49246	
49218	11	0	49234	49282	
49296	1	14	49297	49351	
49297	6	12	49315	49348	
49309	6	0	49315	49348	
49309	6	0	49315	49348	
49309	6	0	49315	49348	
49309	6	0	49315	49348	
49309	6	0	49315	49348	
49366	16	19	49374	49398	
49366	16	19	49374	49398	
49366	16	19	49374	49398	
49520	11	0	49537	49585	
49537	8	0	49551	49590	
49537	8	0	49551	49590	
49549	4	0	49569	49596	
49710	19	0	49750	49822	
49779	4	3	49804	49822	
49779	4	3	49804	49822	
49779	4	3	49804	49822	
49794	6	0	49809	49842	
49836	11	0	49853	49901	
49836	11	0	49853	49901	
49855	9	0	49879	49921	
49909	3	0	49917	49941	
49926	4	0	49936	49963	
49976	4	0	49976	49995	
49976	4	0	49976	49995	
49996	0	16	49996	50058	
50028	17	0	50041	50107	
50028	17	0	50041	50107	
50028	17	0	50041	50107	
50028	17	0	50041	50107	
50181	13	0	50196	50250	
50199	16	0	50209	50302	
50216	4	0	50227	50254	
50216	4	0	50227	50254	
50226	11	3	50239	50278	
50232	13	0	50241	50295	
50323	12	2	50326	50371	
50344	16	6	50362	50407	
50395	7	11	50401	50428	
50415	19	0	50446	50518	
50415	19	0	50446	50518	
50479	9	11	50482	50503	
50524	8	3	50527	50557	
50524	8	3	50527	50557	
50533	16	8	50571	50610	
50622	7	0	50626	50662	
50622	7	0	50626	50662	
50622	7	0	50626	50662	
50722	10	0	50734	50779	
50722	10	0	50734	50779	
50747	2	0	50757	50778	
50762	6	0	50769	50817	
50772	16	3	50942	50996	
50777	3	0	50793	50817	
50789	5	6	50809	50827	
50789	5	6	50809	50827	
50818	5	0	50818	50860	
50826	14	0	50828	50885	
50845	7	11	50905	50932	
50847	2	0	50858	50879	
50847	2	0	50858	50879	
50851	1	0	50878	50896	
50851	1	0	50878	50896	
50851	1	0	50878	50896	
50851	1	0	50878	50896	
50937	10	4	50941	50974	
50937	10	4	50941	50974	
50946	4	20	50960	51023	
51014	10	0	51019	51064	
51050	5	0	51067	51097	
51073	10	0	51080	51125	
51094	4	0	51099	51126	
51094	4	0	51099	51126	
51114	19	0	51164	51236	
51134	19	0	51164	51236	
51239	1	0	51254	51272	
51268	14	0	51319	51376	
51295	16	0	51348	51411	
51321	17	0	51330	51411	
51331	12	10	51341	51362	
51390	17	0	51407	51473	
51424	15	0	51434	51494	
51440	13	0	51457	51511	
51527	16	0	51540	51603	
51527	16	0	51540	51603	
51527	16	0	51540	51603	
51721	18	4	51735	51792	
51721	18	4	51735	51792	
51784	2	0	51805	51826	
51820	1	0	51835	51853	
51828	7	0	51833	51869	
51828	7	0	51833	51869	
51869	19	0	51906	51978	
51884	9	0	51899	51941	
51884	9	0	51899	51941	
51994	3	0	51996	52020	
51995	11	0	52004	52052	
52011	16	10	52060	52093	
52123	7	0	52131	52167	
52123	7	0	52131	52167	
52156	15	0	52181	52335	
52197	12	1	52218	52266	
52197	12	1	52218	52266	
52211	14	0	52233	52305	
52227	15	10	52260	52290	
52263	8	0	52266	52305	
52391	16	0	52413	52476	
52406	3	0	52419	52443	
52414	12	0	52423	52474	
52448	13	17	52455	52482	
52448	13	17	52455	52482	
52468	7	0	52479	52515	
52468	7	0	52479	52515	
52566	11	0	52571	52670	
52573	9	7	52651	52672	
52575	18	0	52593	52708	
52588	10	16	52616	52670	
52588	10	16	52616	52670	
52588	10	16	52616	52670	
52642	13	18	52646	52691	
52705	5	0	52727	52757	
52758	1	0	52761	52779	
52854	9	13	52886	52913	
52966	9	4	52977	53007	
52974	18	0	52991	53075	
52974	18	0	52991	53075	
52993	15	0	53015	53075	
52993	15	0	53015	53075	
52993	15	0	53015	53075	
52998	9	0	52998	53036	
53007	12	18	53009	53042	
53007	12	18	53009	53042	
53007	12	18	53009	53042	
53007	12	18	53009	53042	
53021	19	0	53067	53139	
53021	19	0	53067	53139	
53021	17	0	53060	53126	
53122	19	17	53123	53144	
53122	19	17	53123	53144	
53177	16	0	53189	53267	
53184	14	0	53197	53254	
53208	1	0	53213	53231	
53220	10	0	53222	53267	
53220	10	0	53222	53267	
53244	10	0	53263	53308	
53264	18	0	53300	53384	
53292	9	16	53296	53332	
53292	9	16	53296	53332	
53344	5	19	53352	53409	
53344	5	19	53352	53409	
53387	17	16	53422	53440	
53387	17	16	53422	53440	
53412	3	0	53418	53442	
53459	0	16	53463	53526	
53469	15	0	53482	53542	
53502	15	0	53510	53570	
53509	20	10	53553	53598	
53530	10	0	53542	53587	
53633	10	0	53636	53681	
53722	13	7	53735	53768	
53733	8	19	53739	53787	
53733	8	19	53739	53787	
53733	8	19	53739	53787	
53733	8	19	53739	53787	
53762	13	18	53775	53805	
53782	12	9	53798	53822	
53878	11	0	53884	53932	
53878	11	0	53884	53932	
53888	12	0	53903	53954	
53909	4	19	53937	53997	
53931	19	0	53960	54032	
53931	19	0	53960	54032	
53997	18	0	54001	54070	
54084	6	0	54096	54129	
54105	2	8	54107	54140	
54105	2	8	54107	54140	
54134	19	0	54189	54261	
54141	13	0	54170	54224	
54161	4	0	54168	54214	
54178	14	17	54237	54261	
54183	1	0	54196	54214	
54183	1	0	54196	54214	
54183	1	0	54196	54214	
54183	1	0	54196	54214	
54187	19	0	54189	54261	
54193	11	13	54198	54219	
54193	11	13	54198	54219	
54206	10	0	54269	54314	
54293	18	0	54315	54384	
54296	20	0	54332	54407	
54348	13	17	54366	54393	
54348	13	17	54366	54393	
54348	13	17	54366	54393	
54376	0	19	54384	54456	
54382	19	8	54401	54449	
54382	19	8	54401	54449	
54447	9	0	54453	54495	
54456	20	0	54474	54549	
54456	20	0	54474	54549	
54491	7	0	54524	54560	
54491	7	0	54524	54560	
54509	1	0	54530	54548	
54510	14	0	54513	54585	
54579	1	0	54579	54596	
54677	20	0	54743	54818	
54685	3	0	54693	54717	
54735	1	0	54737	54755	
54895	3	0	54896	54920	
54895	3	0	54896	54920	
54895	3	0	54896	54920	
54895	3	0	54896	54920	
54895	3	0	54896	54920	
54938	17	0	54961	55060	
54974	17	20	54974	54985	
54982	16	5	55000	55048	
54982	16	5	55000	55048	
55016	11	0	55031	55079	
55059	8	20	55072	55123	
55059	8	20	55072	55123	
55059	8	20	55072	55123	
55084	18	0	55125	55194	
55084	18	0	55125	55194	
55095	5	3	55102	55123	
55148	14	3	55151	55213	
55163	19	8	55358	55406	
55178	16	0	55180	55243	
55178	16	0	55180	55243	
55178	16	0	55180	55243	
55178	16	0	55180	55243	
55185	9	0	55275	55317	
55210	3	16	55215	55267	
55210	3	16	55215	55267	
55215	14	0	55229	55286	
55231	7	0	55234	55317	
55231	7	0	55234	55317	
55258	1	15	55261	55318	
55258	1	15	55261	55318	
55279	0	19	55286	55358	
55279	0	19	55286	55358	
55279	0	19	55286	55358	
55285	12	0	55375	55448	
55320	9	0	55331	55373	
55320	9	0	55331	55373	
55400	14	5	55419	55476	
55417	3	0	55436	55460	
55417	3	0	55436	55460	
55417	3	0	55436	55460	
55431	10	0	55505	55584	
55436	8	4	55452	55494	
55462	9	0	55490	55532	
55462	9	0	55490	55532	
55476	5	0	55476	55521	
55533	18	16	55601	55622	
55533	18	16	55601	55622	
55541	15	0	55559	55619	
55541	15	0	55559	55619	
55560	2	0	55563	55584	
55560	2	0	55563	55584	
55613	15	2	55640	55694	
55613	15	2	55640	55694	
55639	4	17	55656	55710	
55645	4	0	55646	55673	
55670	15	0	55739	55814	
55684	8	0	55712	55751	
55829	6	0	55853	55886	
55834	9	0	55844	55886	
55837	16	0	55842	55930	
55845	0	13	55846	55900	
55873	13	0	55900	55954	
55876	11	0	55882	55930	
55944	20	9	55976	56024	
56002	9	18	56010	56166	
56012	14	0	56040	56097	
56016	16	0	56045	56108	
56016	16	0	56045	56108	
56016	16	0	56045	56108	
56017	8	17	56018	56060	
56018	20	0	56187	56262	
56131	8	0	56147	56186	
56161	10	0	56171	56231	
56161	10	0	56171	56231	
56174	8	0	56192	56231	
56174	9	0	56191	56233	
56217	9	0	56228	56285	
56227	5	0	56255	56285	
56254	19	4	56326	56386	
56279	18	0	56302	56386	
56291	11	0	56310	56358	
56314	5	0	56315	56345	
56333	10	0	56341	56386	
56344	10	0	56344	56386	
56361	16	0	56408	56471	
56361	16	0	56408	56471	
56398	4	8	56398	56413	
56401	3	0	56440	56464	
56448	0	20	56464	56539	
56470	13	0	56473	56575	
56473	0	20	56473	56542	
56473	0	20	56473	56542	
56478	18	20	56563	56584	
56480	6	0	56509	56575	
56496	2	0	56506	56527	
56496	2	0	56506	56527	
56503	16	0	56590	56690	
56517	5	9	56659	56686	
56579	9	6	56617	56641	
56627	15	0	56636	56696	
56627	15	0	56636	56696	
56627	15	0	56636	56696	
56627	15	0	56636	56696	
56642	12	15	56762	56805	
56645	7	0	56654	56690	
56656	18	10	56758	56818	
56656	18	10	56758	56818	
56702	2	0	56711	56732	
56709	10	13	56777	56828	
56735	9	0	56741	56865	
56741	18	19	56758	56776	
56741	18	19	56758	56776	
56780	3	19	56808	56871	
56781	13	15	56784	56805	
56781	10	0	56781	56928	
56847	7	9	56930	56951	
56853	3	0	56899	56923	
56867	5	0	56898	56928	
56886	13	0	56904	56958	
56922	18	0	57010	57079	
56968	9	3	56972	57123	
56970	18	0	57010	57079	
56972	1	0	56976	56994	
56981	12	19	56987	57023	
57005	9	0	57036	57093	
57027	11	0	57051	57099	
57027	11	0	57051	57099	
57034	18	16	57041	57062	
57060	3	0	57069	57093	
57103	8	0	57107	57146	
57145	1	0	57148	57166	
57145	1	0	57148	57166	
57161	18	0	57225	57294	
57172	7	0	57175	57211	
57209	1	0	57244	57262	
57221	15	0	57247	57322	
57225	10	0	57235	57280	
57265	11	0	57274	57322	
57268	5	1	57292	57319	
57295	7	0	57316	57352	
57380	15	0	57405	57465	
57451	12	0	57453	57504	
57478	5	0	57480	57510	
57507	19	11	57552	57591	
57563	5	8	57573	57597	
