Time	HWP_b1	QWP_b1	HWP_b2	QWP_b2	Single Count 1	Single Count 2	Single Count 3	Single Count 4	Sum	Coincidence Count 1	Coincidence Count 2	Coincidence Count 3	Coincidence Count 4	Coincidence Sum
6378,3880	0,0001	-45,0016	-0,0014	-0,0032	694,0000	5654,0000	1896,0000	815,0000	5654,0000	1,0000	0,0000	17,0000	10,0000	28,0000
6388,7790	0,0001	-45,0016	-0,0014	-0,0032	715,0000	5675,0000	1876,0000	863,0000	5675,0000	2,0000	0,0000	19,0000	8,0000	29,0000
6399,1790	0,0001	-45,0016	-0,0014	-0,0032	675,0000	5473,0000	1940,0000	807,0000	5473,0000	1,0000	1,0000	19,0000	10,0000	31,0000
6438,7940	0,0001	-45,0016	22,4988	-0,0032	635,0000	5506,0000	2213,0000	448,0000	5506,0000	3,0000	0,0000	19,0000	1,0000	23,0000
6449,1550	0,0001	-45,0016	22,4988	-0,0032	697,0000	5621,0000	2223,0000	402,0000	5621,0000	0,0000	0,0000	16,0000	3,0000	19,0000
6459,5840	0,0001	-45,0016	22,4988	-0,0032	673,0000	5507,0000	2168,0000	442,0000	5507,0000	3,0000	0,0000	16,0000	2,0000	21,0000
6504,3110	0,0001	-45,0016	-0,0014	134,9958	719,0000	5510,0000	1477,0000	1385,0000	5510,0000	1,0000	0,0000	14,0000	11,0000	26,0000
6514,6740	0,0001	-45,0016	-0,0014	134,9958	664,0000	5600,0000	1478,0000	1272,0000	5600,0000	0,0000	0,0000	16,0000	11,0000	27,0000
6525,1220	0,0001	-45,0016	-0,0014	134,9958	699,0000	5561,0000	1483,0000	1361,0000	5561,0000	1,0000	1,0000	16,0000	12,0000	30,0000
