5451.38	45.0001	-0.0001	22.4988	-0.0032	673	5475	3168	550	5475	1	0	27	4	32
5461.738	45.0001	-0.0001	22.4988	-0.0032	715	5480	3214	520	5480	0	0	30	5	35
5472.162	45.0001	-0.0001	22.4988	-0.0032	705	5651	3225	547	5651	7	0	35	4	46
