6504.311	0.0001	-45.0016	-0.0014	134.9958	719	5510	1477	1385	5510	1	0	14	11	26
6514.674	0.0001	-45.0016	-0.0014	134.9958	664	5600	1478	1272	5600	0	0	16	11	27
6525.122	0.0001	-45.0016	-0.0014	134.9958	699	5561	1483	1361	5561	1	1	16	12	30
