5632.529	0.0001	-0.0001	-0.0009	-0.0032	699	5468	1160	613	5468	1	0	6	1	8
5642.875	0.0001	-0.0001	-0.0009	-0.0032	689	5681	1174	572	5681	3	0	8	3	14
5653.265	0.0001	-0.0001	-0.0009	-0.0032	686	5702	1191	556	5702	3	0	4	3	10
