72.33333333333333
75.33333333333333
53.333333333333336
58.0
58.0
56.333333333333336
54.333333333333336
62.666666666666664
58.666666666666664
70.0
62.0
47.333333333333336
44.0
71.33333333333333
58.333333333333336
46.666666666666664
48.333333333333336
58.333333333333336
75.0
66.0
58.666666666666664
46.666666666666664
62.666666666666664
57.0
55.0
60.666666666666664
71.0
76.66666666666667
74.33333333333333
84.0
74.0
74.66666666666667
56.666666666666664
52.0
41.666666666666664
33.666666666666664
44.666666666666664
51.0
67.66666666666667
39.666666666666664
68.66666666666667
59.666666666666664
50.0
67.0
77.0
84.33333333333333
70.66666666666667
62.0
53.0
78.66666666666667
31.666666666666668
54.0
72.0
49.0
50.0
70.33333333333333
77.33333333333333
61.666666666666664
66.33333333333333
58.333333333333336
59.666666666666664
64.33333333333333
76.0
84.66666666666667
75.66666666666667
63.666666666666664
62.0
62.333333333333336
39.666666666666664
55.333333333333336
76.66666666666667
69.66666666666667
67.66666666666667
46.0
41.333333333333336
60.0
63.0
68.33333333333333
52.333333333333336
50.666666666666664
33.333333333333336
50.333333333333336
49.666666666666664
58.0
62.0
49.0
66.66666666666667
63.0
67.66666666666667
37.0
82.33333333333333
59.0
58.0
87.66666666666667
50.333333333333336
66.0
67.66666666666667
65.0
61.0
66.0
61.666666666666664
51.666666666666664
77.66666666666667
69.0
39.666666666666664
44.0
57.0
35.666666666666664
85.66666666666667
49.0
75.33333333333333
58.333333333333336
75.66666666666667
48.0
47.333333333333336
82.66666666666667
76.66666666666667
47.666666666666664
76.33333333333333
74.66666666666667
56.666666666666664
38.333333333333336
47.333333333333336
78.33333333333333
71.66666666666667
71.66666666666667
58.0
54.333333333333336
56.333333333333336
29.666666666666668
58.666666666666664
78.66666666666667
67.66666666666667
70.33333333333333
54.333333333333336
69.0
70.0
74.33333333333333
55.0
64.0
46.0
63.0
58.0
55.0
53.0
78.33333333333333
73.0
54.0
53.666666666666664
50.0
50.666666666666664
50.666666666666664
75.66666666666667
65.33333333333333
47.0
79.0
58.333333333333336
44.666666666666664
55.333333333333336
29.0
68.66666666666667
61.333333333333336
74.0
47.666666666666664
67.0
87.66666666666667
89.66666666666667
64.0
40.0
63.0
72.0
80.33333333333333
75.0
73.66666666666667
53.0
47.666666666666664
51.0
77.0
68.66666666666667
51.0
40.0
48.333333333333336
76.0
72.0
63.333333333333336
56.666666666666664
61.333333333333336
75.33333333333333
75.0
55.0
48.0
63.333333333333336
35.666666666666664
45.0
69.66666666666667
68.33333333333333
81.0
51.333333333333336
46.666666666666664
59.96482412060301 62.27638190954774 60.48743718592965