3259.162	0.0001	-0.0001	-0.0009	-0.0037	685	5612	469	5268	5612	0	1	0	159	160
3269.542	0.0001	-0.0001	-0.0009	-0.0037	712	5543	387	5146	5543	2	4	0	144	150
3279.96	0.0001	-0.0001	-0.0009	-0.0037	685	5611	398	5192	5611	0	2	1	174	177
3290.405	0.0001	-0.0001	-0.0009	-0.0037	605	5616	416	5205	5616	1	0	0	162	163
3300.754	0.0001	-0.0001	-0.0009	-0.0037	670	5652	410	5039	5652	1	2	0	159	162
3311.204	0.0001	-0.0001	-0.0009	-0.0037	649	5602	427	5181	5602	1	2	0	154	157
3321.572	0.0001	-0.0001	-0.0009	-0.0037	666	5594	426	5039	5594	0	0	1	161	162
3331.953	0.0001	-0.0001	-0.0009	-0.0037	659	5701	419	5205	5701	2	1	0	161	164
3342.332	0.0001	-0.0001	-0.0009	-0.0037	732	5664	437	5350	5664	1	3	0	160	164
3352.756	0.0001	-0.0001	-0.0009	-0.0037	693	5643	428	5274	5643	1	2	0	161	164
3491.376	0.0001	-0.0001	44.997	-0.0037	679	5458	4765	360	5458	3	0	73	3	79
3501.786	0.0001	-0.0001	44.997	-0.0037	690	5588	4633	379	5588	4	1	85	3	93
3512.208	0.0001	-0.0001	44.997	-0.0037	671	5489	4745	352	5489	3	1	84	0	88
3522.69	0.0001	-0.0001	44.997	-0.0037	686	5466	4639	343	5466	3	1	83	3	90
3533.174	0.0001	-0.0001	44.997	-0.0037	666	5770	4740	387	5770	3	0	85	4	92
3543.679	0.0001	-0.0001	44.997	-0.0037	694	5561	4730	356	5561	6	1	99	1	107
3554.143	0.0001	-0.0001	44.997	-0.0037	665	5674	4690	361	5674	1	0	96	3	100
3564.582	0.0001	-0.0001	44.997	-0.0037	681	5544	4677	351	5544	2	0	79	0	81
3575.1	0.0001	-0.0001	44.997	-0.0037	695	5574	4772	358	5574	2	1	90	3	96
3585.642	0.0001	-0.0001	44.997	-0.0037	671	5602	4635	375	5602	3	1	72	4	80
